EESchema Schematic File Version 2
LIBS:power
LIBS:device
LIBS:transistors
LIBS:conn
LIBS:linear
LIBS:regul
LIBS:74xx
LIBS:cmos4000
LIBS:adc-dac
LIBS:memory
LIBS:xilinx
LIBS:microcontrollers
LIBS:dsp
LIBS:microchip
LIBS:analog_switches
LIBS:motorola
LIBS:texas
LIBS:intel
LIBS:audio
LIBS:interface
LIBS:digital-audio
LIBS:philips
LIBS:display
LIBS:cypress
LIBS:siliconi
LIBS:opto
LIBS:atmel
LIBS:contrib
LIBS:valves
LIBS:smiley-component
LIBS:lamp_v2-cache
EELAYER 25 0
EELAYER END
$Descr A4 11693 8268
encoding utf-8
Sheet 7 19
Title ""
Date ""
Rev ""
Comp ""
Comment1 ""
Comment2 ""
Comment3 ""
Comment4 ""
$EndDescr
$Comp
L CONN_02X03 P6
U 1 1 57CB3185
P 1950 2100
F 0 "P6" H 1950 2300 50  0000 C CNN
F 1 "CONN_02X03" H 1950 1900 50  0000 C CNN
F 2 "Pin_Headers:Pin_Header_Straight_2x03" H 1950 1800 50  0000 C CNN
F 3 "" H 1950 900 50  0000 C CNN
	1    1950 2100
	1    0    0    -1  
$EndComp
Text Label 2450 2000 0    60   ~ 0
SER_OUT
Text Label 2450 1800 0    60   ~ 0
LATCH
Text Label 2450 2100 0    60   ~ 0
SCK
Text Label 2450 1900 0    60   ~ 0
VCC
Text Label 2450 1700 0    60   ~ 0
BTN
Text Label 2450 2200 0    60   ~ 0
GND
Text HLabel 3900 1450 0    60   Input ~ 0
SCK
Text HLabel 3900 1350 0    60   Input ~ 0
LATCH
Text HLabel 3900 1250 0    60   Input ~ 0
SER_IN
Text HLabel 1200 1900 0    60   Input ~ 0
VCC
Text HLabel 1200 1700 0    60   Input ~ 0
BTN
Text HLabel 3100 2200 2    60   Output ~ 0
GND_OUT2
$Sheet
S 4400 950  1000 2100
U 57CB6F00
F0 "sheet57CB6EEA" 60
F1 "DoubleShift.sch" 60
F2 "SER_IN" I L 4400 1250 60 
F3 "LATCH" I L 4400 1350 60 
F4 "CLOCK" I L 4400 1450 60 
F5 "SER_OUT" O R 5400 2800 60 
F6 "AA" O R 5400 1200 60 
F7 "AB" O R 5400 1300 60 
F8 "AC" O R 5400 1400 60 
F9 "AD" O R 5400 1500 60 
F10 "AE" O R 5400 1600 60 
F11 "AF" O R 5400 1700 60 
F12 "AG" O R 5400 1800 60 
F13 "AH" O R 5400 1900 60 
F14 "BA" O R 5400 2000 60 
F15 "BB" O R 5400 2100 60 
F16 "BC" O R 5400 2200 60 
F17 "BD" O R 5400 2300 60 
F18 "BE" O R 5400 2400 60 
F19 "BF" O R 5400 2500 60 
F20 "BG" O R 5400 2600 60 
F21 "BH" O R 5400 2700 60 
$EndSheet
$Sheet
S 7200 950  500  500 
U 57CB8A0D
F0 "CC_Driver1" 60
F1 "CC_Driver.sch" 60
F2 "HGND" I L 7200 1300 60 
F3 "HVCC" I L 7200 1100 60 
F4 "SIGNAL" I L 7200 1200 60 
$EndSheet
Text Label 5650 1200 0    60   ~ 0
LED1
Text Label 5650 1300 0    60   ~ 0
LED2
Text Label 5650 1400 0    60   ~ 0
LED3
Text Label 5650 1500 0    60   ~ 0
LED4
Text Label 5650 1600 0    60   ~ 0
LED5
Text Label 5650 1700 0    60   ~ 0
LED6
Text Label 5650 1800 0    60   ~ 0
LED7
Text Label 5650 1900 0    60   ~ 0
LED8
Text Label 5650 2000 0    60   ~ 0
BUCK1
Text Label 5650 2100 0    60   ~ 0
BUCK2
Text Label 5650 2200 0    60   ~ 0
HV_SWITCH
Text Label 6800 1200 0    60   ~ 0
LED1
$Sheet
S 7200 1750 500  500 
U 57CC72B0
F0 "sheet57CC72AB" 60
F1 "CC_Driver.sch" 60
F2 "HGND" I L 7200 2100 60 
F3 "HVCC" I L 7200 1900 60 
F4 "SIGNAL" I L 7200 2000 60 
$EndSheet
Text Label 6800 2000 0    60   ~ 0
LED2
$Sheet
S 7200 2600 500  500 
U 57CC76DC
F0 "sheet57CC76D7" 60
F1 "CC_Driver.sch" 60
F2 "HGND" I L 7200 2950 60 
F3 "HVCC" I L 7200 2750 60 
F4 "SIGNAL" I L 7200 2850 60 
$EndSheet
Text Label 6800 2850 0    60   ~ 0
LED3
$Sheet
S 8800 950  500  500 
U 57CC7AFF
F0 "sheet57CC7AFA" 60
F1 "CC_Driver.sch" 60
F2 "HGND" I L 8800 1300 60 
F3 "HVCC" I L 8800 1100 60 
F4 "SIGNAL" I L 8800 1200 60 
$EndSheet
Text Label 8400 1200 0    60   ~ 0
LED4
$Sheet
S 8800 1750 500  500 
U 57CC8003
F0 "sheet57CC7FFE" 60
F1 "CC_Driver.sch" 60
F2 "HGND" I L 8800 2100 60 
F3 "HVCC" I L 8800 1900 60 
F4 "SIGNAL" I L 8800 2000 60 
$EndSheet
Text Label 8400 2000 0    60   ~ 0
LED5
$Sheet
S 8800 2600 500  500 
U 57CC83DE
F0 "sheet57CC83D9" 60
F1 "CC_Driver.sch" 60
F2 "HGND" I L 8800 2950 60 
F3 "HVCC" I L 8800 2750 60 
F4 "SIGNAL" I L 8800 2850 60 
$EndSheet
Text Label 8400 2850 0    60   ~ 0
LED6
$Sheet
S 10150 950  500  500 
U 57CC9D2E
F0 "sheet57CC9D29" 60
F1 "CC_Driver.sch" 60
F2 "HGND" I L 10150 1300 60 
F3 "HVCC" I L 10150 1100 60 
F4 "SIGNAL" I L 10150 1200 60 
$EndSheet
Text Label 9750 1200 0    60   ~ 0
LED7
$Sheet
S 10150 1750 500  500 
U 57CCA08B
F0 "sheet57CCA086" 60
F1 "CC_Driver.sch" 60
F2 "HGND" I L 10150 2100 60 
F3 "HVCC" I L 10150 1900 60 
F4 "SIGNAL" I L 10150 2000 60 
$EndSheet
Text Label 9750 2000 0    60   ~ 0
LED8
Text Label 6800 1300 0    60   ~ 0
HGND
Text Label 6800 2100 0    60   ~ 0
HGND
Text Label 6800 2950 0    60   ~ 0
HGND
Text Label 8400 1300 0    60   ~ 0
HGND
Text Label 8400 2100 0    60   ~ 0
HGND
Text Label 8400 2950 0    60   ~ 0
HGND
Text Label 9750 1300 0    60   ~ 0
HGND
Text Label 9750 2100 0    60   ~ 0
HGND
Wire Wire Line
	1700 2000 800  2000
Wire Wire Line
	750  2100 1700 2100
Wire Wire Line
	700  2200 1700 2200
Wire Wire Line
	2200 2200 3100 2200
Wire Wire Line
	800  2000 800  1900
Wire Wire Line
	750  2100 750  1800
Wire Wire Line
	700  2200 700  1700
Wire Wire Line
	5400 1200 6150 1200
Wire Wire Line
	5400 1300 6150 1300
Wire Wire Line
	5400 1400 6150 1400
Wire Wire Line
	5400 1500 6150 1500
Wire Wire Line
	5400 1600 6150 1600
Wire Wire Line
	5400 1700 6150 1700
Wire Wire Line
	5400 1800 6150 1800
Wire Wire Line
	5400 1900 6150 1900
Wire Wire Line
	5400 2000 6150 2000
Wire Wire Line
	5400 2100 6150 2100
Wire Wire Line
	5400 2200 6150 2200
Wire Wire Line
	5400 2300 6150 2300
Wire Wire Line
	5400 2400 6150 2400
Wire Wire Line
	5400 2500 6150 2500
Wire Wire Line
	5400 2600 6150 2600
Wire Wire Line
	5400 2700 6150 2700
Wire Wire Line
	7200 1200 6700 1200
Wire Wire Line
	7200 2000 6700 2000
Wire Wire Line
	7200 2850 6700 2850
Wire Wire Line
	8800 1200 8300 1200
Wire Wire Line
	8800 2000 8300 2000
Wire Wire Line
	8800 2850 8300 2850
Wire Wire Line
	10150 1200 9650 1200
Wire Wire Line
	10150 2000 9650 2000
Wire Wire Line
	7200 1300 6700 1300
Wire Wire Line
	7200 2100 6700 2100
Wire Wire Line
	7200 2950 6700 2950
Wire Wire Line
	8800 1300 8300 1300
Wire Wire Line
	8800 2100 8300 2100
Wire Wire Line
	8800 2950 8300 2950
Wire Wire Line
	10150 1300 9650 1300
Wire Wire Line
	10150 2100 9650 2100
$Sheet
S 9000 4200 900  500 
U 57CF7F2E
F0 "BuckSwitch2" 60
F1 "BuckSwitch.sch" 60
F2 "BUCK_V" O R 9900 4350 60 
F3 "IN_V" I L 9000 4350 60 
F4 "HGND" I L 9000 4550 60 
F5 "SIGNAL" I L 9000 4450 60 
$EndSheet
Wire Wire Line
	9000 4350 8350 4350
Wire Wire Line
	9000 4550 8350 4550
Wire Wire Line
	9000 4450 8350 4450
Wire Wire Line
	9900 4350 10500 4350
Text Label 8450 4350 0    60   ~ 0
16V
Text Label 8450 4450 0    60   ~ 0
BUCK2
Text Label 8450 4550 0    60   ~ 0
HGND
Text Label 10050 4350 0    60   ~ 0
14V
$Sheet
S 6400 4200 900  500 
U 57CFE7C0
F0 "BuckSwitch1" 60
F1 "BuckSwitch.sch" 60
F2 "BUCK_V" O R 7300 4350 60 
F3 "IN_V" I L 6400 4350 60 
F4 "HGND" I L 6400 4550 60 
F5 "SIGNAL" I L 6400 4450 60 
$EndSheet
Wire Wire Line
	6400 4350 5750 4350
Wire Wire Line
	6400 4550 5750 4550
Wire Wire Line
	6400 4450 5750 4450
Wire Wire Line
	7300 4350 7900 4350
Text Label 5850 4350 0    60   ~ 0
16V
Text Label 5850 4450 0    60   ~ 0
BUCK1
Text Label 5850 4550 0    60   ~ 0
HGND
Text Label 7450 4350 0    60   ~ 0
15V
Wire Wire Line
	7200 1100 6700 1100
Wire Wire Line
	7200 1900 6700 1900
Wire Wire Line
	7200 2750 6700 2750
Wire Wire Line
	8300 1100 8800 1100
Wire Wire Line
	8800 1900 8300 1900
Wire Wire Line
	8800 2750 8300 2750
Wire Wire Line
	10150 1100 9650 1100
Wire Wire Line
	10150 1900 9650 1900
Text Label 9750 1100 0    60   ~ 0
16V
Text Label 9750 1900 0    60   ~ 0
16V
Text Label 8400 1100 0    60   ~ 0
15V
Text Label 8400 1900 0    60   ~ 0
15V
Text Label 8400 2750 0    60   ~ 0
15V
Text Label 6800 1100 0    60   ~ 0
14V
Text Label 6800 1900 0    60   ~ 0
14V
Text Label 6800 2750 0    60   ~ 0
14V
$Sheet
S 7500 5000 1150 700 
U 57D09182
F0 "HV_Switch" 60
F1 "HV_Switch.sch" 60
F2 "V_OUT" O R 8650 5200 60 
F3 "V_IN" I L 7500 5200 60 
F4 "HGND" I L 7500 5300 60 
F5 "SIGNAL" I L 7500 5400 60 
$EndSheet
Wire Wire Line
	7500 5200 6750 5200
Wire Wire Line
	7500 5300 6750 5300
Wire Wire Line
	7500 5400 6750 5400
Wire Wire Line
	8650 5200 9350 5200
$Comp
L CONN_01X01 P7
U 1 1 57D0BE26
P 2450 5600
F 0 "P7" H 2450 5700 50  0000 C CNN
F 1 "CONN_01X01" V 2550 5600 50  0000 C CNN
F 2 "Pin_Headers:Pin_Header_Straight_1x01" H 2450 5600 50  0000 C CNN
F 3 "" H 2450 5600 50  0000 C CNN
	1    2450 5600
	-1   0    0    1   
$EndComp
$Comp
L CONN_01X01 P8
U 1 1 57D0BE2C
P 2450 6150
F 0 "P8" H 2450 6250 50  0000 C CNN
F 1 "CONN_01X01" V 2550 6150 50  0000 C CNN
F 2 "Pin_Headers:Pin_Header_Straight_1x01" H 2450 6150 50  0000 C CNN
F 3 "" H 2450 6150 50  0000 C CNN
	1    2450 6150
	-1   0    0    1   
$EndComp
Wire Wire Line
	2650 5600 3500 5600
Wire Wire Line
	2650 6150 3500 6150
Text Label 2800 5600 0    60   ~ 0
12V
Text Label 2850 6150 0    60   ~ 0
HGND
Text Label 6950 5200 0    60   ~ 0
12V
Text Label 8850 5200 0    60   ~ 0
16V
Text Label 6950 5300 0    60   ~ 0
HGND
Text Label 6950 5400 0    60   ~ 0
HV_SWITCH
$Comp
L BARREL_JACK CON1
U 1 1 57D0F309
P 2650 4350
F 0 "CON1" H 2650 4600 50  0000 C CNN
F 1 "BARREL_JACK" H 2650 4150 50  0000 C CNN
F 2 "smiley-library:BARREL_JACK_nosilk" H 2650 4350 50  0000 C CNN
F 3 "" H 2650 4350 50  0000 C CNN
	1    2650 4350
	1    0    0    -1  
$EndComp
Wire Wire Line
	2950 4350 2950 4450
Wire Wire Line
	2950 4400 3700 4400
Connection ~ 2950 4400
Wire Wire Line
	2950 4250 3700 4250
Text Label 3150 4250 0    60   ~ 0
12V
Text Label 3150 4400 0    60   ~ 0
HGND
$Comp
L BUCK_3A U6
U 1 1 57D10392
P 2350 7150
F 0 "U6" H 2350 7250 60  0000 C CNN
F 1 "BUCK_1A" H 2350 7400 60  0000 C CNN
F 2 "smiley-library:BUCK_1A" H 2350 7250 60  0001 C CNN
F 3 "" H 2350 7250 60  0001 C CNN
	1    2350 7150
	0    1    1    0   
$EndComp
Wire Wire Line
	2750 6950 3300 6950
Wire Wire Line
	2750 7050 3300 7050
Wire Wire Line
	2750 7250 3550 7250
Wire Wire Line
	2750 7350 3550 7350
Text Label 2850 6950 0    60   ~ 0
12V
Text Label 2850 7050 0    60   ~ 0
HGND
Text Label 2850 7350 0    60   ~ 0
GND
Text Label 2850 7250 0    60   ~ 0
5V
Text HLabel 3550 7250 2    60   Output ~ 0
5V_OUT
Text HLabel 3550 7350 2    60   Output ~ 0
GND_OUT
NoConn ~ 6150 2300
NoConn ~ 6150 2400
NoConn ~ 6150 2500
NoConn ~ 6150 2600
NoConn ~ 6150 2700
Wire Wire Line
	5400 2800 6150 2800
Text HLabel 6150 2800 2    60   Output ~ 0
SER_OUT
Wire Wire Line
	3900 1250 4400 1250
Wire Wire Line
	3900 1350 4400 1350
Wire Wire Line
	3900 1450 4400 1450
Text Label 5550 2800 0    60   ~ 0
SER_OUT
Text HLabel 2900 2200 0    60   Input ~ 0
GND
Wire Wire Line
	2200 2100 4300 2100
Wire Wire Line
	4300 2100 4300 1450
Connection ~ 4300 1450
Wire Wire Line
	2200 2000 3100 2000
Text HLabel 3100 2000 2    60   Output ~ 0
SER_OUT
Wire Wire Line
	800  1900 3100 1900
Wire Wire Line
	750  1800 4100 1800
Wire Wire Line
	700  1700 3100 1700
Wire Wire Line
	4100 1800 4100 1350
Connection ~ 4100 1350
Text HLabel 3100 1900 2    60   Output ~ 0
VCC_OUT
Text HLabel 3100 1700 2    60   Output ~ 0
BTN_OUT
Text HLabel 3100 1800 2    60   Output ~ 0
LATCH_OUT
Text HLabel 3100 2100 2    60   Output ~ 0
SCK_OUT
$EndSCHEMATC
