EESchema Schematic File Version 2
LIBS:lamp-rescue
LIBS:power
LIBS:device
LIBS:transistors
LIBS:conn
LIBS:linear
LIBS:regul
LIBS:74xx
LIBS:cmos4000
LIBS:adc-dac
LIBS:memory
LIBS:xilinx
LIBS:microcontrollers
LIBS:dsp
LIBS:microchip
LIBS:analog_switches
LIBS:motorola
LIBS:texas
LIBS:intel
LIBS:audio
LIBS:interface
LIBS:digital-audio
LIBS:philips
LIBS:display
LIBS:cypress
LIBS:siliconi
LIBS:opto
LIBS:atmel
LIBS:contrib
LIBS:valves
LIBS:smiley-component
LIBS:lamp-cache
EELAYER 25 0
EELAYER END
$Descr A4 11693 8268
encoding utf-8
Sheet 1 1
Title ""
Date ""
Rev ""
Comp ""
Comment1 ""
Comment2 ""
Comment3 ""
Comment4 ""
$EndDescr
$Comp
L ATMEGA8A-P IC1
U 1 1 5724CE22
P 2250 4000
F 0 "IC1" H 1500 5300 50  0000 L BNN
F 1 "ATMEGA8A-P" H 2750 2550 50  0000 L BNN
F 2 "DIL28" H 2250 4000 50  0000 C CIN
F 3 "" H 2250 4000 50  0000 C CNN
	1    2250 4000
	1    0    0    -1  
$EndComp
$Comp
L 74HC595 U1
U 1 1 5724CEB0
P 5200 2450
F 0 "U1" H 5350 3050 50  0000 C CNN
F 1 "74HC595" H 5200 1850 50  0000 C CNN
F 2 "" H 5200 2450 50  0000 C CNN
F 3 "" H 5200 2450 50  0000 C CNN
	1    5200 2450
	1    0    0    -1  
$EndComp
$Comp
L 74HC595 U2
U 1 1 5724CF29
P 5200 3850
F 0 "U2" H 5350 4450 50  0000 C CNN
F 1 "74HC595" H 5200 3250 50  0000 C CNN
F 2 "" H 5200 3850 50  0000 C CNN
F 3 "" H 5200 3850 50  0000 C CNN
	1    5200 3850
	1    0    0    -1  
$EndComp
$Comp
L GND-RESCUE-lamp #PWR01
U 1 1 57261426
P 1050 3300
F 0 "#PWR01" H 1050 3050 50  0001 C CNN
F 1 "GND" H 1050 3150 50  0000 C CNN
F 2 "" H 1050 3300 50  0000 C CNN
F 3 "" H 1050 3300 50  0000 C CNN
	1    1050 3300
	1    0    0    -1  
$EndComp
$Comp
L VCC #PWR02
U 1 1 57275A80
P 800 3100
F 0 "#PWR02" H 800 2950 50  0001 C CNN
F 1 "VCC" H 800 3250 50  0000 C CNN
F 2 "" H 800 3100 50  0000 C CNN
F 3 "" H 800 3100 50  0000 C CNN
	1    800  3100
	1    0    0    -1  
$EndComp
Text Label 5900 2000 0    60   ~ 0
SHR1
Text Label 5900 2100 0    60   ~ 0
SHR2
Text Label 5900 2200 0    60   ~ 0
SHR3
Text Label 5900 2300 0    60   ~ 0
SHR4
Text Label 5900 2400 0    60   ~ 0
SHR5
Text Label 5900 2500 0    60   ~ 0
SHR6
Text Label 5900 2600 0    60   ~ 0
SHR7
Text Label 5900 2700 0    60   ~ 0
SHR8
Text Label 5900 3400 0    60   ~ 0
SHR9
Text Label 5900 3500 0    60   ~ 0
SHR10
Text Label 5900 3600 0    60   ~ 0
SHR11
Text Label 5900 3700 0    60   ~ 0
SHR12
$Comp
L Display_7Seg_Cathode_YY2841AH-33 U?
U 1 1 57C13217
P 7500 1550
F 0 "U?" H 6675 1550 60  0000 C CNN
F 1 "Display_7Seg_Cathode_YY2841AH-33" H 7350 1700 60  0000 C CNN
F 2 "smiley-library:7Segment_12pin_1cm_high" H 7475 1550 60  0001 C CNN
F 3 "" H 7475 1550 60  0001 C CNN
	1    7500 1550
	0    -1   -1   0   
$EndComp
Text Label 8000 2250 2    60   ~ 0
SHR1
Text Label 8000 2150 2    60   ~ 0
SHR2
Text Label 8000 2050 2    60   ~ 0
SHR3
Text Label 8000 1950 2    60   ~ 0
SHR4
Text Label 8000 1850 2    60   ~ 0
SHR5
Text Label 8000 1750 2    60   ~ 0
SHR6
Text Label 8000 1650 2    60   ~ 0
SHR7
Text Label 8000 1550 2    60   ~ 0
SHR8
Text Label 8000 1450 2    60   ~ 0
SHR9
Text Label 8000 1350 2    60   ~ 0
SHR10
Text Label 8000 1250 2    60   ~ 0
SHR11
Text Label 8000 1150 2    60   ~ 0
SHR12
Entry Wire Line
	6100 2000 6200 2100
Entry Wire Line
	6100 2100 6200 2200
Entry Wire Line
	6100 2200 6200 2300
Entry Wire Line
	6100 2300 6200 2400
Entry Wire Line
	6100 2400 6200 2500
Entry Wire Line
	6100 2500 6200 2600
Entry Wire Line
	6100 2600 6200 2700
Entry Wire Line
	6100 2700 6200 2800
Entry Wire Line
	6100 3400 6200 3500
Entry Wire Line
	6100 3500 6200 3600
Entry Wire Line
	6100 3600 6200 3700
Entry Wire Line
	6100 3700 6200 3800
Wire Wire Line
	3250 3300 4500 3300
Wire Wire Line
	4500 2800 4500 3600
Wire Wire Line
	3250 3200 4400 3200
Wire Wire Line
	4400 2500 4400 5500
Wire Wire Line
	4400 3900 4500 3900
Connection ~ 4400 3200
Connection ~ 4500 3300
Wire Wire Line
	4400 2500 4500 2500
Wire Wire Line
	4500 2800 4300 2800
Wire Wire Line
	4300 2800 4300 2200
Wire Wire Line
	4300 2200 4500 2200
Wire Wire Line
	5900 2900 5900 3100
Wire Wire Line
	5900 3100 4200 3100
Wire Wire Line
	4200 3100 4200 3400
Wire Wire Line
	4100 3400 4100 2000
Wire Wire Line
	4100 2000 4500 2000
Wire Wire Line
	4200 3400 4500 3400
Wire Wire Line
	4100 3400 3250 3400
Wire Wire Line
	800  3300 1350 3300
Wire Wire Line
	1050 2300 4500 2300
Wire Wire Line
	4500 3700 3900 3700
Wire Wire Line
	3900 3700 3900 2300
Connection ~ 3900 2300
Connection ~ 1050 3100
Wire Wire Line
	1050 3100 1050 2300
Wire Wire Line
	800  3100 1350 3100
Connection ~ 800  3300
Connection ~ 1050 3300
Wire Wire Line
	800  3300 800  5550
Wire Wire Line
	800  5550 4900 5550
Wire Wire Line
	4900 5550 4900 4400
Wire Wire Line
	6100 2000 5900 2000
Wire Wire Line
	6100 2100 5900 2100
Wire Wire Line
	6100 2200 5900 2200
Wire Wire Line
	6100 2300 5900 2300
Wire Wire Line
	6100 2400 5900 2400
Wire Wire Line
	6100 2500 5900 2500
Wire Wire Line
	6100 2600 5900 2600
Wire Wire Line
	6100 2700 5900 2700
Wire Wire Line
	6100 3400 5900 3400
Wire Wire Line
	6100 3500 5900 3500
Wire Wire Line
	6100 3600 5900 3600
Wire Wire Line
	6100 3700 5900 3700
Wire Wire Line
	8000 2250 7800 2250
Wire Wire Line
	8000 2150 7800 2150
Wire Wire Line
	8000 2050 7800 2050
Wire Wire Line
	8000 1950 7800 1950
Wire Wire Line
	8000 1850 7800 1850
Wire Wire Line
	8000 1750 7800 1750
Wire Wire Line
	8000 1650 7800 1650
Wire Wire Line
	8000 1550 7800 1550
Wire Wire Line
	8000 1450 7800 1450
Wire Wire Line
	8000 1350 7800 1350
Wire Wire Line
	8000 1250 7800 1250
Wire Wire Line
	8000 1150 7800 1150
Wire Bus Line
	6200 2100 6200 3800
Entry Wire Line
	8000 1150 8100 1250
Entry Wire Line
	8000 1250 8100 1350
Entry Wire Line
	8000 1350 8100 1450
Entry Wire Line
	8000 1450 8100 1550
Entry Wire Line
	8000 1550 8100 1650
Entry Wire Line
	8000 1650 8100 1750
Entry Wire Line
	8000 1750 8100 1850
Entry Wire Line
	8000 1850 8100 1950
Entry Wire Line
	8000 1950 8100 2050
Entry Wire Line
	8000 2050 8100 2150
Entry Wire Line
	8000 2150 8100 2250
Entry Wire Line
	8000 2250 8100 2350
Wire Bus Line
	6200 3800 8100 3800
Wire Bus Line
	8100 3800 8100 1250
Wire Wire Line
	2250 5500 2250 5550
Connection ~ 2250 5550
Wire Wire Line
	4500 4000 4500 4600
Wire Wire Line
	4150 4600 4900 4600
Connection ~ 4900 4600
Wire Wire Line
	4500 2600 4500 2700
Wire Wire Line
	4500 2700 4700 2700
Wire Wire Line
	4700 2700 4700 3050
Wire Wire Line
	4700 3050 4900 3050
Wire Wire Line
	4900 3050 4900 3000
Wire Wire Line
	4700 2950 4150 2950
Wire Wire Line
	4150 2950 4150 4600
Connection ~ 4500 4600
Connection ~ 4700 2950
Wire Wire Line
	2250 2600 2250 1600
Wire Wire Line
	2250 1600 6400 1600
Wire Wire Line
	4900 1600 4900 1900
Wire Wire Line
	6400 1600 6400 3200
Wire Wire Line
	6400 3200 4900 3200
Wire Wire Line
	4900 3200 4900 3300
Connection ~ 4900 1600
$Comp
L 74HC595 U?
U 1 1 57C13DF5
P 5750 5450
F 0 "U?" H 5900 6050 50  0000 C CNN
F 1 "74HC595" H 5750 4850 50  0000 C CNN
F 2 "" H 5750 5450 50  0000 C CNN
F 3 "" H 5750 5450 50  0000 C CNN
	1    5750 5450
	1    0    0    -1  
$EndComp
$Comp
L 74HC595 U?
U 1 1 57C13E60
P 5750 6800
F 0 "U?" H 5900 7400 50  0000 C CNN
F 1 "74HC595" H 5750 6200 50  0000 C CNN
F 2 "" H 5750 6800 50  0000 C CNN
F 3 "" H 5750 6800 50  0000 C CNN
	1    5750 6800
	1    0    0    -1  
$EndComp
Wire Wire Line
	4400 5500 5050 5500
Connection ~ 4400 3900
Wire Wire Line
	4500 3500 4250 3500
Wire Wire Line
	4250 3500 4250 5200
Wire Wire Line
	4250 5200 5050 5200
Connection ~ 4500 3500
$EndSCHEMATC
