EESchema Schematic File Version 2
LIBS:lamp-rescue
LIBS:power
LIBS:device
LIBS:transistors
LIBS:conn
LIBS:linear
LIBS:regul
LIBS:74xx
LIBS:cmos4000
LIBS:adc-dac
LIBS:memory
LIBS:xilinx
LIBS:microcontrollers
LIBS:dsp
LIBS:microchip
LIBS:analog_switches
LIBS:motorola
LIBS:texas
LIBS:intel
LIBS:audio
LIBS:interface
LIBS:digital-audio
LIBS:philips
LIBS:display
LIBS:cypress
LIBS:siliconi
LIBS:opto
LIBS:atmel
LIBS:contrib
LIBS:valves
LIBS:smiley-component
LIBS:lamp-cache
EELAYER 25 0
EELAYER END
$Descr A3 16535 11693
encoding utf-8
Sheet 1 1
Title ""
Date ""
Rev ""
Comp ""
Comment1 ""
Comment2 ""
Comment3 ""
Comment4 ""
$EndDescr
$Comp
L ATMEGA8A-P IC1
U 1 1 57C14043
P 2200 2700
F 0 "IC1" H 1450 4000 50  0000 L BNN
F 1 "ATMEGA8A-P" H 2700 1250 50  0000 L BNN
F 2 "Housings_DIP:DIP-28_W7.62mm" H 2200 2700 50  0000 C CIN
F 3 "" H 2200 2700 50  0000 C CNN
	1    2200 2700
	1    0    0    -1  
$EndComp
$Comp
L 74HC595 U1
U 1 1 57C14174
P 5850 1900
F 0 "U1" H 6000 2500 50  0000 C CNN
F 1 "74HC595" H 5850 1300 50  0000 C CNN
F 2 "Housings_DIP:DIP-16_W7.62mm" H 5850 1900 50  0000 C CNN
F 3 "" H 5850 1900 50  0000 C CNN
	1    5850 1900
	1    0    0    -1  
$EndComp
$Comp
L 74HC595 U2
U 1 1 57C141EF
P 5850 3400
F 0 "U2" H 6000 4000 50  0000 C CNN
F 1 "74HC595" H 5850 2800 50  0000 C CNN
F 2 "Housings_DIP:DIP-16_W7.62mm" H 5850 3400 50  0000 C CNN
F 3 "" H 5850 3400 50  0000 C CNN
	1    5850 3400
	1    0    0    -1  
$EndComp
$Comp
L 74HC595 U3
U 1 1 57C1421E
P 5850 4900
F 0 "U3" H 6000 5500 50  0000 C CNN
F 1 "74HC595" H 5850 4300 50  0000 C CNN
F 2 "Housings_DIP:DIP-16_W7.62mm" H 5850 4900 50  0000 C CNN
F 3 "" H 5850 4900 50  0000 C CNN
	1    5850 4900
	1    0    0    -1  
$EndComp
$Comp
L 74HC595 U4
U 1 1 57C1424D
P 5850 6400
F 0 "U4" H 6000 7000 50  0000 C CNN
F 1 "74HC595" H 5850 5800 50  0000 C CNN
F 2 "Housings_DIP:DIP-16_W7.62mm" H 5850 6400 50  0000 C CNN
F 3 "" H 5850 6400 50  0000 C CNN
	1    5850 6400
	1    0    0    -1  
$EndComp
Text Label 4500 1750 0    60   ~ 0
VCC
Text Label 4500 3250 0    60   ~ 0
VCC
Text Label 4500 4750 0    60   ~ 0
VCC
Text Label 4500 6250 0    60   ~ 0
VCC
Text Label 4500 2050 0    60   ~ 0
GND
Text Label 4500 3550 0    60   ~ 0
GND
Text Label 4500 5050 0    60   ~ 0
GND
Text Label 4500 6550 0    60   ~ 0
GND
Text Label 1700 1000 0    60   ~ 0
VCC
Text Label 1550 4550 0    60   ~ 0
GND
Text Label 650  1800 0    60   ~ 0
VCC
Text Label 650  2000 0    60   ~ 0
GND
$Comp
L R R10k_1
U 1 1 57C14CAA
P 950 1250
F 0 "R10k_1" V 1030 1250 50  0000 C CNN
F 1 "R" V 950 1250 50  0000 C CNN
F 2 "Resistors_ThroughHole:Resistor_Horizontal_RM10mm" V 880 1250 50  0000 C CNN
F 3 "" H 950 1250 50  0000 C CNN
	1    950  1250
	1    0    0    -1  
$EndComp
$Comp
L C_Small C100nF_2
U 1 1 57C14D89
P 1100 1900
F 0 "C100nF_2" H 1000 1900 50  0000 L CNN
F 1 "C_Small" H 1110 1820 50  0000 L CNN
F 2 "Capacitors_ThroughHole:C_Disc_D3_P2.5" H 1100 1900 50  0000 C CNN
F 3 "" H 1100 1900 50  0000 C CNN
	1    1100 1900
	1    0    0    -1  
$EndComp
$Comp
L C_Small C100nF_1
U 1 1 57C14E10
P 900 1900
F 0 "C100nF_1" H 700 1950 50  0000 L CNN
F 1 "C_Small" H 910 1820 50  0000 L CNN
F 2 "Capacitors_ThroughHole:C_Disc_D3_P2.5" H 900 1900 50  0000 C CNN
F 3 "" H 900 1900 50  0000 C CNN
	1    900  1900
	1    0    0    -1  
$EndComp
$Comp
L Display_7Seg_Cathode_YY2841AH-33 U?
U 1 1 57C158DD
P 9650 2400
F 0 "U?" H 8825 2400 60  0000 C CNN
F 1 "Display_7Seg_Cathode_YY2841AH-33" H 9500 2550 60  0000 C CNN
F 2 "" H 9625 2400 60  0001 C CNN
F 3 "" H 9625 2400 60  0001 C CNN
	1    9650 2400
	0    1    1    0   
$EndComp
$Comp
L R R4k7_?
U 1 1 57C15954
P 9200 2800
F 0 "R4k7_?" V 9280 2800 50  0000 C CNN
F 1 "R" V 9200 2800 50  0000 C CNN
F 2 "" V 9130 2800 50  0000 C CNN
F 3 "" H 9200 2800 50  0000 C CNN
	1    9200 2800
	0    -1   -1   0   
$EndComp
$Comp
L R R4k7_?
U 1 1 57C159BF
P 9200 2700
F 0 "R4k7_?" V 9280 2700 50  0000 C CNN
F 1 "R" V 9200 2700 50  0000 C CNN
F 2 "" V 9130 2700 50  0000 C CNN
F 3 "" H 9200 2700 50  0000 C CNN
	1    9200 2700
	0    -1   -1   0   
$EndComp
$Comp
L R R4k7_?
U 1 1 57C159F8
P 9200 2600
F 0 "R4k7_?" V 9280 2600 50  0000 C CNN
F 1 "R" V 9200 2600 50  0000 C CNN
F 2 "" V 9130 2600 50  0000 C CNN
F 3 "" H 9200 2600 50  0000 C CNN
	1    9200 2600
	0    -1   -1   0   
$EndComp
$Comp
L R R4k7_?
U 1 1 57C15A25
P 9200 2500
F 0 "R4k7_?" V 9280 2500 50  0000 C CNN
F 1 "R" V 9200 2500 50  0000 C CNN
F 2 "" V 9130 2500 50  0000 C CNN
F 3 "" H 9200 2500 50  0000 C CNN
	1    9200 2500
	0    -1   -1   0   
$EndComp
$Comp
L R R4k7_?
U 1 1 57C15A54
P 9200 2400
F 0 "R4k7_?" V 9280 2400 50  0000 C CNN
F 1 "R" V 9200 2400 50  0000 C CNN
F 2 "" V 9130 2400 50  0000 C CNN
F 3 "" H 9200 2400 50  0000 C CNN
	1    9200 2400
	0    -1   -1   0   
$EndComp
$Comp
L R R4k7_?
U 1 1 57C15A87
P 9200 2300
F 0 "R4k7_?" V 9280 2300 50  0000 C CNN
F 1 "R" V 9200 2300 50  0000 C CNN
F 2 "" V 9130 2300 50  0000 C CNN
F 3 "" H 9200 2300 50  0000 C CNN
	1    9200 2300
	0    -1   -1   0   
$EndComp
$Comp
L R R4k7_?
U 1 1 57C15ABC
P 9200 2200
F 0 "R4k7_?" V 9280 2200 50  0000 C CNN
F 1 "R" V 9200 2200 50  0000 C CNN
F 2 "" V 9130 2200 50  0000 C CNN
F 3 "" H 9200 2200 50  0000 C CNN
	1    9200 2200
	0    -1   -1   0   
$EndComp
$Comp
L R R4k7_?
U 1 1 57C15AF5
P 9200 2100
F 0 "R4k7_?" V 9280 2100 50  0000 C CNN
F 1 "R" V 9200 2100 50  0000 C CNN
F 2 "" V 9130 2100 50  0000 C CNN
F 3 "" H 9200 2100 50  0000 C CNN
	1    9200 2100
	0    -1   -1   0   
$EndComp
$Comp
L R R4k7_?
U 1 1 57C15B2C
P 9200 2000
F 0 "R4k7_?" V 9280 2000 50  0000 C CNN
F 1 "R" V 9200 2000 50  0000 C CNN
F 2 "" V 9130 2000 50  0000 C CNN
F 3 "" H 9200 2000 50  0000 C CNN
	1    9200 2000
	0    -1   -1   0   
$EndComp
$Comp
L R R4k7_?
U 1 1 57C15B61
P 9200 1900
F 0 "R4k7_?" V 9280 1900 50  0000 C CNN
F 1 "R" V 9200 1900 50  0000 C CNN
F 2 "" V 9130 1900 50  0000 C CNN
F 3 "" H 9200 1900 50  0000 C CNN
	1    9200 1900
	0    -1   -1   0   
$EndComp
$Comp
L R R4k7_?
U 1 1 57C15B9C
P 9200 1800
F 0 "R4k7_?" V 9280 1800 50  0000 C CNN
F 1 "R" V 9200 1800 50  0000 C CNN
F 2 "" V 9130 1800 50  0000 C CNN
F 3 "" H 9200 1800 50  0000 C CNN
	1    9200 1800
	0    -1   -1   0   
$EndComp
$Comp
L R R4k7_?
U 1 1 57C15BD7
P 9200 1700
F 0 "R4k7_?" V 9280 1700 50  0000 C CNN
F 1 "R" V 9200 1700 50  0000 C CNN
F 2 "" V 9130 1700 50  0000 C CNN
F 3 "" H 9200 1700 50  0000 C CNN
	1    9200 1700
	0    -1   -1   0   
$EndComp
Entry Wire Line
	8600 2800 8500 2700
Entry Wire Line
	8600 2700 8500 2600
Entry Wire Line
	8600 2600 8500 2500
Entry Wire Line
	8600 2500 8500 2400
Entry Wire Line
	8600 2400 8500 2300
Entry Wire Line
	8600 2300 8500 2200
Entry Wire Line
	8600 2200 8500 2100
Entry Wire Line
	8600 2100 8500 2000
Entry Wire Line
	8600 2000 8500 1900
Entry Wire Line
	8600 1900 8500 1800
Entry Wire Line
	8600 1800 8500 1700
Entry Wire Line
	8600 1700 8500 1600
Entry Wire Line
	7250 1450 7350 1550
Entry Wire Line
	7250 1550 7350 1650
Entry Wire Line
	7250 1650 7350 1750
Entry Wire Line
	7250 1750 7350 1850
Entry Wire Line
	7250 1850 7350 1950
Entry Wire Line
	7250 1950 7350 2050
Entry Wire Line
	7250 2050 7350 2150
Entry Wire Line
	7250 2150 7350 2250
Entry Wire Line
	7250 2950 7350 3050
Entry Wire Line
	7250 3050 7350 3150
Entry Wire Line
	7250 3150 7350 3250
Entry Wire Line
	7250 3250 7350 3350
Text Label 6700 1450 0    60   ~ 0
SHRA_1
Text Label 6700 1550 0    60   ~ 0
SHRA_2
Text Label 6700 1650 0    60   ~ 0
SHRA_3
Text Label 6700 1750 0    60   ~ 0
SHRA_4
Text Label 6700 1850 0    60   ~ 0
SHRA_5
Text Label 6700 1950 0    60   ~ 0
SHRA_6
Text Label 6700 2050 0    60   ~ 0
SHRA_7
Text Label 6700 2150 0    60   ~ 0
SHRA_8
Text Label 6700 2950 0    60   ~ 0
SHRA_9
Text Label 6700 3050 0    60   ~ 0
SHRA_10
Text Label 6700 3150 0    60   ~ 0
SHRA_11
Text Label 6700 3250 0    60   ~ 0
SHRA_12
Text Label 8650 1700 0    60   ~ 0
SHRA_1
Text Label 8650 1800 0    60   ~ 0
SHRA_2
Text Label 8650 1900 0    60   ~ 0
SHRA_3
Text Label 8650 2000 0    60   ~ 0
SHRA_4
Text Label 8650 2100 0    60   ~ 0
SHRA_5
Text Label 8650 2200 0    60   ~ 0
SHRA_6
Text Label 8650 2300 0    60   ~ 0
SHRA_7
Text Label 8650 2400 0    60   ~ 0
SHRA_8
Text Label 8650 2500 0    60   ~ 0
SHRA_9
Text Label 8650 2600 0    60   ~ 0
SHRA_10
Text Label 8650 2700 0    60   ~ 0
SHRA_11
Text Label 8650 2800 0    60   ~ 0
SHRA_12
$Comp
L D_Schottky_Small D?
U 1 1 57C17C3A
P 6650 4450
F 0 "D?" H 6600 4530 50  0000 L CNN
F 1 "D_Schottky_Small" H 6370 4370 50  0000 L CNN
F 2 "" V 6650 4450 50  0000 C CNN
F 3 "" V 6650 4450 50  0000 C CNN
	1    6650 4450
	-1   0    0    1   
$EndComp
$Comp
L D_Schottky_Small D?
U 1 1 57C17CC9
P 6650 4550
F 0 "D?" H 6600 4630 50  0000 L CNN
F 1 "D_Schottky_Small" H 6370 4470 50  0000 L CNN
F 2 "" V 6650 4550 50  0000 C CNN
F 3 "" V 6650 4550 50  0000 C CNN
	1    6650 4550
	-1   0    0    1   
$EndComp
$Comp
L D_Schottky_Small D?
U 1 1 57C17D40
P 6650 4650
F 0 "D?" H 6600 4730 50  0000 L CNN
F 1 "D_Schottky_Small" H 6370 4570 50  0000 L CNN
F 2 "" V 6650 4650 50  0000 C CNN
F 3 "" V 6650 4650 50  0000 C CNN
	1    6650 4650
	-1   0    0    1   
$EndComp
$Comp
L D_Schottky_Small D?
U 1 1 57C17D8D
P 6650 4750
F 0 "D?" H 6600 4830 50  0000 L CNN
F 1 "D_Schottky_Small" H 6370 4670 50  0000 L CNN
F 2 "" V 6650 4750 50  0000 C CNN
F 3 "" V 6650 4750 50  0000 C CNN
	1    6650 4750
	-1   0    0    1   
$EndComp
$Comp
L D_Schottky_Small D?
U 1 1 57C17DD4
P 6650 4850
F 0 "D?" H 6600 4930 50  0000 L CNN
F 1 "D_Schottky_Small" H 6370 4770 50  0000 L CNN
F 2 "" V 6650 4850 50  0000 C CNN
F 3 "" V 6650 4850 50  0000 C CNN
	1    6650 4850
	-1   0    0    1   
$EndComp
$Comp
L D_Schottky_Small D?
U 1 1 57C17E21
P 6650 4950
F 0 "D?" H 6600 5030 50  0000 L CNN
F 1 "D_Schottky_Small" H 6370 4870 50  0000 L CNN
F 2 "" V 6650 4950 50  0000 C CNN
F 3 "" V 6650 4950 50  0000 C CNN
	1    6650 4950
	-1   0    0    1   
$EndComp
$Comp
L D_Schottky_Small D?
U 1 1 57C17E6A
P 6650 5050
F 0 "D?" H 6600 5130 50  0000 L CNN
F 1 "D_Schottky_Small" H 6370 4970 50  0000 L CNN
F 2 "" V 6650 5050 50  0000 C CNN
F 3 "" V 6650 5050 50  0000 C CNN
	1    6650 5050
	-1   0    0    1   
$EndComp
$Comp
L D_Schottky_Small D?
U 1 1 57C17EB3
P 6650 5150
F 0 "D?" H 6600 5230 50  0000 L CNN
F 1 "D_Schottky_Small" H 6370 5070 50  0000 L CNN
F 2 "" V 6650 5150 50  0000 C CNN
F 3 "" V 6650 5150 50  0000 C CNN
	1    6650 5150
	-1   0    0    1   
$EndComp
$Comp
L D_Schottky_Small D?
U 1 1 57C17EFE
P 6650 5950
F 0 "D?" H 6600 6030 50  0000 L CNN
F 1 "D_Schottky_Small" H 6370 5870 50  0000 L CNN
F 2 "" V 6650 5950 50  0000 C CNN
F 3 "" V 6650 5950 50  0000 C CNN
	1    6650 5950
	-1   0    0    1   
$EndComp
$Comp
L D_Schottky_Small D?
U 1 1 57C17F4D
P 6650 6050
F 0 "D?" H 6600 6130 50  0000 L CNN
F 1 "D_Schottky_Small" H 6370 5970 50  0000 L CNN
F 2 "" V 6650 6050 50  0000 C CNN
F 3 "" V 6650 6050 50  0000 C CNN
	1    6650 6050
	-1   0    0    1   
$EndComp
$Comp
L D_Schottky_Small D?
U 1 1 57C17F9E
P 6650 6150
F 0 "D?" H 6600 6230 50  0000 L CNN
F 1 "D_Schottky_Small" H 6370 6070 50  0000 L CNN
F 2 "" V 6650 6150 50  0000 C CNN
F 3 "" V 6650 6150 50  0000 C CNN
	1    6650 6150
	-1   0    0    1   
$EndComp
$Comp
L D_Schottky_Small D?
U 1 1 57C17FF7
P 6650 6250
F 0 "D?" H 6600 6330 50  0000 L CNN
F 1 "D_Schottky_Small" H 6370 6170 50  0000 L CNN
F 2 "" V 6650 6250 50  0000 C CNN
F 3 "" V 6650 6250 50  0000 C CNN
	1    6650 6250
	-1   0    0    1   
$EndComp
$Comp
L D_Schottky_Small D?
U 1 1 57C1804E
P 6650 6350
F 0 "D?" H 6600 6430 50  0000 L CNN
F 1 "D_Schottky_Small" H 6370 6270 50  0000 L CNN
F 2 "" V 6650 6350 50  0000 C CNN
F 3 "" V 6650 6350 50  0000 C CNN
	1    6650 6350
	-1   0    0    1   
$EndComp
$Comp
L D_Schottky_Small D?
U 1 1 57C180A5
P 6650 6450
F 0 "D?" H 6600 6530 50  0000 L CNN
F 1 "D_Schottky_Small" H 6370 6370 50  0000 L CNN
F 2 "" V 6650 6450 50  0000 C CNN
F 3 "" V 6650 6450 50  0000 C CNN
	1    6650 6450
	-1   0    0    1   
$EndComp
$Comp
L D_Schottky_Small D?
U 1 1 57C180FE
P 6650 6550
F 0 "D?" H 6600 6630 50  0000 L CNN
F 1 "D_Schottky_Small" H 6370 6470 50  0000 L CNN
F 2 "" V 6650 6550 50  0000 C CNN
F 3 "" V 6650 6550 50  0000 C CNN
	1    6650 6550
	-1   0    0    1   
$EndComp
$Comp
L D_Schottky_Small D?
U 1 1 57C18159
P 6650 6650
F 0 "D?" H 6600 6730 50  0000 L CNN
F 1 "D_Schottky_Small" H 6370 6570 50  0000 L CNN
F 2 "" V 6650 6650 50  0000 C CNN
F 3 "" V 6650 6650 50  0000 C CNN
	1    6650 6650
	-1   0    0    1   
$EndComp
Connection ~ 4900 3150
Wire Wire Line
	4900 4650 5150 4650
Wire Wire Line
	4900 3150 5150 3150
Wire Wire Line
	4900 1650 4900 6150
Wire Wire Line
	4000 1650 5150 1650
Connection ~ 4800 4950
Wire Wire Line
	4800 6450 5150 6450
Connection ~ 4800 3450
Wire Wire Line
	4800 4950 5150 4950
Wire Wire Line
	4800 3450 5150 3450
Wire Wire Line
	4800 1950 4800 6450
Wire Wire Line
	4300 1950 5150 1950
Wire Wire Line
	4900 6150 5150 6150
Connection ~ 4900 4650
Wire Wire Line
	4500 1750 5150 1750
Wire Wire Line
	5150 3250 4500 3250
Wire Wire Line
	5150 4750 4500 4750
Wire Wire Line
	5150 6250 4500 6250
Wire Wire Line
	5150 2050 4500 2050
Wire Wire Line
	5150 3550 4500 3550
Wire Wire Line
	5150 5050 4500 5050
Wire Wire Line
	5150 6550 4500 6550
Wire Wire Line
	6550 2350 6550 2700
Wire Wire Line
	6550 2700 5150 2700
Wire Wire Line
	5150 2700 5150 2950
Wire Wire Line
	6550 3850 6550 4200
Wire Wire Line
	6550 4200 5150 4200
Wire Wire Line
	5150 4200 5150 4450
Wire Wire Line
	6550 5350 6550 5700
Wire Wire Line
	6550 5700 5150 5700
Wire Wire Line
	5150 5700 5150 5950
Wire Wire Line
	3200 1900 4000 1900
Wire Wire Line
	4000 1900 4000 1650
Connection ~ 4900 1650
Wire Wire Line
	3200 2000 4300 2000
Wire Wire Line
	4300 2000 4300 1950
Connection ~ 4800 1950
Wire Wire Line
	3200 2100 4200 2100
Wire Wire Line
	4200 2100 4200 1450
Wire Wire Line
	4200 1450 5150 1450
Wire Wire Line
	2200 1300 2200 1000
Wire Wire Line
	2200 1000 1700 1000
Wire Wire Line
	2200 4200 2200 4550
Wire Wire Line
	1550 4550 3000 4550
Wire Wire Line
	1300 1800 650  1800
Wire Wire Line
	1300 2000 650  2000
Wire Wire Line
	1300 1600 950  1600
Wire Wire Line
	950  1600 950  1400
Wire Wire Line
	950  1100 1700 1100
Wire Wire Line
	1700 1100 1700 1000
Connection ~ 900  1800
Connection ~ 1100 1800
Connection ~ 900  2000
Connection ~ 1100 2000
Wire Wire Line
	9050 2800 8600 2800
Wire Wire Line
	9050 2700 8600 2700
Wire Wire Line
	9050 2600 8600 2600
Wire Wire Line
	9050 2500 8600 2500
Wire Wire Line
	9050 2400 8600 2400
Wire Wire Line
	9050 2300 8600 2300
Wire Wire Line
	9050 2200 8600 2200
Wire Wire Line
	9050 2100 8600 2100
Wire Wire Line
	9050 2000 8600 2000
Wire Wire Line
	9050 1900 8600 1900
Wire Wire Line
	9050 1800 8600 1800
Wire Wire Line
	9050 1700 8600 1700
Wire Wire Line
	6550 1450 7250 1450
Wire Wire Line
	6550 1550 7250 1550
Wire Wire Line
	6550 1650 7250 1650
Wire Wire Line
	6550 1750 7250 1750
Wire Wire Line
	6550 1850 7250 1850
Wire Wire Line
	6550 1950 7250 1950
Wire Wire Line
	6550 2050 7250 2050
Wire Wire Line
	6550 2150 7250 2150
Wire Wire Line
	6550 2950 7250 2950
Wire Wire Line
	6550 3050 7250 3050
Wire Wire Line
	6550 3150 7250 3150
Wire Wire Line
	6550 3250 7250 3250
Wire Bus Line
	7350 3350 7350 1550
Wire Bus Line
	7350 1550 8500 1550
Wire Bus Line
	8500 1550 8500 2700
Wire Wire Line
	6750 4450 6750 7300
Connection ~ 6750 4550
Connection ~ 6750 4650
Connection ~ 6750 4750
Connection ~ 6750 4850
Connection ~ 6750 4950
Connection ~ 6750 5050
Connection ~ 6750 5150
Connection ~ 6750 5950
Connection ~ 6750 6050
Connection ~ 6750 6150
Connection ~ 6750 6250
Connection ~ 6750 6350
Connection ~ 6750 6450
Connection ~ 6750 6550
Wire Wire Line
	6750 7300 4000 7300
Wire Wire Line
	4000 7300 4000 2300
Wire Wire Line
	4000 2300 3200 2300
Connection ~ 6750 6650
$Comp
L R R4k7_?
U 1 1 57C19241
P 3150 4550
F 0 "R4k7_?" V 3230 4550 50  0000 C CNN
F 1 "R" V 3150 4550 50  0000 C CNN
F 2 "" V 3080 4550 50  0000 C CNN
F 3 "" H 3150 4550 50  0000 C CNN
	1    3150 4550
	0    1    1    0   
$EndComp
Wire Wire Line
	3300 4550 4000 4550
Connection ~ 4000 4550
Connection ~ 2200 4550
$EndSCHEMATC
