EESchema Schematic File Version 2
LIBS:lamp-rescue
LIBS:power
LIBS:device
LIBS:transistors
LIBS:conn
LIBS:linear
LIBS:regul
LIBS:74xx
LIBS:cmos4000
LIBS:adc-dac
LIBS:memory
LIBS:xilinx
LIBS:microcontrollers
LIBS:dsp
LIBS:microchip
LIBS:analog_switches
LIBS:motorola
LIBS:texas
LIBS:intel
LIBS:audio
LIBS:interface
LIBS:digital-audio
LIBS:philips
LIBS:display
LIBS:cypress
LIBS:siliconi
LIBS:opto
LIBS:atmel
LIBS:contrib
LIBS:valves
LIBS:smiley-component
LIBS:hotplate-cache
LIBS:lamp-cache
EELAYER 25 0
EELAYER END
$Descr A3 16535 11693
encoding utf-8
Sheet 1 1
Title ""
Date ""
Rev ""
Comp ""
Comment1 ""
Comment2 ""
Comment3 ""
Comment4 ""
$EndDescr
$Comp
L ATMEGA8A-P IC1
U 1 1 57C14043
P 2200 2700
F 0 "IC1" H 1450 4000 50  0000 L BNN
F 1 "ATMEGA8A-P" H 2700 1250 50  0000 L BNN
F 2 "Housings_DIP:DIP-28_W7.62mm" H 2200 2700 50  0000 C CIN
F 3 "" H 2200 2700 50  0000 C CNN
	1    2200 2700
	1    0    0    -1  
$EndComp
$Comp
L 74HC595 U1
U 1 1 57C14174
P 5850 1900
F 0 "U1" H 6000 2500 50  0000 C CNN
F 1 "74HC595" H 5850 1300 50  0000 C CNN
F 2 "smiley-library:SOIC-16_3.9x9.9mm_Pitch1.27mm_handsolder" H 5850 1900 50  0000 C CNN
F 3 "" H 5850 1900 50  0000 C CNN
	1    5850 1900
	1    0    0    -1  
$EndComp
$Comp
L 74HC595 U2
U 1 1 57C141EF
P 5850 3400
F 0 "U2" H 6000 4000 50  0000 C CNN
F 1 "74HC595" H 5850 2800 50  0000 C CNN
F 2 "smiley-library:SOIC-16_3.9x9.9mm_Pitch1.27mm_handsolder" H 5850 3400 50  0000 C CNN
F 3 "" H 5850 3400 50  0000 C CNN
	1    5850 3400
	1    0    0    -1  
$EndComp
$Comp
L 74HC595 U3
U 1 1 57C1421E
P 5850 4900
F 0 "U3" H 6000 5500 50  0000 C CNN
F 1 "74HC595" H 5850 4300 50  0000 C CNN
F 2 "smiley-library:SOIC-16_3.9x9.9mm_Pitch1.27mm_handsolder" H 5850 4900 50  0000 C CNN
F 3 "" H 5850 4900 50  0000 C CNN
	1    5850 4900
	1    0    0    -1  
$EndComp
$Comp
L 74HC595 U4
U 1 1 57C1424D
P 5850 6400
F 0 "U4" H 6000 7000 50  0000 C CNN
F 1 "74HC595" H 5850 5800 50  0000 C CNN
F 2 "smiley-library:SOIC-16_3.9x9.9mm_Pitch1.27mm_handsolder" H 5850 6400 50  0000 C CNN
F 3 "" H 5850 6400 50  0000 C CNN
	1    5850 6400
	1    0    0    -1  
$EndComp
Text Label 4500 1750 0    60   ~ 0
VCC
Text Label 4500 3250 0    60   ~ 0
VCC
Text Label 4500 4750 0    60   ~ 0
VCC
Text Label 4500 6250 0    60   ~ 0
VCC
Text Label 4500 2050 0    60   ~ 0
GND
Text Label 4500 3550 0    60   ~ 0
GND
Text Label 4500 5050 0    60   ~ 0
GND
Text Label 4500 6550 0    60   ~ 0
GND
Text Label 1700 1000 0    60   ~ 0
VCC
Text Label 1550 4550 0    60   ~ 0
GND
Text Label 650  1800 0    60   ~ 0
VCC
Text Label 650  2000 0    60   ~ 0
GND
$Comp
L R R10k_1
U 1 1 57C14CAA
P 950 1250
F 0 "R10k_1" V 1030 1250 50  0000 C CNN
F 1 "R" V 950 1250 50  0000 C CNN
F 2 "Resistors_ThroughHole:Resistor_Horizontal_RM10mm" V 880 1250 50  0000 C CNN
F 3 "" H 950 1250 50  0000 C CNN
	1    950  1250
	1    0    0    -1  
$EndComp
$Comp
L C_Small C100nF_2
U 1 1 57C14D89
P 1100 1900
F 0 "C100nF_2" H 1000 1900 50  0000 L CNN
F 1 "C_Small" H 1110 1820 50  0000 L CNN
F 2 "Capacitors_ThroughHole:C_Disc_D3_P2.5" H 1100 1900 50  0000 C CNN
F 3 "" H 1100 1900 50  0000 C CNN
	1    1100 1900
	1    0    0    -1  
$EndComp
$Comp
L C_Small C100nF_1
U 1 1 57C14E10
P 900 1900
F 0 "C100nF_1" H 700 1950 50  0000 L CNN
F 1 "C_Small" H 910 1820 50  0000 L CNN
F 2 "Capacitors_ThroughHole:C_Disc_D3_P2.5" H 900 1900 50  0000 C CNN
F 3 "" H 900 1900 50  0000 C CNN
	1    900  1900
	1    0    0    -1  
$EndComp
$Comp
L Display_7Seg_Cathode_YY2841AH-33 U8
U 1 1 57C158DD
P 9650 2400
F 0 "U8" H 8825 2400 60  0000 C CNN
F 1 "Display_7Seg_Cathode_YY2841AH-33" H 9500 2550 60  0000 C CNN
F 2 "smiley-library:7Segment_12pin_1cm_high" H 9625 2400 60  0001 C CNN
F 3 "" H 9625 2400 60  0001 C CNN
	1    9650 2400
	0    1    1    0   
$EndComp
$Comp
L R R0_4
U 1 1 57C15954
P 9200 2800
F 0 "R0_4" V 9280 2800 50  0000 C CNN
F 1 "R" V 9200 2800 50  0000 C CNN
F 2 "Resistors_SMD:R_0805_HandSoldering" V 9130 2800 50  0000 C CNN
F 3 "" H 9200 2800 50  0000 C CNN
	1    9200 2800
	0    -1   -1   0   
$EndComp
$Comp
L R R4k7_8
U 1 1 57C159BF
P 9200 2700
F 0 "R4k7_8" V 9280 2700 50  0000 C CNN
F 1 "R" V 9200 2700 50  0000 C CNN
F 2 "Resistors_SMD:R_0805_HandSoldering" V 9130 2700 50  0000 C CNN
F 3 "" H 9200 2700 50  0000 C CNN
	1    9200 2700
	0    -1   -1   0   
$EndComp
$Comp
L R R4k7_7
U 1 1 57C159F8
P 9200 2600
F 0 "R4k7_7" V 9280 2600 50  0000 C CNN
F 1 "R" V 9200 2600 50  0000 C CNN
F 2 "Resistors_SMD:R_0805_HandSoldering" V 9130 2600 50  0000 C CNN
F 3 "" H 9200 2600 50  0000 C CNN
	1    9200 2600
	0    -1   -1   0   
$EndComp
$Comp
L R R0_3
U 1 1 57C15A25
P 9200 2500
F 0 "R0_3" V 9280 2500 50  0000 C CNN
F 1 "R" V 9200 2500 50  0000 C CNN
F 2 "Resistors_SMD:R_0805_HandSoldering" V 9130 2500 50  0000 C CNN
F 3 "" H 9200 2500 50  0000 C CNN
	1    9200 2500
	0    -1   -1   0   
$EndComp
$Comp
L R R0_2
U 1 1 57C15A54
P 9200 2400
F 0 "R0_2" V 9280 2400 50  0000 C CNN
F 1 "R" V 9200 2400 50  0000 C CNN
F 2 "Resistors_SMD:R_0805_HandSoldering" V 9130 2400 50  0000 C CNN
F 3 "" H 9200 2400 50  0000 C CNN
	1    9200 2400
	0    -1   -1   0   
$EndComp
$Comp
L R R4k7_6
U 1 1 57C15A87
P 9200 2300
F 0 "R4k7_6" V 9280 2300 50  0000 C CNN
F 1 "R" V 9200 2300 50  0000 C CNN
F 2 "Resistors_SMD:R_0805_HandSoldering" V 9130 2300 50  0000 C CNN
F 3 "" H 9200 2300 50  0000 C CNN
	1    9200 2300
	0    -1   -1   0   
$EndComp
$Comp
L R R0_1
U 1 1 57C15ABC
P 9200 2200
F 0 "R0_1" V 9280 2200 50  0000 C CNN
F 1 "R" V 9200 2200 50  0000 C CNN
F 2 "Resistors_SMD:R_0805_HandSoldering" V 9130 2200 50  0000 C CNN
F 3 "" H 9200 2200 50  0000 C CNN
	1    9200 2200
	0    -1   -1   0   
$EndComp
$Comp
L R R4k7_5
U 1 1 57C15AF5
P 9200 2100
F 0 "R4k7_5" V 9280 2100 50  0000 C CNN
F 1 "R" V 9200 2100 50  0000 C CNN
F 2 "Resistors_SMD:R_0805_HandSoldering" V 9130 2100 50  0000 C CNN
F 3 "" H 9200 2100 50  0000 C CNN
	1    9200 2100
	0    -1   -1   0   
$EndComp
$Comp
L R R4k7_4
U 1 1 57C15B2C
P 9200 2000
F 0 "R4k7_4" V 9280 2000 50  0000 C CNN
F 1 "R" V 9200 2000 50  0000 C CNN
F 2 "Resistors_SMD:R_0805_HandSoldering" V 9130 2000 50  0000 C CNN
F 3 "" H 9200 2000 50  0000 C CNN
	1    9200 2000
	0    -1   -1   0   
$EndComp
$Comp
L R R4k7_3
U 1 1 57C15B61
P 9200 1900
F 0 "R4k7_3" V 9280 1900 50  0000 C CNN
F 1 "R" V 9200 1900 50  0000 C CNN
F 2 "Resistors_SMD:R_0805_HandSoldering" V 9130 1900 50  0000 C CNN
F 3 "" H 9200 1900 50  0000 C CNN
	1    9200 1900
	0    -1   -1   0   
$EndComp
$Comp
L R R4k7_2
U 1 1 57C15B9C
P 9200 1800
F 0 "R4k7_2" V 9280 1800 50  0000 C CNN
F 1 "R" V 9200 1800 50  0000 C CNN
F 2 "Resistors_SMD:R_0805_HandSoldering" V 9130 1800 50  0000 C CNN
F 3 "" H 9200 1800 50  0000 C CNN
	1    9200 1800
	0    -1   -1   0   
$EndComp
$Comp
L R R4k7_1
U 1 1 57C15BD7
P 9200 1700
F 0 "R4k7_1" V 9280 1700 50  0000 C CNN
F 1 "R" V 9200 1700 50  0000 C CNN
F 2 "Resistors_SMD:R_0805_HandSoldering" V 9130 1700 50  0000 C CNN
F 3 "" H 9200 1700 50  0000 C CNN
	1    9200 1700
	0    -1   -1   0   
$EndComp
Entry Wire Line
	8600 2800 8500 2700
Entry Wire Line
	8600 2700 8500 2600
Entry Wire Line
	8600 2600 8500 2500
Entry Wire Line
	8600 2500 8500 2400
Entry Wire Line
	8600 2400 8500 2300
Entry Wire Line
	8600 2300 8500 2200
Entry Wire Line
	8600 2200 8500 2100
Entry Wire Line
	8600 2100 8500 2000
Entry Wire Line
	8600 2000 8500 1900
Entry Wire Line
	8600 1900 8500 1800
Entry Wire Line
	8600 1800 8500 1700
Entry Wire Line
	8600 1700 8500 1600
Entry Wire Line
	7250 1450 7350 1550
Entry Wire Line
	7250 1550 7350 1650
Entry Wire Line
	7250 1650 7350 1750
Entry Wire Line
	7250 1750 7350 1850
Entry Wire Line
	7250 1850 7350 1950
Entry Wire Line
	7250 1950 7350 2050
Entry Wire Line
	7250 2050 7350 2150
Entry Wire Line
	7250 2150 7350 2250
Entry Wire Line
	7250 2950 7350 3050
Entry Wire Line
	7250 3050 7350 3150
Entry Wire Line
	7250 3150 7350 3250
Entry Wire Line
	7250 3250 7350 3350
Text Label 6700 1450 0    60   ~ 0
SHRA_1
Text Label 6700 1550 0    60   ~ 0
SHRA_2
Text Label 6700 1650 0    60   ~ 0
SHRA_3
Text Label 6700 1750 0    60   ~ 0
SHRA_4
Text Label 6700 1850 0    60   ~ 0
SHRA_5
Text Label 6700 1950 0    60   ~ 0
SHRA_6
Text Label 6700 2050 0    60   ~ 0
SHRA_7
Text Label 6700 2150 0    60   ~ 0
SHRA_8
Text Label 6700 2950 0    60   ~ 0
SHRA_9
Text Label 6700 3050 0    60   ~ 0
SHRA_10
Text Label 6700 3150 0    60   ~ 0
SHRA_11
Text Label 6700 3250 0    60   ~ 0
SHRA_12
Text Label 8650 1700 0    60   ~ 0
SHRA_1
Text Label 8650 1800 0    60   ~ 0
SHRA_2
Text Label 8650 1900 0    60   ~ 0
SHRA_3
Text Label 8650 2000 0    60   ~ 0
SHRA_4
Text Label 8650 2100 0    60   ~ 0
SHRA_5
Text Label 8650 2200 0    60   ~ 0
SHRA_6
Text Label 8650 2300 0    60   ~ 0
SHRA_7
Text Label 8650 2400 0    60   ~ 0
SHRA_8
Text Label 8650 2500 0    60   ~ 0
SHRA_9
Text Label 8650 2600 0    60   ~ 0
SHRA_10
Text Label 8650 2700 0    60   ~ 0
SHRA_11
Text Label 8650 2800 0    60   ~ 0
SHRA_12
$Comp
L D_Schottky_Small D4
U 1 1 57C17C3A
P 6650 4450
F 0 "D4" H 6600 4530 50  0000 L CNN
F 1 "D_Schottky_Small" H 6370 4370 50  0000 L CNN
F 2 "Diodes_ThroughHole:Diode_DO-41_SOD81_Vertical_KathodeUp" V 6650 4450 50  0000 C CNN
F 3 "" V 6650 4450 50  0000 C CNN
	1    6650 4450
	-1   0    0    1   
$EndComp
$Comp
L D_Schottky_Small D5
U 1 1 57C17CC9
P 6650 4550
F 0 "D5" H 6600 4630 50  0000 L CNN
F 1 "D_Schottky_Small" H 6370 4470 50  0000 L CNN
F 2 "Diodes_ThroughHole:Diode_DO-41_SOD81_Vertical_KathodeUp" V 6650 4550 50  0000 C CNN
F 3 "" V 6650 4550 50  0000 C CNN
	1    6650 4550
	-1   0    0    1   
$EndComp
$Comp
L D_Schottky_Small D6
U 1 1 57C17D40
P 6650 4650
F 0 "D6" H 6600 4730 50  0000 L CNN
F 1 "D_Schottky_Small" H 6370 4570 50  0000 L CNN
F 2 "Diodes_ThroughHole:Diode_DO-41_SOD81_Vertical_KathodeUp" V 6650 4650 50  0000 C CNN
F 3 "" V 6650 4650 50  0000 C CNN
	1    6650 4650
	-1   0    0    1   
$EndComp
$Comp
L D_Schottky_Small D7
U 1 1 57C17D8D
P 6650 4750
F 0 "D7" H 6600 4830 50  0000 L CNN
F 1 "D_Schottky_Small" H 6370 4670 50  0000 L CNN
F 2 "Diodes_ThroughHole:Diode_DO-41_SOD81_Vertical_KathodeUp" V 6650 4750 50  0000 C CNN
F 3 "" V 6650 4750 50  0000 C CNN
	1    6650 4750
	-1   0    0    1   
$EndComp
$Comp
L D_Schottky_Small D8
U 1 1 57C17DD4
P 6650 4850
F 0 "D8" H 6600 4930 50  0000 L CNN
F 1 "D_Schottky_Small" H 6370 4770 50  0000 L CNN
F 2 "Diodes_ThroughHole:Diode_DO-41_SOD81_Vertical_KathodeUp" V 6650 4850 50  0000 C CNN
F 3 "" V 6650 4850 50  0000 C CNN
	1    6650 4850
	-1   0    0    1   
$EndComp
$Comp
L D_Schottky_Small D9
U 1 1 57C17E21
P 6650 4950
F 0 "D9" H 6600 5030 50  0000 L CNN
F 1 "D_Schottky_Small" H 6370 4870 50  0000 L CNN
F 2 "Diodes_ThroughHole:Diode_DO-41_SOD81_Vertical_KathodeUp" V 6650 4950 50  0000 C CNN
F 3 "" V 6650 4950 50  0000 C CNN
	1    6650 4950
	-1   0    0    1   
$EndComp
$Comp
L D_Schottky_Small D10
U 1 1 57C17E6A
P 6650 5050
F 0 "D10" H 6600 5130 50  0000 L CNN
F 1 "D_Schottky_Small" H 6370 4970 50  0000 L CNN
F 2 "Diodes_ThroughHole:Diode_DO-41_SOD81_Vertical_KathodeUp" V 6650 5050 50  0000 C CNN
F 3 "" V 6650 5050 50  0000 C CNN
	1    6650 5050
	-1   0    0    1   
$EndComp
$Comp
L D_Schottky_Small D11
U 1 1 57C17EB3
P 6650 5150
F 0 "D11" H 6600 5230 50  0000 L CNN
F 1 "D_Schottky_Small" H 6370 5070 50  0000 L CNN
F 2 "Diodes_ThroughHole:Diode_DO-41_SOD81_Vertical_KathodeUp" V 6650 5150 50  0000 C CNN
F 3 "" V 6650 5150 50  0000 C CNN
	1    6650 5150
	-1   0    0    1   
$EndComp
$Comp
L D_Schottky_Small D12
U 1 1 57C17EFE
P 6650 5950
F 0 "D12" H 6600 6030 50  0000 L CNN
F 1 "D_Schottky_Small" H 6370 5870 50  0000 L CNN
F 2 "Diodes_ThroughHole:Diode_DO-41_SOD81_Vertical_KathodeUp" V 6650 5950 50  0000 C CNN
F 3 "" V 6650 5950 50  0000 C CNN
	1    6650 5950
	-1   0    0    1   
$EndComp
$Comp
L D_Schottky_Small D13
U 1 1 57C17F4D
P 6650 6050
F 0 "D13" H 6600 6130 50  0000 L CNN
F 1 "D_Schottky_Small" H 6370 5970 50  0000 L CNN
F 2 "Diodes_ThroughHole:Diode_DO-41_SOD81_Vertical_KathodeUp" V 6650 6050 50  0000 C CNN
F 3 "" V 6650 6050 50  0000 C CNN
	1    6650 6050
	-1   0    0    1   
$EndComp
$Comp
L D_Schottky_Small D14
U 1 1 57C17F9E
P 6650 6150
F 0 "D14" H 6600 6230 50  0000 L CNN
F 1 "D_Schottky_Small" H 6370 6070 50  0000 L CNN
F 2 "Diodes_ThroughHole:Diode_DO-41_SOD81_Vertical_KathodeUp" V 6650 6150 50  0000 C CNN
F 3 "" V 6650 6150 50  0000 C CNN
	1    6650 6150
	-1   0    0    1   
$EndComp
$Comp
L D_Schottky_Small D15
U 1 1 57C17FF7
P 6650 6250
F 0 "D15" H 6600 6330 50  0000 L CNN
F 1 "D_Schottky_Small" H 6370 6170 50  0000 L CNN
F 2 "Diodes_ThroughHole:Diode_DO-41_SOD81_Vertical_KathodeUp" V 6650 6250 50  0000 C CNN
F 3 "" V 6650 6250 50  0000 C CNN
	1    6650 6250
	-1   0    0    1   
$EndComp
$Comp
L D_Schottky_Small D16
U 1 1 57C1804E
P 6650 6350
F 0 "D16" H 6600 6430 50  0000 L CNN
F 1 "D_Schottky_Small" H 6370 6270 50  0000 L CNN
F 2 "Diodes_ThroughHole:Diode_DO-41_SOD81_Vertical_KathodeUp" V 6650 6350 50  0000 C CNN
F 3 "" V 6650 6350 50  0000 C CNN
	1    6650 6350
	-1   0    0    1   
$EndComp
$Comp
L D_Schottky_Small D17
U 1 1 57C180A5
P 6650 6450
F 0 "D17" H 6600 6530 50  0000 L CNN
F 1 "D_Schottky_Small" H 6370 6370 50  0000 L CNN
F 2 "Diodes_ThroughHole:Diode_DO-41_SOD81_Vertical_KathodeUp" V 6650 6450 50  0000 C CNN
F 3 "" V 6650 6450 50  0000 C CNN
	1    6650 6450
	-1   0    0    1   
$EndComp
$Comp
L D_Schottky_Small D18
U 1 1 57C180FE
P 6650 6550
F 0 "D18" H 6600 6630 50  0000 L CNN
F 1 "D_Schottky_Small" H 6370 6470 50  0000 L CNN
F 2 "Diodes_ThroughHole:Diode_DO-41_SOD81_Vertical_KathodeUp" V 6650 6550 50  0000 C CNN
F 3 "" V 6650 6550 50  0000 C CNN
	1    6650 6550
	-1   0    0    1   
$EndComp
$Comp
L D_Schottky_Small D19
U 1 1 57C18159
P 6650 6650
F 0 "D19" H 6600 6730 50  0000 L CNN
F 1 "D_Schottky_Small" H 6370 6570 50  0000 L CNN
F 2 "Diodes_ThroughHole:Diode_DO-41_SOD81_Vertical_KathodeUp" V 6650 6650 50  0000 C CNN
F 3 "" V 6650 6650 50  0000 C CNN
	1    6650 6650
	-1   0    0    1   
$EndComp
$Comp
L R R10k_2
U 1 1 57C19241
P 2700 4550
F 0 "R10k_2" V 2780 4550 50  0000 C CNN
F 1 "R" V 2700 4550 50  0000 C CNN
F 2 "Resistors_ThroughHole:Resistor_Horizontal_RM10mm" V 2630 4550 50  0000 C CNN
F 3 "" H 2700 4550 50  0000 C CNN
	1    2700 4550
	0    1    1    0   
$EndComp
$Comp
L 74HC595 U6
U 1 1 57C1BB0D
P 5050 8350
F 0 "U6" H 5200 8950 50  0000 C CNN
F 1 "74HC595" H 5050 7750 50  0000 C CNN
F 2 "smiley-library:SOIC-16_3.9x9.9mm_Pitch1.27mm_handsolder" H 5050 8350 50  0000 C CNN
F 3 "" H 5050 8350 50  0000 C CNN
	1    5050 8350
	1    0    0    -1  
$EndComp
$Comp
L CONN_01X05 P6
U 1 1 57C1BFA5
P 4850 7100
F 0 "P6" H 4850 7400 50  0000 C CNN
F 1 "CONN_01X05" V 4950 7100 50  0000 C CNN
F 2 "Pin_Headers:Pin_Header_Straight_1x05" H 4850 7100 50  0000 C CNN
F 3 "" H 4850 7100 50  0000 C CNN
	1    4850 7100
	0    1    1    0   
$EndComp
Text Label 4300 9050 0    60   ~ 0
B2_LV_GND
Text Label 3600 7650 0    60   ~ 0
B2_VCC
$Comp
L 74HC595 U7
U 1 1 57C1D7EC
P 5050 9800
F 0 "U7" H 5200 10400 50  0000 C CNN
F 1 "74HC595" H 5050 9200 50  0000 C CNN
F 2 "smiley-library:SOIC-16_3.9x9.9mm_Pitch1.27mm_handsolder" H 5050 9800 50  0000 C CNN
F 3 "" H 5050 9800 50  0000 C CNN
	1    5050 9800
	1    0    0    -1  
$EndComp
$Comp
L SW_PUSH_SMALL_H SW1
U 1 1 57C20B65
P 6900 4450
F 0 "SW1" H 6980 4560 50  0000 C CNN
F 1 "SW_PUSH_SMALL_H" H 7260 4390 50  0000 C CNN
F 2 "Buttons_Switches_ThroughHole:SW_PUSH_SMALL" H 6900 4650 50  0000 C CNN
F 3 "" H 6900 4650 50  0000 C CNN
	1    6900 4450
	1    0    0    -1  
$EndComp
$Comp
L SW_PUSH_SMALL_H SW2
U 1 1 57C20C6C
P 6900 4550
F 0 "SW2" H 6980 4660 50  0000 C CNN
F 1 "SW_PUSH_SMALL_H" H 7260 4490 50  0000 C CNN
F 2 "Buttons_Switches_ThroughHole:SW_PUSH_SMALL" H 6900 4750 50  0000 C CNN
F 3 "" H 6900 4750 50  0000 C CNN
	1    6900 4550
	1    0    0    -1  
$EndComp
$Comp
L SW_PUSH_SMALL_H SW3
U 1 1 57C21245
P 6900 4650
F 0 "SW3" H 6980 4760 50  0000 C CNN
F 1 "SW_PUSH_SMALL_H" H 7260 4590 50  0000 C CNN
F 2 "Buttons_Switches_ThroughHole:SW_PUSH_SMALL" H 6900 4850 50  0000 C CNN
F 3 "" H 6900 4850 50  0000 C CNN
	1    6900 4650
	1    0    0    -1  
$EndComp
$Comp
L SW_PUSH_SMALL_H SW4
U 1 1 57C212C4
P 6900 4750
F 0 "SW4" H 6980 4860 50  0000 C CNN
F 1 "SW_PUSH_SMALL_H" H 7260 4690 50  0000 C CNN
F 2 "Buttons_Switches_ThroughHole:SW_PUSH_SMALL" H 6900 4950 50  0000 C CNN
F 3 "" H 6900 4950 50  0000 C CNN
	1    6900 4750
	1    0    0    -1  
$EndComp
$Comp
L SW_PUSH_SMALL_H SW5
U 1 1 57C2133B
P 6900 4850
F 0 "SW5" H 6980 4960 50  0000 C CNN
F 1 "SW_PUSH_SMALL_H" H 7260 4790 50  0000 C CNN
F 2 "Buttons_Switches_ThroughHole:SW_PUSH_SMALL" H 6900 5050 50  0000 C CNN
F 3 "" H 6900 5050 50  0000 C CNN
	1    6900 4850
	1    0    0    -1  
$EndComp
$Comp
L SW_PUSH_SMALL_H SW6
U 1 1 57C213AE
P 6900 4950
F 0 "SW6" H 6980 5060 50  0000 C CNN
F 1 "SW_PUSH_SMALL_H" H 7260 4890 50  0000 C CNN
F 2 "Buttons_Switches_ThroughHole:SW_PUSH_SMALL" H 6900 5150 50  0000 C CNN
F 3 "" H 6900 5150 50  0000 C CNN
	1    6900 4950
	1    0    0    -1  
$EndComp
$Comp
L SW_PUSH_SMALL_H SW7
U 1 1 57C2141F
P 6900 5050
F 0 "SW7" H 6980 5160 50  0000 C CNN
F 1 "SW_PUSH_SMALL_H" H 7260 4990 50  0000 C CNN
F 2 "Buttons_Switches_ThroughHole:SW_PUSH_SMALL" H 6900 5250 50  0000 C CNN
F 3 "" H 6900 5250 50  0000 C CNN
	1    6900 5050
	1    0    0    -1  
$EndComp
$Comp
L SW_PUSH_SMALL_H SW8
U 1 1 57C21494
P 6900 5150
F 0 "SW8" H 6980 5260 50  0000 C CNN
F 1 "SW_PUSH_SMALL_H" H 7260 5090 50  0000 C CNN
F 2 "Buttons_Switches_ThroughHole:SW_PUSH_SMALL" H 6900 5350 50  0000 C CNN
F 3 "" H 6900 5350 50  0000 C CNN
	1    6900 5150
	1    0    0    -1  
$EndComp
$Comp
L SW_PUSH_SMALL_H SW9
U 1 1 57C21635
P 6900 5950
F 0 "SW9" H 6980 6060 50  0000 C CNN
F 1 "SW_PUSH_SMALL_H" H 7260 5890 50  0000 C CNN
F 2 "Buttons_Switches_ThroughHole:SW_PUSH_SMALL" H 6900 6150 50  0000 C CNN
F 3 "" H 6900 6150 50  0000 C CNN
	1    6900 5950
	1    0    0    -1  
$EndComp
$Comp
L SW_PUSH_SMALL_H SW10
U 1 1 57C216B0
P 6900 6050
F 0 "SW10" H 6980 6160 50  0000 C CNN
F 1 "SW_PUSH_SMALL_H" H 7260 5990 50  0000 C CNN
F 2 "Buttons_Switches_ThroughHole:SW_PUSH_SMALL" H 6900 6250 50  0000 C CNN
F 3 "" H 6900 6250 50  0000 C CNN
	1    6900 6050
	1    0    0    -1  
$EndComp
$Comp
L SW_PUSH_SMALL_H SW11
U 1 1 57C2172B
P 6900 6150
F 0 "SW11" H 6980 6260 50  0000 C CNN
F 1 "SW_PUSH_SMALL_H" H 7260 6090 50  0000 C CNN
F 2 "Buttons_Switches_ThroughHole:SW_PUSH_SMALL" H 6900 6350 50  0000 C CNN
F 3 "" H 6900 6350 50  0000 C CNN
	1    6900 6150
	1    0    0    -1  
$EndComp
$Comp
L SW_PUSH_SMALL_H SW12
U 1 1 57C217A6
P 6900 6250
F 0 "SW12" H 6980 6360 50  0000 C CNN
F 1 "SW_PUSH_SMALL_H" H 7260 6190 50  0000 C CNN
F 2 "Buttons_Switches_ThroughHole:SW_PUSH_SMALL" H 6900 6450 50  0000 C CNN
F 3 "" H 6900 6450 50  0000 C CNN
	1    6900 6250
	1    0    0    -1  
$EndComp
$Comp
L SW_PUSH_SMALL_H SW13
U 1 1 57C21825
P 6900 6350
F 0 "SW13" H 6980 6460 50  0000 C CNN
F 1 "SW_PUSH_SMALL_H" H 7260 6290 50  0000 C CNN
F 2 "Buttons_Switches_ThroughHole:SW_PUSH_SMALL" H 6900 6550 50  0000 C CNN
F 3 "" H 6900 6550 50  0000 C CNN
	1    6900 6350
	1    0    0    -1  
$EndComp
$Comp
L SW_PUSH_SMALL_H SW14
U 1 1 57C218A4
P 6900 6450
F 0 "SW14" H 6980 6560 50  0000 C CNN
F 1 "SW_PUSH_SMALL_H" H 7260 6390 50  0000 C CNN
F 2 "Buttons_Switches_ThroughHole:SW_PUSH_SMALL" H 6900 6650 50  0000 C CNN
F 3 "" H 6900 6650 50  0000 C CNN
	1    6900 6450
	1    0    0    -1  
$EndComp
$Comp
L SW_PUSH_SMALL_H SW15
U 1 1 57C21929
P 6900 6550
F 0 "SW15" H 6980 6660 50  0000 C CNN
F 1 "SW_PUSH_SMALL_H" H 7260 6490 50  0000 C CNN
F 2 "Buttons_Switches_ThroughHole:SW_PUSH_SMALL" H 6900 6750 50  0000 C CNN
F 3 "" H 6900 6750 50  0000 C CNN
	1    6900 6550
	1    0    0    -1  
$EndComp
$Comp
L SW_PUSH_SMALL_H SW16
U 1 1 57C219B0
P 6900 6650
F 0 "SW16" H 6980 6760 50  0000 C CNN
F 1 "SW_PUSH_SMALL_H" H 7260 6590 50  0000 C CNN
F 2 "Buttons_Switches_ThroughHole:SW_PUSH_SMALL" H 6900 6850 50  0000 C CNN
F 3 "" H 6900 6850 50  0000 C CNN
	1    6900 6650
	1    0    0    -1  
$EndComp
$Comp
L CONN_01X05 P4
U 1 1 57C1BEA6
P 3800 8850
F 0 "P4" H 3800 9150 50  0000 C CNN
F 1 "CONN_01X05" V 3900 8850 50  0000 C CNN
F 2 "Pin_Headers:Pin_Header_Straight_1x05" H 3800 8850 50  0000 C CNN
F 3 "" H 3800 8850 50  0000 C CNN
	1    3800 8850
	0    1    1    0   
$EndComp
$Comp
L CONN_01X05 P5
U 1 1 57C248E5
P 3800 10550
F 0 "P5" H 3800 10850 50  0000 C CNN
F 1 "CONN_01X05" V 3900 10550 50  0000 C CNN
F 2 "Pin_Headers:Pin_Header_Straight_1x05" H 3800 10550 50  0000 C CNN
F 3 "" H 3800 10550 50  0000 C CNN
	1    3800 10550
	0    1    1    0   
$EndComp
$Comp
L BUCK_3A U9
U 1 1 57C2AA4C
P 9900 8150
F 0 "U9" H 9900 8250 60  0000 C CNN
F 1 "BUCK_3A" H 9900 8400 60  0000 C CNN
F 2 "smiley-library:BUCK_3A" H 9900 8250 60  0001 C CNN
F 3 "" H 9900 8250 60  0001 C CNN
	1    9900 8150
	0    -1   -1   0   
$EndComp
$Comp
L BUCK_3A U10
U 1 1 57C2AF03
P 9900 9600
F 0 "U10" H 9900 9700 60  0000 C CNN
F 1 "BUCK_3A" H 9900 9850 60  0000 C CNN
F 2 "smiley-library:BUCK_3A" H 9900 9700 60  0001 C CNN
F 3 "" H 9900 9700 60  0001 C CNN
	1    9900 9600
	0    -1   -1   0   
$EndComp
$Comp
L BARREL_JACK CON1
U 1 1 57C2C486
P 1900 7000
F 0 "CON1" H 1900 7250 50  0000 C CNN
F 1 "BARREL_JACK" H 1900 6800 50  0000 C CNN
F 2 "smiley-library:BARREL_JACK_nosilk" H 1900 7000 50  0000 C CNN
F 3 "" H 1900 7000 50  0000 C CNN
	1    1900 7000
	1    0    0    -1  
$EndComp
$Comp
L BUCK_1A U5
U 1 1 57C2CA71
P 3350 7000
F 0 "U5" H 3350 7100 60  0000 C CNN
F 1 "BUCK_1A" H 3350 7250 60  0000 C CNN
F 2 "smiley-library:BUCK_1A" H 3350 7100 60  0001 C CNN
F 3 "" H 3350 7100 60  0001 C CNN
	1    3350 7000
	0    -1   -1   0   
$EndComp
$Comp
L CONN_02X05 P3
U 1 1 57C2D97F
P 3500 5600
F 0 "P3" H 3500 5900 50  0000 C CNN
F 1 "CONN_02X05" H 3500 5300 50  0000 C CNN
F 2 "Pin_Headers:Pin_Header_Straight_2x05" H 3200 5200 50  0000 C CNN
F 3 "" H 3500 4400 50  0000 C CNN
	1    3500 5600
	0    1    1    0   
$EndComp
$Comp
L D_Schottky_Small D3
U 1 1 57C2F2EE
P 2850 6000
F 0 "D3" H 2800 6080 50  0000 L CNN
F 1 "D_Schottky_Small" H 2570 5920 50  0000 L CNN
F 2 "Diodes_ThroughHole:Diode_DO-41_SOD81_Horizontal_RM10" V 2850 6000 50  0000 C CNN
F 3 "" V 2850 6000 50  0000 C CNN
	1    2850 6000
	1    0    0    -1  
$EndComp
$Comp
L D_Schottky_Small D1
U 1 1 57C2F4F9
P 2250 6150
F 0 "D1" H 2200 6230 50  0000 L CNN
F 1 "D_Schottky_Small" H 1970 6070 50  0000 L CNN
F 2 "Diodes_ThroughHole:Diode_DO-41_SOD81_Horizontal_RM10" V 2250 6150 50  0000 C CNN
F 3 "" V 2250 6150 50  0000 C CNN
	1    2250 6150
	0    1    1    0   
$EndComp
$Comp
L R R50_1
U 1 1 57C2F6D2
P 2100 6000
F 0 "R50_1" V 2180 6000 50  0000 C CNN
F 1 "R" V 2100 6000 50  0000 C CNN
F 2 "Resistors_ThroughHole:Resistor_Horizontal_RM10mm" V 2030 6000 50  0000 C CNN
F 3 "" H 2100 6000 50  0000 C CNN
	1    2100 6000
	0    1    1    0   
$EndComp
$Comp
L ZENERsmall Z5.1
U 1 1 57C2F9D3
P 2450 5600
F 0 "Z5.1" H 2450 5700 50  0000 C CNN
F 1 "ZENERsmall" H 2450 5500 50  0000 C CNN
F 2 "Diodes_ThroughHole:Diode_DO-41_SOD81_Horizontal_RM10" H 2450 5600 50  0000 C CNN
F 3 "" H 2450 5600 50  0000 C CNN
	1    2450 5600
	0    1    1    0   
$EndComp
Text Label 1950 5500 0    60   ~ 0
VCC
Text Label 2700 5850 0    60   ~ 0
GND
$Comp
L CONN_02X02 P2
U 1 1 57C31B38
P 2850 7850
F 0 "P2" H 2850 8000 50  0000 C CNN
F 1 "CONN_02X02" H 2850 7700 50  0000 C CNN
F 2 "Pin_Headers:Pin_Header_Straight_2x02" H 2900 7850 50  0000 C CNN
F 3 "" H 2850 6650 50  0000 C CNN
	1    2850 7850
	0    1    1    0   
$EndComp
$Comp
L CONN_02X02 P1
U 1 1 57C31D44
P 2350 7850
F 0 "P1" H 2350 8000 50  0000 C CNN
F 1 "CONN_02X02" H 2350 7700 50  0000 C CNN
F 2 "Pin_Headers:Pin_Header_Straight_2x02" H 2350 7850 50  0000 C CNN
F 3 "" H 2350 6650 50  0000 C CNN
	1    2350 7850
	0    1    1    0   
$EndComp
$Comp
L CONN_02X02 P7
U 1 1 57C3482A
P 10800 10500
F 0 "P7" H 10800 10650 50  0000 C CNN
F 1 "CONN_02X02" H 10800 10350 50  0000 C CNN
F 2 "Pin_Headers:Pin_Header_Straight_2x02" H 10800 10500 50  0000 C CNN
F 3 "" H 10800 9300 50  0000 C CNN
	1    10800 10500
	0    1    1    0   
$EndComp
$Comp
L CONN_02X02 P8
U 1 1 57C348D9
P 11300 10500
F 0 "P8" H 11300 10650 50  0000 C CNN
F 1 "CONN_02X02" H 11300 10350 50  0000 C CNN
F 2 "Pin_Headers:Pin_Header_Straight_2x02" H 11350 10500 50  0000 C CNN
F 3 "" H 11300 9300 50  0000 C CNN
	1    11300 10500
	0    1    1    0   
$EndComp
Text Label 11250 10250 0    60   ~ 0
B2_HVCC
Text Label 10750 10250 0    60   ~ 0
B2_HGND
Text Label 8950 8350 0    60   ~ 0
B2_HVCC
Text Label 8950 9800 0    60   ~ 0
B2_HVCC
$Comp
L IRF540N Q5
U 1 1 57C3623C
P 8450 8450
F 0 "Q5" H 8700 8525 50  0000 L CNN
F 1 "IRF540N" H 8700 8450 50  0000 L CNN
F 2 "TO_SOT_Packages_THT:TO-220_Neutral123_Vertical_LargePads" H 8700 8375 50  0000 L CIN
F 3 "" H 8450 8450 50  0000 L CNN
	1    8450 8450
	1    0    0    -1  
$EndComp
Text Label 9000 8650 0    60   ~ 0
B2_HGND
$Comp
L IRF540N Q6
U 1 1 57C37455
P 8450 9900
F 0 "Q6" H 8700 9975 50  0000 L CNN
F 1 "IRF540N" H 8700 9900 50  0000 L CNN
F 2 "TO_SOT_Packages_THT:TO-220_Neutral123_Vertical_LargePads" H 8700 9825 50  0000 L CIN
F 3 "" H 8450 9900 50  0000 L CNN
	1    8450 9900
	1    0    0    -1  
$EndComp
Text Label 8950 10100 0    60   ~ 0
B2_HGND
$Comp
L Q_NPN_CBE Q1
U 1 1 57C42120
P 7550 8750
F 0 "Q1" H 7850 8800 50  0000 R CNN
F 1 "Q_NPN_CBE" H 8150 8700 50  0000 R CNN
F 2 "TO_SOT_Packages_THT:TO-92_Inline_Narrow_Oval" H 7750 8850 50  0000 C CNN
F 3 "" H 7550 8750 50  0000 C CNN
	1    7550 8750
	1    0    0    -1  
$EndComp
$Comp
L Q_PNP_CBE Q3
U 1 1 57C4222D
P 7950 8150
F 0 "Q3" H 8250 8200 50  0000 R CNN
F 1 "Q_PNP_CBE" H 8550 8100 50  0000 R CNN
F 2 "TO_SOT_Packages_THT:TO-92_Inline_Narrow_Oval" H 8150 8250 50  0000 C CNN
F 3 "" H 7950 8150 50  0000 C CNN
	1    7950 8150
	1    0    0    1   
$EndComp
$Comp
L R R8
U 1 1 57C428FE
P 8050 9050
F 0 "R8" V 8130 9050 50  0000 C CNN
F 1 "R" V 8050 9050 50  0000 C CNN
F 2 "smiley-library:Resistor_Vertical_2.4" V 7980 9050 50  0000 C CNN
F 3 "" H 8050 9050 50  0000 C CNN
	1    8050 9050
	1    0    0    -1  
$EndComp
$Comp
L R R4
U 1 1 57C42DBF
P 7650 8300
F 0 "R4" V 7730 8300 50  0000 C CNN
F 1 "R" V 7650 8300 50  0000 C CNN
F 2 "smiley-library:Resistor_Vertical_2.4" V 7580 8300 50  0000 C CNN
F 3 "" H 7650 8300 50  0000 C CNN
	1    7650 8300
	1    0    0    -1  
$EndComp
$Comp
L R R6
U 1 1 57C42E76
P 7800 7950
F 0 "R6" V 7880 7950 50  0000 C CNN
F 1 "R" V 7800 7950 50  0000 C CNN
F 2 "smiley-library:Resistor_Vertical_2.4" V 7730 7950 50  0000 C CNN
F 3 "" H 7800 7950 50  0000 C CNN
	1    7800 7950
	0    1    1    0   
$EndComp
$Comp
L Q_NPN_CBE Q2
U 1 1 57C4388F
P 7550 10200
F 0 "Q2" H 7850 10250 50  0000 R CNN
F 1 "Q_NPN_CBE" H 8150 10150 50  0000 R CNN
F 2 "TO_SOT_Packages_THT:TO-92_Inline_Narrow_Oval" H 7750 10300 50  0000 C CNN
F 3 "" H 7550 10200 50  0000 C CNN
	1    7550 10200
	1    0    0    -1  
$EndComp
$Comp
L Q_PNP_CBE Q4
U 1 1 57C43895
P 7950 9600
F 0 "Q4" H 8250 9650 50  0000 R CNN
F 1 "Q_PNP_CBE" H 8550 9550 50  0000 R CNN
F 2 "TO_SOT_Packages_THT:TO-92_Inline_Narrow_Oval" H 8150 9700 50  0000 C CNN
F 3 "" H 7950 9600 50  0000 C CNN
	1    7950 9600
	1    0    0    1   
$EndComp
$Comp
L R R9
U 1 1 57C4389E
P 8050 10500
F 0 "R9" V 8130 10500 50  0000 C CNN
F 1 "R" V 8050 10500 50  0000 C CNN
F 2 "smiley-library:Resistor_Vertical_2.4" V 7980 10500 50  0000 C CNN
F 3 "" H 8050 10500 50  0000 C CNN
	1    8050 10500
	1    0    0    -1  
$EndComp
$Comp
L R R5
U 1 1 57C438A8
P 7650 9750
F 0 "R5" V 7730 9750 50  0000 C CNN
F 1 "R" V 7650 9750 50  0000 C CNN
F 2 "smiley-library:Resistor_Vertical_2.4" V 7580 9750 50  0000 C CNN
F 3 "" H 7650 9750 50  0000 C CNN
	1    7650 9750
	1    0    0    -1  
$EndComp
$Comp
L R R7
U 1 1 57C438AE
P 7800 9400
F 0 "R7" V 7880 9400 50  0000 C CNN
F 1 "R" V 7800 9400 50  0000 C CNN
F 2 "smiley-library:Resistor_Vertical_2.4" V 7730 9400 50  0000 C CNN
F 3 "" H 7800 9400 50  0000 C CNN
	1    7800 9400
	0    1    1    0   
$EndComp
$Comp
L R R2
U 1 1 57C43E57
P 7000 8750
F 0 "R2" V 7080 8750 50  0000 C CNN
F 1 "R" V 7000 8750 50  0000 C CNN
F 2 "smiley-library:Resistor_Vertical_2.4" V 6930 8750 50  0000 C CNN
F 3 "" H 7000 8750 50  0000 C CNN
	1    7000 8750
	0    1    1    0   
$EndComp
$Comp
L R R3
U 1 1 57C43F56
P 7050 10200
F 0 "R3" V 7130 10200 50  0000 C CNN
F 1 "R" V 7050 10200 50  0000 C CNN
F 2 "smiley-library:Resistor_Vertical_2.4" V 6980 10200 50  0000 C CNN
F 3 "" H 7050 10200 50  0000 C CNN
	1    7050 10200
	0    1    1    0   
$EndComp
Text Label 8350 7650 0    60   ~ 0
B2_HVCA
Text Label 9250 7650 0    60   ~ 0
B2_HGNDA
Text Label 8700 10900 0    60   ~ 0
B2_HVCB
Text Label 8700 11150 0    60   ~ 0
B2_HGNDB
$Comp
L IRF540N Q20
U 1 1 57C53374
P 15100 2200
F 0 "Q20" H 15350 2275 50  0000 L CNN
F 1 "IRF540N" H 15350 2200 50  0000 L CNN
F 2 "TO_SOT_Packages_THT:TO-220_Neutral123_Vertical_LargePads" H 15350 2125 50  0000 L CIN
F 3 "" H 15100 2200 50  0000 L CNN
	1    15100 2200
	1    0    0    -1  
$EndComp
$Comp
L Q_NPN_CBE Q17
U 1 1 57C53455
P 14900 2500
F 0 "Q17" H 15200 2550 50  0000 R CNN
F 1 "Q_NPN_CBE" H 15500 2450 50  0000 R CNN
F 2 "TO_SOT_Packages_THT:TO-92_Inline_Narrow_Oval" H 15100 2600 50  0000 C CNN
F 3 "" H 14900 2500 50  0000 C CNN
	1    14900 2500
	-1   0    0    -1  
$EndComp
$Comp
L R R23
U 1 1 57C552A7
P 15200 2750
F 0 "R23" V 15280 2750 50  0000 C CNN
F 1 "R" V 15200 2750 50  0000 C CNN
F 2 "Resistors_ThroughHole:Resistor_Vertical_RM5mm" V 15130 2750 50  0000 C CNN
F 3 "" H 15200 2750 50  0000 C CNN
	1    15200 2750
	1    0    0    -1  
$EndComp
$Comp
L R R20
U 1 1 57C555EC
P 14550 2400
F 0 "R20" V 14630 2400 50  0000 C CNN
F 1 "R" V 14550 2400 50  0000 C CNN
F 2 "smiley-library:Resistor_Vertical_2.4" V 14480 2400 50  0000 C CNN
F 3 "" H 14550 2400 50  0000 C CNN
	1    14550 2400
	1    0    0    -1  
$EndComp
$Comp
L CONN_01X01 P20
U 1 1 57C5683A
P 15200 1750
F 0 "P20" H 15200 1850 50  0000 C CNN
F 1 "CONN_01X01" V 15300 1750 50  0000 C CNN
F 2 "Pin_Headers:Pin_Header_Straight_1x01" H 15200 1750 50  0000 C CNN
F 3 "" H 15200 1750 50  0000 C CNN
	1    15200 1750
	0    -1   -1   0   
$EndComp
$Comp
L CONN_01X01 P19
U 1 1 57C5692B
P 15200 1450
F 0 "P19" H 15200 1550 50  0000 C CNN
F 1 "CONN_01X01" V 15300 1450 50  0000 C CNN
F 2 "Pin_Headers:Pin_Header_Straight_1x01" H 15200 1450 50  0000 C CNN
F 3 "" H 15200 1450 50  0000 C CNN
	1    15200 1450
	0    1    1    0   
$EndComp
Text Label 14550 1250 0    60   ~ 0
B2_HVCA
Text Label 14800 2900 0    60   ~ 0
B2_HGNDA
$Comp
L IRF540N Q14
U 1 1 57C58E44
P 13600 2200
F 0 "Q14" H 13850 2275 50  0000 L CNN
F 1 "IRF540N" H 13850 2200 50  0000 L CNN
F 2 "TO_SOT_Packages_THT:TO-220_Neutral123_Vertical_LargePads" H 13850 2125 50  0000 L CIN
F 3 "" H 13600 2200 50  0000 L CNN
	1    13600 2200
	1    0    0    -1  
$EndComp
$Comp
L Q_NPN_CBE Q11
U 1 1 57C58E4A
P 13400 2500
F 0 "Q11" H 13700 2550 50  0000 R CNN
F 1 "Q_NPN_CBE" H 14000 2450 50  0000 R CNN
F 2 "TO_SOT_Packages_THT:TO-92_Inline_Narrow_Oval" H 13600 2600 50  0000 C CNN
F 3 "" H 13400 2500 50  0000 C CNN
	1    13400 2500
	-1   0    0    -1  
$EndComp
$Comp
L R R17
U 1 1 57C58E50
P 13700 2750
F 0 "R17" V 13780 2750 50  0000 C CNN
F 1 "R" V 13700 2750 50  0000 C CNN
F 2 "Resistors_ThroughHole:Resistor_Vertical_RM5mm" V 13630 2750 50  0000 C CNN
F 3 "" H 13700 2750 50  0000 C CNN
	1    13700 2750
	1    0    0    -1  
$EndComp
$Comp
L R R14
U 1 1 57C58E56
P 13050 2400
F 0 "R14" V 13130 2400 50  0000 C CNN
F 1 "R" V 13050 2400 50  0000 C CNN
F 2 "smiley-library:Resistor_Vertical_2.4" V 12980 2400 50  0000 C CNN
F 3 "" H 13050 2400 50  0000 C CNN
	1    13050 2400
	1    0    0    -1  
$EndComp
$Comp
L CONN_01X01 P14
U 1 1 57C58E65
P 13700 1750
F 0 "P14" H 13700 1850 50  0000 C CNN
F 1 "CONN_01X01" V 13800 1750 50  0000 C CNN
F 2 "Pin_Headers:Pin_Header_Straight_1x01" H 13700 1750 50  0000 C CNN
F 3 "" H 13700 1750 50  0000 C CNN
	1    13700 1750
	0    -1   -1   0   
$EndComp
$Comp
L CONN_01X01 P13
U 1 1 57C58E6B
P 13700 1450
F 0 "P13" H 13700 1550 50  0000 C CNN
F 1 "CONN_01X01" V 13800 1450 50  0000 C CNN
F 2 "Pin_Headers:Pin_Header_Straight_1x01" H 13700 1450 50  0000 C CNN
F 3 "" H 13700 1450 50  0000 C CNN
	1    13700 1450
	0    1    1    0   
$EndComp
Text Label 13050 1250 0    60   ~ 0
B2_HVCA
Text Label 13300 2900 0    60   ~ 0
B2_HGNDA
$Comp
L IRF540N Q9
U 1 1 57C595AB
P 12050 2200
F 0 "Q9" H 12300 2275 50  0000 L CNN
F 1 "IRF540N" H 12300 2200 50  0000 L CNN
F 2 "TO_SOT_Packages_THT:TO-220_Neutral123_Vertical_LargePads" H 12300 2125 50  0000 L CIN
F 3 "" H 12050 2200 50  0000 L CNN
	1    12050 2200
	1    0    0    -1  
$EndComp
$Comp
L Q_NPN_CBE Q7
U 1 1 57C595B1
P 11850 2500
F 0 "Q7" H 12150 2550 50  0000 R CNN
F 1 "Q_NPN_CBE" H 12450 2450 50  0000 R CNN
F 2 "TO_SOT_Packages_THT:TO-92_Inline_Narrow_Oval" H 12050 2600 50  0000 C CNN
F 3 "" H 11850 2500 50  0000 C CNN
	1    11850 2500
	-1   0    0    -1  
$EndComp
$Comp
L R R12
U 1 1 57C595B7
P 12150 2750
F 0 "R12" V 12230 2750 50  0000 C CNN
F 1 "R" V 12150 2750 50  0000 C CNN
F 2 "Resistors_ThroughHole:Resistor_Vertical_RM5mm" V 12080 2750 50  0000 C CNN
F 3 "" H 12150 2750 50  0000 C CNN
	1    12150 2750
	1    0    0    -1  
$EndComp
$Comp
L R R10
U 1 1 57C595BD
P 11500 2400
F 0 "R10" V 11580 2400 50  0000 C CNN
F 1 "R" V 11500 2400 50  0000 C CNN
F 2 "smiley-library:Resistor_Vertical_2.4" V 11430 2400 50  0000 C CNN
F 3 "" H 11500 2400 50  0000 C CNN
	1    11500 2400
	1    0    0    -1  
$EndComp
$Comp
L CONN_01X01 P10
U 1 1 57C595CC
P 12150 1750
F 0 "P10" H 12150 1850 50  0000 C CNN
F 1 "CONN_01X01" V 12250 1750 50  0000 C CNN
F 2 "Pin_Headers:Pin_Header_Straight_1x01" H 12150 1750 50  0000 C CNN
F 3 "" H 12150 1750 50  0000 C CNN
	1    12150 1750
	0    -1   -1   0   
$EndComp
$Comp
L CONN_01X01 P9
U 1 1 57C595D2
P 12150 1450
F 0 "P9" H 12150 1550 50  0000 C CNN
F 1 "CONN_01X01" V 12250 1450 50  0000 C CNN
F 2 "Pin_Headers:Pin_Header_Straight_1x01" H 12150 1450 50  0000 C CNN
F 3 "" H 12150 1450 50  0000 C CNN
	1    12150 1450
	0    1    1    0   
$EndComp
Text Label 11500 1250 0    60   ~ 0
B2_HVCA
Text Label 11750 2900 0    60   ~ 0
B2_HGNDA
$Comp
L IRF540N Q21
U 1 1 57C5B524
P 15100 4450
F 0 "Q21" H 15350 4525 50  0000 L CNN
F 1 "IRF540N" H 15350 4450 50  0000 L CNN
F 2 "TO_SOT_Packages_THT:TO-220_Neutral123_Vertical_LargePads" H 15350 4375 50  0000 L CIN
F 3 "" H 15100 4450 50  0000 L CNN
	1    15100 4450
	1    0    0    -1  
$EndComp
$Comp
L Q_NPN_CBE Q18
U 1 1 57C5B52A
P 14900 4750
F 0 "Q18" H 15200 4800 50  0000 R CNN
F 1 "Q_NPN_CBE" H 15500 4700 50  0000 R CNN
F 2 "TO_SOT_Packages_THT:TO-92_Inline_Narrow_Oval" H 15100 4850 50  0000 C CNN
F 3 "" H 14900 4750 50  0000 C CNN
	1    14900 4750
	-1   0    0    -1  
$EndComp
$Comp
L R R24
U 1 1 57C5B530
P 15200 5000
F 0 "R24" V 15280 5000 50  0000 C CNN
F 1 "R" V 15200 5000 50  0000 C CNN
F 2 "Resistors_ThroughHole:Resistor_Vertical_RM5mm" V 15130 5000 50  0000 C CNN
F 3 "" H 15200 5000 50  0000 C CNN
	1    15200 5000
	1    0    0    -1  
$EndComp
$Comp
L R R21
U 1 1 57C5B536
P 14550 4650
F 0 "R21" V 14630 4650 50  0000 C CNN
F 1 "R" V 14550 4650 50  0000 C CNN
F 2 "smiley-library:Resistor_Vertical_2.4" V 14480 4650 50  0000 C CNN
F 3 "" H 14550 4650 50  0000 C CNN
	1    14550 4650
	1    0    0    -1  
$EndComp
$Comp
L CONN_01X01 P22
U 1 1 57C5B545
P 15200 4000
F 0 "P22" H 15200 4100 50  0000 C CNN
F 1 "CONN_01X01" V 15300 4000 50  0000 C CNN
F 2 "Pin_Headers:Pin_Header_Straight_1x01" H 15200 4000 50  0000 C CNN
F 3 "" H 15200 4000 50  0000 C CNN
	1    15200 4000
	0    -1   -1   0   
$EndComp
$Comp
L CONN_01X01 P21
U 1 1 57C5B54B
P 15200 3700
F 0 "P21" H 15200 3800 50  0000 C CNN
F 1 "CONN_01X01" V 15300 3700 50  0000 C CNN
F 2 "Pin_Headers:Pin_Header_Straight_1x01" H 15200 3700 50  0000 C CNN
F 3 "" H 15200 3700 50  0000 C CNN
	1    15200 3700
	0    1    1    0   
$EndComp
Text Label 14550 3500 0    60   ~ 0
B2_HVCB
Text Label 14800 5150 0    60   ~ 0
B2_HGNDA
$Comp
L IRF540N Q15
U 1 1 57C5B554
P 13600 4450
F 0 "Q15" H 13850 4525 50  0000 L CNN
F 1 "IRF540N" H 13850 4450 50  0000 L CNN
F 2 "TO_SOT_Packages_THT:TO-220_Neutral123_Vertical_LargePads" H 13850 4375 50  0000 L CIN
F 3 "" H 13600 4450 50  0000 L CNN
	1    13600 4450
	1    0    0    -1  
$EndComp
$Comp
L Q_NPN_CBE Q12
U 1 1 57C5B55A
P 13400 4750
F 0 "Q12" H 13700 4800 50  0000 R CNN
F 1 "Q_NPN_CBE" H 14000 4700 50  0000 R CNN
F 2 "TO_SOT_Packages_THT:TO-92_Inline_Narrow_Oval" H 13600 4850 50  0000 C CNN
F 3 "" H 13400 4750 50  0000 C CNN
	1    13400 4750
	-1   0    0    -1  
$EndComp
$Comp
L R R18
U 1 1 57C5B560
P 13700 5000
F 0 "R18" V 13780 5000 50  0000 C CNN
F 1 "R" V 13700 5000 50  0000 C CNN
F 2 "Resistors_ThroughHole:Resistor_Vertical_RM5mm" V 13630 5000 50  0000 C CNN
F 3 "" H 13700 5000 50  0000 C CNN
	1    13700 5000
	1    0    0    -1  
$EndComp
$Comp
L R R15
U 1 1 57C5B566
P 13050 4650
F 0 "R15" V 13130 4650 50  0000 C CNN
F 1 "R" V 13050 4650 50  0000 C CNN
F 2 "smiley-library:Resistor_Vertical_2.4" V 12980 4650 50  0000 C CNN
F 3 "" H 13050 4650 50  0000 C CNN
	1    13050 4650
	1    0    0    -1  
$EndComp
$Comp
L CONN_01X01 P16
U 1 1 57C5B575
P 13700 4000
F 0 "P16" H 13700 4100 50  0000 C CNN
F 1 "CONN_01X01" V 13800 4000 50  0000 C CNN
F 2 "Pin_Headers:Pin_Header_Straight_1x01" H 13700 4000 50  0000 C CNN
F 3 "" H 13700 4000 50  0000 C CNN
	1    13700 4000
	0    -1   -1   0   
$EndComp
$Comp
L CONN_01X01 P15
U 1 1 57C5B57B
P 13700 3700
F 0 "P15" H 13700 3800 50  0000 C CNN
F 1 "CONN_01X01" V 13800 3700 50  0000 C CNN
F 2 "Pin_Headers:Pin_Header_Straight_1x01" H 13700 3700 50  0000 C CNN
F 3 "" H 13700 3700 50  0000 C CNN
	1    13700 3700
	0    1    1    0   
$EndComp
Text Label 13050 3500 0    60   ~ 0
B2_HVCB
Text Label 13300 5150 0    60   ~ 0
B2_HGNDA
$Comp
L IRF540N Q10
U 1 1 57C5B584
P 12050 4450
F 0 "Q10" H 12300 4525 50  0000 L CNN
F 1 "IRF540N" H 12300 4450 50  0000 L CNN
F 2 "TO_SOT_Packages_THT:TO-220_Neutral123_Vertical_LargePads" H 12300 4375 50  0000 L CIN
F 3 "" H 12050 4450 50  0000 L CNN
	1    12050 4450
	1    0    0    -1  
$EndComp
$Comp
L Q_NPN_CBE Q8
U 1 1 57C5B58A
P 11850 4750
F 0 "Q8" H 12150 4800 50  0000 R CNN
F 1 "Q_NPN_CBE" H 12450 4700 50  0000 R CNN
F 2 "TO_SOT_Packages_THT:TO-92_Inline_Narrow_Oval" H 12050 4850 50  0000 C CNN
F 3 "" H 11850 4750 50  0000 C CNN
	1    11850 4750
	-1   0    0    -1  
$EndComp
$Comp
L R R13
U 1 1 57C5B590
P 12150 5000
F 0 "R13" V 12230 5000 50  0000 C CNN
F 1 "R" V 12150 5000 50  0000 C CNN
F 2 "Resistors_ThroughHole:Resistor_Vertical_RM5mm" V 12080 5000 50  0000 C CNN
F 3 "" H 12150 5000 50  0000 C CNN
	1    12150 5000
	1    0    0    -1  
$EndComp
$Comp
L R R11
U 1 1 57C5B596
P 11500 4650
F 0 "R11" V 11580 4650 50  0000 C CNN
F 1 "R" V 11500 4650 50  0000 C CNN
F 2 "smiley-library:Resistor_Vertical_2.4" V 11430 4650 50  0000 C CNN
F 3 "" H 11500 4650 50  0000 C CNN
	1    11500 4650
	1    0    0    -1  
$EndComp
$Comp
L CONN_01X01 P12
U 1 1 57C5B5A5
P 12150 4000
F 0 "P12" H 12150 4100 50  0000 C CNN
F 1 "CONN_01X01" V 12250 4000 50  0000 C CNN
F 2 "Pin_Headers:Pin_Header_Straight_1x01" H 12150 4000 50  0000 C CNN
F 3 "" H 12150 4000 50  0000 C CNN
	1    12150 4000
	0    -1   -1   0   
$EndComp
$Comp
L CONN_01X01 P11
U 1 1 57C5B5AB
P 12150 3700
F 0 "P11" H 12150 3800 50  0000 C CNN
F 1 "CONN_01X01" V 12250 3700 50  0000 C CNN
F 2 "Pin_Headers:Pin_Header_Straight_1x01" H 12150 3700 50  0000 C CNN
F 3 "" H 12150 3700 50  0000 C CNN
	1    12150 3700
	0    1    1    0   
$EndComp
Text Label 11500 3500 0    60   ~ 0
B2_HVCB
Text Label 11750 5150 0    60   ~ 0
B2_HGNDA
$Comp
L IRF540N Q22
U 1 1 57C5CB93
P 15150 6950
F 0 "Q22" H 15400 7025 50  0000 L CNN
F 1 "IRF540N" H 15400 6950 50  0000 L CNN
F 2 "TO_SOT_Packages_THT:TO-220_Neutral123_Vertical_LargePads" H 15400 6875 50  0000 L CIN
F 3 "" H 15150 6950 50  0000 L CNN
	1    15150 6950
	1    0    0    -1  
$EndComp
$Comp
L Q_NPN_CBE Q19
U 1 1 57C5CB99
P 14950 7250
F 0 "Q19" H 15250 7300 50  0000 R CNN
F 1 "Q_NPN_CBE" H 15550 7200 50  0000 R CNN
F 2 "TO_SOT_Packages_THT:TO-92_Inline_Narrow_Oval" H 15150 7350 50  0000 C CNN
F 3 "" H 14950 7250 50  0000 C CNN
	1    14950 7250
	-1   0    0    -1  
$EndComp
$Comp
L R R25
U 1 1 57C5CB9F
P 15250 7500
F 0 "R25" V 15330 7500 50  0000 C CNN
F 1 "R" V 15250 7500 50  0000 C CNN
F 2 "Resistors_ThroughHole:Resistor_Vertical_RM5mm" V 15180 7500 50  0000 C CNN
F 3 "" H 15250 7500 50  0000 C CNN
	1    15250 7500
	1    0    0    -1  
$EndComp
$Comp
L R R22
U 1 1 57C5CBA5
P 14600 7150
F 0 "R22" V 14680 7150 50  0000 C CNN
F 1 "R" V 14600 7150 50  0000 C CNN
F 2 "smiley-library:Resistor_Vertical_2.4" V 14530 7150 50  0000 C CNN
F 3 "" H 14600 7150 50  0000 C CNN
	1    14600 7150
	1    0    0    -1  
$EndComp
$Comp
L CONN_01X01 P24
U 1 1 57C5CBB4
P 15250 6500
F 0 "P24" H 15250 6600 50  0000 C CNN
F 1 "CONN_01X01" V 15350 6500 50  0000 C CNN
F 2 "Pin_Headers:Pin_Header_Straight_1x01" H 15250 6500 50  0000 C CNN
F 3 "" H 15250 6500 50  0000 C CNN
	1    15250 6500
	0    -1   -1   0   
$EndComp
$Comp
L CONN_01X01 P23
U 1 1 57C5CBBA
P 15250 6200
F 0 "P23" H 15250 6300 50  0000 C CNN
F 1 "CONN_01X01" V 15350 6200 50  0000 C CNN
F 2 "Pin_Headers:Pin_Header_Straight_1x01" H 15250 6200 50  0000 C CNN
F 3 "" H 15250 6200 50  0000 C CNN
	1    15250 6200
	0    1    1    0   
$EndComp
Text Label 14600 6000 0    60   ~ 0
B2_HVCC
Text Label 14850 7650 0    60   ~ 0
B2_HGND
$Comp
L IRF540N Q16
U 1 1 57C5CBC3
P 13650 6950
F 0 "Q16" H 13900 7025 50  0000 L CNN
F 1 "IRF540N" H 13900 6950 50  0000 L CNN
F 2 "TO_SOT_Packages_THT:TO-220_Neutral123_Vertical_LargePads" H 13900 6875 50  0000 L CIN
F 3 "" H 13650 6950 50  0000 L CNN
	1    13650 6950
	1    0    0    -1  
$EndComp
$Comp
L Q_NPN_CBE Q13
U 1 1 57C5CBC9
P 13450 7250
F 0 "Q13" H 13750 7300 50  0000 R CNN
F 1 "Q_NPN_CBE" H 14050 7200 50  0000 R CNN
F 2 "TO_SOT_Packages_THT:TO-92_Inline_Narrow_Oval" H 13650 7350 50  0000 C CNN
F 3 "" H 13450 7250 50  0000 C CNN
	1    13450 7250
	-1   0    0    -1  
$EndComp
$Comp
L R R19
U 1 1 57C5CBCF
P 13750 7500
F 0 "R19" V 13830 7500 50  0000 C CNN
F 1 "R" V 13750 7500 50  0000 C CNN
F 2 "Resistors_ThroughHole:Resistor_Vertical_RM5mm" V 13680 7500 50  0000 C CNN
F 3 "" H 13750 7500 50  0000 C CNN
	1    13750 7500
	1    0    0    -1  
$EndComp
$Comp
L R R16
U 1 1 57C5CBD5
P 13100 7150
F 0 "R16" V 13180 7150 50  0000 C CNN
F 1 "R" V 13100 7150 50  0000 C CNN
F 2 "smiley-library:Resistor_Vertical_2.4" V 13030 7150 50  0000 C CNN
F 3 "" H 13100 7150 50  0000 C CNN
	1    13100 7150
	1    0    0    -1  
$EndComp
$Comp
L CONN_01X01 P18
U 1 1 57C5CBE4
P 13750 6500
F 0 "P18" H 13750 6600 50  0000 C CNN
F 1 "CONN_01X01" V 13850 6500 50  0000 C CNN
F 2 "Pin_Headers:Pin_Header_Straight_1x01" H 13750 6500 50  0000 C CNN
F 3 "" H 13750 6500 50  0000 C CNN
	1    13750 6500
	0    -1   -1   0   
$EndComp
$Comp
L CONN_01X01 P17
U 1 1 57C5CBEA
P 13750 6200
F 0 "P17" H 13750 6300 50  0000 C CNN
F 1 "CONN_01X01" V 13850 6200 50  0000 C CNN
F 2 "Pin_Headers:Pin_Header_Straight_1x01" H 13750 6200 50  0000 C CNN
F 3 "" H 13750 6200 50  0000 C CNN
	1    13750 6200
	0    1    1    0   
$EndComp
Text Label 13100 6000 0    60   ~ 0
B2_HVCC
Text Label 13350 7650 0    60   ~ 0
B2_HGND
Text Label 5800 7900 0    60   ~ 0
LED1
Text Label 5800 8000 0    60   ~ 0
LED2
Text Label 5800 8100 0    60   ~ 0
LED3
Text Label 5800 8200 0    60   ~ 0
LED4
Text Label 5850 9350 0    60   ~ 0
LED5
Text Label 5850 9450 0    60   ~ 0
LED6
Text Label 5850 9550 0    60   ~ 0
LED7
Text Label 5850 9650 0    60   ~ 0
LED8
Text Label 10800 2550 0    60   ~ 0
LED1
Text Label 12450 2550 0    60   ~ 0
LED2
Text Label 14050 2550 0    60   ~ 0
LED3
Text Label 12350 7300 0    60   ~ 0
LED4
Text Label 10750 4800 0    60   ~ 0
LED5
Text Label 12450 4800 0    60   ~ 0
LED6
Text Label 14000 4800 0    60   ~ 0
LED7
Text Label 14000 7300 0    60   ~ 0
LED8
Text Label 3400 1900 0    60   ~ 0
MOSI
Text Label 3400 2000 0    60   ~ 0
MISO
Text Label 3450 2100 0    60   ~ 0
SCK
Text Label 3450 2300 0    60   ~ 0
BTN
$Comp
L ATTINY85-S IC2
U 1 1 57C2A6A6
P 1100 9600
F 0 "IC2" H -50 10000 50  0000 C CNN
F 1 "ATTINY85-S" H 2100 9200 50  0000 C CNN
F 2 "Housings_SOIC:SOIJ-8_5.3x5.3mm_Pitch1.27mm" H 2050 9600 50  0000 C CIN
F 3 "" H 1100 9600 50  0000 C CNN
	1    1100 9600
	0    1    1    0   
$EndComp
Text Label 1600 10950 0    60   ~ 0
VCC
Text Label 1100 11150 0    60   ~ 0
GND
Text Label 1550 8250 0    60   ~ 0
MOSI
Text Label 1550 8100 0    60   ~ 0
MISO
Text Label 1550 7950 0    60   ~ 0
SCK
Text Label 1550 7800 0    60   ~ 0
BTN
$Comp
L ATMEGA328P-A IC3
U 1 1 57C2D57A
P 9050 5650
F 0 "IC3" H 8300 6900 50  0000 L BNN
F 1 "ATMEGA328P-A" H 9450 4250 50  0000 L BNN
F 2 "Housings_QFP:TQFP-32_7x7mm_Pitch0.8mm" H 9050 5650 50  0000 C CIN
F 3 "" H 9050 5650 50  0000 C CNN
	1    9050 5650
	1    0    0    -1  
$EndComp
Text Label 8300 4250 0    60   ~ 0
VCC
Text Label 8300 7200 0    60   ~ 0
GND
Connection ~ 4900 3150
Wire Wire Line
	4900 4650 5150 4650
Wire Wire Line
	4900 3150 5150 3150
Wire Wire Line
	4900 1650 4900 6150
Wire Wire Line
	4000 1650 5150 1650
Connection ~ 4800 4950
Wire Wire Line
	4800 6450 5150 6450
Connection ~ 4800 3450
Wire Wire Line
	4800 4950 5150 4950
Wire Wire Line
	4800 3450 5150 3450
Wire Wire Line
	4800 1950 4800 6450
Wire Wire Line
	4300 1950 5150 1950
Wire Wire Line
	4850 6150 5150 6150
Connection ~ 4900 4650
Wire Wire Line
	4500 1750 5150 1750
Wire Wire Line
	5150 3250 4500 3250
Wire Wire Line
	5150 4750 4500 4750
Wire Wire Line
	4500 6250 5150 6250
Wire Wire Line
	5150 2050 4500 2050
Wire Wire Line
	5150 3550 4500 3550
Wire Wire Line
	5150 5050 4500 5050
Wire Wire Line
	4500 6550 5150 6550
Wire Wire Line
	6550 2350 6550 2700
Wire Wire Line
	6550 2700 5150 2700
Wire Wire Line
	5150 2700 5150 2950
Wire Wire Line
	6550 3850 6550 4200
Wire Wire Line
	6550 4200 5150 4200
Wire Wire Line
	5150 4200 5150 4450
Wire Wire Line
	6550 5350 6550 5700
Wire Wire Line
	6550 5700 5150 5700
Wire Wire Line
	5150 5700 5150 5950
Wire Wire Line
	3200 1900 4000 1900
Wire Wire Line
	4000 1900 4000 1650
Connection ~ 4900 1650
Wire Wire Line
	3200 2000 4300 2000
Wire Wire Line
	4300 2000 4300 1950
Connection ~ 4800 1950
Wire Wire Line
	3200 2100 4200 2100
Wire Wire Line
	4200 2100 4200 1450
Wire Wire Line
	4200 1450 5150 1450
Wire Wire Line
	2200 1300 2200 1000
Wire Wire Line
	2200 1000 1700 1000
Wire Wire Line
	2200 4200 2200 4550
Wire Wire Line
	1550 4550 2550 4550
Wire Wire Line
	650  1800 1300 1800
Wire Wire Line
	650  2000 1300 2000
Wire Wire Line
	1300 1600 950  1600
Wire Wire Line
	950  1400 950  5150
Wire Wire Line
	950  1100 1700 1100
Wire Wire Line
	1700 1100 1700 1000
Connection ~ 900  1800
Connection ~ 1100 1800
Connection ~ 900  2000
Connection ~ 1100 2000
Wire Wire Line
	9050 2800 8600 2800
Wire Wire Line
	9050 2700 8600 2700
Wire Wire Line
	9050 2600 8600 2600
Wire Wire Line
	9050 2500 8600 2500
Wire Wire Line
	9050 2400 8600 2400
Wire Wire Line
	9050 2300 8600 2300
Wire Wire Line
	9050 2200 8600 2200
Wire Wire Line
	9050 2100 8600 2100
Wire Wire Line
	9050 2000 8600 2000
Wire Wire Line
	9050 1900 8600 1900
Wire Wire Line
	9050 1800 8600 1800
Wire Wire Line
	9050 1700 8600 1700
Wire Wire Line
	6550 1450 7250 1450
Wire Wire Line
	6550 1550 7250 1550
Wire Wire Line
	6550 1650 7250 1650
Wire Wire Line
	6550 1750 7250 1750
Wire Wire Line
	6550 1850 7250 1850
Wire Wire Line
	6550 1950 7250 1950
Wire Wire Line
	6550 2050 7250 2050
Wire Wire Line
	6550 2150 7250 2150
Wire Wire Line
	6550 2950 7250 2950
Wire Wire Line
	6550 3050 7250 3050
Wire Wire Line
	6550 3150 7250 3150
Wire Wire Line
	6550 3250 7250 3250
Wire Bus Line
	7350 1550 7350 3350
Wire Bus Line
	7350 1550 8500 1550
Wire Bus Line
	8500 1550 8500 2700
Wire Wire Line
	7050 7300 4000 7300
Wire Wire Line
	4000 7300 4000 2300
Wire Wire Line
	4000 2300 3200 2300
Wire Wire Line
	2850 4550 4000 4550
Connection ~ 4000 4550
Connection ~ 2200 4550
Wire Wire Line
	5050 6550 5050 6900
Connection ~ 5050 6550
Wire Wire Line
	4950 6450 4950 6900
Connection ~ 4950 6450
Wire Wire Line
	4850 6900 4850 6150
Connection ~ 4900 6150
Wire Wire Line
	4650 6900 4650 6250
Connection ~ 4650 6250
Wire Wire Line
	4750 6900 4750 6800
Wire Wire Line
	4750 6800 5300 6800
Wire Wire Line
	5300 6800 5300 7150
Wire Wire Line
	5300 7150 6550 7150
Wire Wire Line
	6550 7150 6550 6850
Wire Wire Line
	3700 8650 3700 7900
Wire Wire Line
	3700 7900 4350 7900
Wire Wire Line
	3800 8650 3800 8100
Wire Wire Line
	3800 8100 4350 8100
Wire Wire Line
	3900 8650 3900 8400
Wire Wire Line
	3900 8400 4350 8400
Wire Wire Line
	3600 7650 3600 8650
Wire Wire Line
	3300 8200 4350 8200
Wire Wire Line
	4000 8650 4000 8500
Wire Wire Line
	4000 8500 4350 8500
Wire Wire Line
	3600 7650 4750 7650
Wire Wire Line
	4750 7650 4750 7800
Connection ~ 3600 8200
Wire Wire Line
	4300 8500 4300 10050
Wire Wire Line
	4300 9050 4750 9050
Wire Wire Line
	4750 9050 4750 8900
Connection ~ 4300 8500
Wire Wire Line
	5750 8800 5750 9150
Wire Wire Line
	5750 9150 4350 9150
Wire Wire Line
	4350 9150 4350 9350
Wire Wire Line
	4000 9950 4350 9950
Connection ~ 4300 9050
Wire Wire Line
	3900 9850 4350 9850
Wire Wire Line
	4250 9850 4250 8400
Connection ~ 4250 8400
Wire Wire Line
	3800 9650 4350 9650
Wire Wire Line
	4200 9650 4200 8200
Connection ~ 4200 8200
Wire Wire Line
	4350 9550 4150 9550
Wire Wire Line
	4150 9550 4150 8100
Connection ~ 4150 8100
Wire Wire Line
	7050 4450 7050 7300
Connection ~ 7050 4550
Connection ~ 7050 4650
Connection ~ 7050 4750
Connection ~ 7050 4850
Connection ~ 7050 4950
Connection ~ 7050 5050
Connection ~ 7050 5150
Connection ~ 7050 5950
Connection ~ 7050 6050
Connection ~ 7050 6150
Connection ~ 7050 6250
Connection ~ 7050 6350
Connection ~ 7050 6450
Connection ~ 7050 6550
Connection ~ 7050 6650
Wire Wire Line
	4000 9950 4000 10350
Connection ~ 4300 9950
Wire Wire Line
	3900 9850 3900 10350
Connection ~ 4250 9850
Wire Wire Line
	3800 9650 3800 10350
Connection ~ 4200 9650
Wire Wire Line
	5750 10250 5750 10500
Wire Wire Line
	5750 10500 4350 10500
Wire Wire Line
	4350 10500 4350 10200
Wire Wire Line
	4350 10200 3700 10200
Wire Wire Line
	3700 10200 3700 10350
Wire Wire Line
	3300 8200 3300 10350
Wire Wire Line
	3300 10350 3600 10350
Wire Wire Line
	3300 9200 4750 9200
Wire Wire Line
	4750 9200 4750 9250
Connection ~ 3300 9200
Wire Wire Line
	4750 10350 4750 10400
Wire Wire Line
	4750 10400 4450 10400
Wire Wire Line
	4450 10400 4450 10050
Wire Wire Line
	4450 10050 4300 10050
Wire Wire Line
	2200 6900 2550 6900
Wire Wire Line
	2550 6900 2550 7200
Wire Wire Line
	2550 7200 2950 7200
Wire Wire Line
	2200 7000 2200 7100
Wire Wire Line
	2200 7100 2950 7100
Wire Wire Line
	3700 5350 3700 1900
Connection ~ 3700 1900
Wire Wire Line
	3500 5350 3500 5150
Wire Wire Line
	3500 5150 950  5150
Connection ~ 950  1600
Wire Wire Line
	3400 5350 3400 2100
Connection ~ 3400 2100
Wire Wire Line
	3300 5350 3300 2000
Connection ~ 3300 2000
Wire Wire Line
	3700 6000 3700 5850
Wire Wire Line
	2950 6000 3700 6000
Wire Wire Line
	2450 5850 3300 5850
Wire Wire Line
	2950 6900 2650 6900
Wire Wire Line
	2650 6900 2650 6450
Wire Wire Line
	2650 6450 2250 6450
Wire Wire Line
	2250 6450 2250 6250
Wire Wire Line
	2750 6000 2250 6000
Wire Wire Line
	2250 6000 2250 6050
Wire Wire Line
	2950 6800 2750 6800
Wire Wire Line
	2750 6800 2750 6250
Wire Wire Line
	2750 6250 2450 6250
Wire Wire Line
	2450 6250 2450 5700
Wire Wire Line
	1950 6000 1950 5500
Wire Wire Line
	1950 5500 2450 5500
Connection ~ 2450 5850
Wire Wire Line
	2900 7200 2900 8100
Connection ~ 2900 7200
Wire Wire Line
	2300 7600 2400 7600
Wire Wire Line
	2400 7100 2400 8100
Connection ~ 2400 7100
Wire Wire Line
	2800 7600 2900 7600
Wire Wire Line
	2300 7600 2300 8100
Wire Wire Line
	2300 8100 2400 8100
Connection ~ 2400 7600
Wire Wire Line
	2800 7600 2800 8100
Wire Wire Line
	2800 8100 2900 8100
Connection ~ 2900 7600
Wire Wire Line
	10750 10250 10850 10250
Wire Wire Line
	10850 10250 10850 10750
Wire Wire Line
	10850 10750 10750 10750
Wire Wire Line
	10750 10750 10750 10250
Wire Wire Line
	11250 10250 11250 10750
Wire Wire Line
	11250 10750 11350 10750
Wire Wire Line
	11350 10750 11350 10250
Wire Wire Line
	11350 10250 11250 10250
Wire Wire Line
	9500 8350 8950 8350
Wire Wire Line
	9500 9800 8950 9800
Wire Wire Line
	8550 8250 9500 8250
Wire Wire Line
	8550 8650 9450 8650
Wire Wire Line
	8550 9700 9500 9700
Wire Wire Line
	8550 10100 9500 10100
Wire Wire Line
	7950 9400 10350 9400
Wire Wire Line
	9500 7950 9250 7950
Wire Wire Line
	9250 7650 9250 8250
Connection ~ 9250 8250
Wire Wire Line
	9150 9400 9150 9700
Connection ~ 9150 9700
Wire Wire Line
	8950 8350 8950 7950
Wire Wire Line
	8950 7950 7950 7950
Wire Wire Line
	8050 8350 8050 8900
Wire Wire Line
	8050 8500 8250 8500
Connection ~ 8050 8500
Wire Wire Line
	7650 9200 9450 9200
Wire Wire Line
	9450 9200 9450 8650
Wire Wire Line
	7650 8950 7650 9200
Connection ~ 8050 9200
Connection ~ 8050 7950
Wire Wire Line
	7650 7950 7650 8150
Wire Wire Line
	7650 8150 7750 8150
Wire Wire Line
	7650 8450 7650 8550
Wire Wire Line
	8050 9800 8050 10350
Wire Wire Line
	8050 9950 8250 9950
Connection ~ 8050 9950
Wire Wire Line
	7650 10650 9500 10650
Wire Wire Line
	7650 10400 7650 10650
Connection ~ 8050 10650
Connection ~ 8050 9400
Wire Wire Line
	7650 9400 7650 9600
Wire Wire Line
	7650 9600 7750 9600
Wire Wire Line
	7650 9900 7650 10000
Connection ~ 9150 9400
Wire Wire Line
	9500 10650 9500 10100
Wire Wire Line
	7200 10200 7350 10200
Wire Wire Line
	7150 8750 7350 8750
Wire Wire Line
	6850 8750 6150 8750
Wire Wire Line
	6150 8750 6150 8300
Wire Wire Line
	6150 8300 5750 8300
Wire Wire Line
	6900 10200 6150 10200
Wire Wire Line
	6150 10200 6150 9750
Wire Wire Line
	6150 9750 5750 9750
Wire Wire Line
	9500 8050 9050 8050
Wire Wire Line
	9050 8050 9050 7650
Wire Wire Line
	9050 7650 8350 7650
Wire Wire Line
	9250 7650 9900 7650
Connection ~ 9250 7950
Wire Wire Line
	9500 9500 10100 9500
Wire Wire Line
	10100 10900 8700 10900
Wire Wire Line
	10350 11150 8700 11150
Connection ~ 9500 9400
Wire Wire Line
	10100 9500 10100 10900
Wire Wire Line
	10350 9400 10350 11150
Wire Wire Line
	14550 2250 14900 2250
Wire Wire Line
	14800 2300 14800 2250
Connection ~ 14800 2250
Wire Wire Line
	15200 2400 15200 2600
Wire Wire Line
	15100 2500 15200 2500
Connection ~ 15200 2500
Wire Wire Line
	15200 2900 14800 2900
Wire Wire Line
	14800 2900 14800 2700
Wire Wire Line
	15200 2000 15200 1950
Wire Wire Line
	15200 1250 14550 1250
Wire Wire Line
	13050 2250 13400 2250
Wire Wire Line
	13300 2300 13300 2250
Connection ~ 13300 2250
Wire Wire Line
	13700 2400 13700 2600
Wire Wire Line
	13600 2500 13700 2500
Connection ~ 13700 2500
Wire Wire Line
	13700 2900 13300 2900
Wire Wire Line
	13300 2900 13300 2700
Wire Wire Line
	13700 2000 13700 1950
Wire Wire Line
	13700 1250 13050 1250
Wire Wire Line
	11500 2250 11850 2250
Wire Wire Line
	11750 2300 11750 2250
Connection ~ 11750 2250
Wire Wire Line
	12150 2400 12150 2600
Wire Wire Line
	12050 2500 12150 2500
Connection ~ 12150 2500
Wire Wire Line
	12150 2900 11750 2900
Wire Wire Line
	11750 2900 11750 2700
Wire Wire Line
	12150 2000 12150 1950
Wire Wire Line
	12150 1250 11500 1250
Wire Wire Line
	14550 4500 14900 4500
Wire Wire Line
	14800 4550 14800 4500
Connection ~ 14800 4500
Wire Wire Line
	15200 4650 15200 4850
Wire Wire Line
	15100 4750 15200 4750
Connection ~ 15200 4750
Wire Wire Line
	15200 5150 14800 5150
Wire Wire Line
	14800 5150 14800 4950
Wire Wire Line
	15200 4250 15200 4200
Wire Wire Line
	15200 3500 14550 3500
Wire Wire Line
	13050 4500 13400 4500
Wire Wire Line
	13300 4550 13300 4500
Connection ~ 13300 4500
Wire Wire Line
	13700 4650 13700 4850
Wire Wire Line
	13600 4750 13700 4750
Connection ~ 13700 4750
Wire Wire Line
	13700 5150 13300 5150
Wire Wire Line
	13300 5150 13300 4950
Wire Wire Line
	13700 4250 13700 4200
Wire Wire Line
	13700 3500 13050 3500
Wire Wire Line
	11500 4500 11850 4500
Wire Wire Line
	11750 4550 11750 4500
Connection ~ 11750 4500
Wire Wire Line
	12150 4650 12150 4850
Wire Wire Line
	12050 4750 12150 4750
Connection ~ 12150 4750
Wire Wire Line
	12150 5150 11750 5150
Wire Wire Line
	11750 5150 11750 4950
Wire Wire Line
	12150 4250 12150 4200
Wire Wire Line
	12150 3500 11500 3500
Wire Wire Line
	14600 7000 14950 7000
Wire Wire Line
	14850 7050 14850 7000
Connection ~ 14850 7000
Wire Wire Line
	15250 7150 15250 7350
Wire Wire Line
	15150 7250 15250 7250
Connection ~ 15250 7250
Wire Wire Line
	15250 7650 14850 7650
Wire Wire Line
	14850 7650 14850 7450
Wire Wire Line
	15250 6750 15250 6700
Wire Wire Line
	15250 6000 14600 6000
Wire Wire Line
	13100 7000 13450 7000
Wire Wire Line
	13350 7050 13350 7000
Connection ~ 13350 7000
Wire Wire Line
	13750 7150 13750 7350
Wire Wire Line
	13650 7250 13750 7250
Connection ~ 13750 7250
Wire Wire Line
	13750 7650 13350 7650
Wire Wire Line
	13350 7650 13350 7450
Wire Wire Line
	13750 6750 13750 6700
Wire Wire Line
	13750 6000 13100 6000
Wire Wire Line
	5750 7900 6150 7900
Wire Wire Line
	5750 8000 6150 8000
Wire Wire Line
	5750 8100 6150 8100
Wire Wire Line
	5750 8200 6150 8200
Wire Wire Line
	5750 9350 6150 9350
Wire Wire Line
	5750 9450 6150 9450
Wire Wire Line
	5750 9550 6150 9550
Wire Wire Line
	5750 9650 6150 9650
Wire Wire Line
	11500 4800 10750 4800
Wire Wire Line
	13050 4800 12450 4800
Wire Wire Line
	14550 4800 14000 4800
Wire Wire Line
	11500 2550 10800 2550
Wire Wire Line
	13050 2550 12450 2550
Wire Wire Line
	14550 2550 14050 2550
Wire Wire Line
	13100 7300 12350 7300
Wire Wire Line
	14600 7300 14000 7300
Wire Wire Line
	1350 10950 2200 10950
Wire Wire Line
	850  10950 850  11150
Wire Wire Line
	850  11150 2200 11150
Wire Wire Line
	1350 8250 1900 8250
Wire Wire Line
	1250 8250 1250 8100
Wire Wire Line
	1250 8100 1900 8100
Wire Wire Line
	1150 8250 1150 7950
Wire Wire Line
	1150 7950 1900 7950
Wire Wire Line
	1050 8250 1050 7800
Wire Wire Line
	1050 7800 1900 7800
Wire Wire Line
	8150 4250 8150 4850
Connection ~ 8150 4650
Wire Wire Line
	8150 6650 8150 7200
Connection ~ 8150 6750
Wire Wire Line
	8150 4250 8750 4250
Connection ~ 8150 4550
Wire Wire Line
	8150 7200 8800 7200
Connection ~ 8150 6850
Wire Wire Line
	10050 4850 10550 4850
Wire Wire Line
	10050 4950 10550 4950
Wire Wire Line
	10050 5050 10550 5050
Wire Wire Line
	10050 5400 10550 5400
Text Label 10200 4850 0    60   ~ 0
MOSI
Text Label 10200 4950 0    60   ~ 0
MISO
Text Label 10200 5050 0    60   ~ 0
SCK
Text Label 10250 5400 0    60   ~ 0
BTN
NoConn ~ 3200 1600
NoConn ~ 3200 1700
NoConn ~ 3200 1800
NoConn ~ 3200 2400
NoConn ~ 3200 2500
NoConn ~ 3200 2600
NoConn ~ 3200 2700
NoConn ~ 3200 2800
NoConn ~ 3200 3000
NoConn ~ 3200 3100
NoConn ~ 3200 3200
NoConn ~ 3200 3300
NoConn ~ 3200 3400
NoConn ~ 3200 3500
NoConn ~ 3200 3600
NoConn ~ 3200 3700
NoConn ~ 1300 2300
NoConn ~ 1300 2500
NoConn ~ 950  8250
Wire Wire Line
	850  8250 850  7650
Wire Wire Line
	850  7650 1900 7650
Text Label 1550 7650 0    60   ~ 0
RST
NoConn ~ 3600 5350
NoConn ~ 3600 5850
NoConn ~ 3500 5850
NoConn ~ 3400 5850
Text Label 1050 1600 0    60   ~ 0
RST
Wire Wire Line
	10050 6000 10550 6000
Text Label 10250 6000 0    60   ~ 0
RST
NoConn ~ 10050 4550
NoConn ~ 10050 4650
NoConn ~ 10050 4750
NoConn ~ 10050 5150
NoConn ~ 10050 5250
NoConn ~ 10050 5500
NoConn ~ 10050 5600
NoConn ~ 10050 5700
NoConn ~ 10050 5800
NoConn ~ 10050 5900
NoConn ~ 10050 6150
NoConn ~ 10050 6250
NoConn ~ 10050 6350
NoConn ~ 10050 6450
NoConn ~ 10050 6550
NoConn ~ 10050 6650
NoConn ~ 10050 6750
NoConn ~ 10050 6850
NoConn ~ 8150 5150
NoConn ~ 8150 5900
NoConn ~ 8150 6000
NoConn ~ 5750 8400
NoConn ~ 5750 8500
NoConn ~ 5750 8600
NoConn ~ 5750 9850
NoConn ~ 5750 9950
NoConn ~ 5750 10050
NoConn ~ 6550 3350
NoConn ~ 6550 3450
NoConn ~ 6550 3550
NoConn ~ 6550 3650
NoConn ~ 1300 1900
$EndSCHEMATC
