EESchema Schematic File Version 2
LIBS:rur
LIBS:power
LIBS:device
LIBS:transistors
LIBS:conn
LIBS:linear
LIBS:regul
LIBS:74xx
LIBS:cmos4000
LIBS:adc-dac
LIBS:memory
LIBS:xilinx
LIBS:microcontrollers
LIBS:dsp
LIBS:microchip
LIBS:analog_switches
LIBS:motorola
LIBS:texas
LIBS:intel
LIBS:audio
LIBS:interface
LIBS:digital-audio
LIBS:philips
LIBS:display
LIBS:cypress
LIBS:siliconi
LIBS:opto
LIBS:atmel
LIBS:contrib
LIBS:valves
LIBS:smiley-component
LIBS:lamp_v2-cache
EELAYER 25 0
EELAYER END
$Descr A4 11693 8268
encoding utf-8
Sheet 17 19
Title ""
Date ""
Rev ""
Comp ""
Comment1 ""
Comment2 ""
Comment3 ""
Comment4 ""
$EndDescr
$Comp
L BUCK_3A U9
U 1 1 57CF8133
P 3900 3300
AR Path="/57C3D9FF/57CF7F2E/57CF8133" Ref="U9"  Part="1" 
AR Path="/57C3D9FF/57CFE7C0/57CF8133" Ref="U10"  Part="1" 
F 0 "U10" H 3900 3400 60  0000 C CNN
F 1 "BUCK_3A" H 3900 3550 60  0000 C CNN
F 2 "smiley-library:BUCK_3A" H 3900 3400 60  0001 C CNN
F 3 "" H 3900 3400 60  0001 C CNN
	1    3900 3300
	1    0    0    -1  
$EndComp
Wire Wire Line
	3700 2900 3100 2900
Wire Wire Line
	4000 2900 4000 2700
Wire Wire Line
	4000 2700 4350 2700
$Comp
L IRF540N Q19
U 1 1 57CF813F
P 4550 3650
AR Path="/57C3D9FF/57CF7F2E/57CF813F" Ref="Q19"  Part="1" 
AR Path="/57C3D9FF/57CFE7C0/57CF813F" Ref="Q22"  Part="1" 
F 0 "Q22" H 4800 3725 50  0000 L CNN
F 1 "IRF540N" H 4800 3650 50  0000 L CNN
F 2 "TO_SOT_Packages_THT:TO-220_Neutral123_Vertical_LargePads" H 4800 3575 50  0000 L CIN
F 3 "" H 4550 3650 50  0000 L CNN
	1    4550 3650
	1    0    0    -1  
$EndComp
Wire Wire Line
	4100 2900 4100 2800
Wire Wire Line
	3800 2800 4650 2800
Wire Wire Line
	3800 2800 3800 2900
Connection ~ 4100 2800
Wire Wire Line
	4650 2800 4650 3450
Text HLabel 4350 2700 2    60   Output ~ 0
BUCK_V
Text HLabel 3100 2900 0    60   Input ~ 0
IN_V
Wire Wire Line
	3300 3700 4350 3700
$Comp
L Q_PNP_CBE Q18
U 1 1 57CF846B
P 3200 3300
AR Path="/57C3D9FF/57CF7F2E/57CF846B" Ref="Q18"  Part="1" 
AR Path="/57C3D9FF/57CFE7C0/57CF846B" Ref="Q21"  Part="1" 
F 0 "Q21" H 3500 3350 50  0000 R CNN
F 1 "Q_PNP_CBE" H 3800 3250 50  0000 R CNN
F 2 "TO_SOT_Packages_THT:TO-92_Inline_Narrow_Oval" H 3400 3400 50  0000 C CNN
F 3 "" H 3200 3300 50  0000 C CNN
	1    3200 3300
	1    0    0    1   
$EndComp
$Comp
L Q_NPN_EBC Q17
U 1 1 57CF8518
P 2400 4100
AR Path="/57C3D9FF/57CF7F2E/57CF8518" Ref="Q17"  Part="1" 
AR Path="/57C3D9FF/57CFE7C0/57CF8518" Ref="Q20"  Part="1" 
F 0 "Q20" H 2700 4150 50  0000 R CNN
F 1 "Q_NPN_EBC" H 3000 4050 50  0000 R CNN
F 2 "TO_SOT_Packages_THT:TO-92_Inline_Narrow_Oval" H 2600 4200 50  0000 C CNN
F 3 "" H 2400 4100 50  0000 C CNN
	1    2400 4100
	1    0    0    -1  
$EndComp
$Comp
L R R19
U 1 1 57CF855F
P 2500 3150
AR Path="/57C3D9FF/57CF7F2E/57CF855F" Ref="R19"  Part="1" 
AR Path="/57C3D9FF/57CFE7C0/57CF855F" Ref="R23"  Part="1" 
F 0 "R23" V 2580 3150 50  0000 C CNN
F 1 "R" V 2500 3150 50  0000 C CNN
F 2 "Resistors_SMD:R_0805_HandSoldering" V 2430 3150 50  0000 C CNN
F 3 "" H 2500 3150 50  0000 C CNN
	1    2500 3150
	-1   0    0    1   
$EndComp
$Comp
L R R21
U 1 1 57CF862C
P 3300 4050
AR Path="/57C3D9FF/57CF7F2E/57CF862C" Ref="R21"  Part="1" 
AR Path="/57C3D9FF/57CFE7C0/57CF862C" Ref="R25"  Part="1" 
F 0 "R25" V 3380 4050 50  0000 C CNN
F 1 "R" V 3300 4050 50  0000 C CNN
F 2 "Resistors_SMD:R_0805_HandSoldering" V 3230 4050 50  0000 C CNN
F 3 "" H 3300 4050 50  0000 C CNN
	1    3300 4050
	1    0    0    -1  
$EndComp
$Comp
L R R20
U 1 1 57CF86B1
P 2500 3600
AR Path="/57C3D9FF/57CF7F2E/57CF86B1" Ref="R20"  Part="1" 
AR Path="/57C3D9FF/57CFE7C0/57CF86B1" Ref="R24"  Part="1" 
F 0 "R24" V 2580 3600 50  0000 C CNN
F 1 "R" V 2500 3600 50  0000 C CNN
F 2 "Resistors_SMD:R_0805_HandSoldering" V 2430 3600 50  0000 C CNN
F 3 "" H 2500 3600 50  0000 C CNN
	1    2500 3600
	1    0    0    -1  
$EndComp
Wire Wire Line
	3300 2900 3300 3100
Connection ~ 3300 2900
Wire Wire Line
	3300 3000 2500 3000
Connection ~ 3300 3000
Wire Wire Line
	2500 3300 3000 3300
Wire Wire Line
	2500 3300 2500 3450
Wire Wire Line
	2500 3750 2500 3900
Wire Wire Line
	3300 3500 3300 3900
Connection ~ 3300 3700
Wire Wire Line
	3300 4200 3300 4300
Wire Wire Line
	2500 4300 5400 4300
Wire Wire Line
	4650 4300 4650 3850
Connection ~ 3300 4300
$Comp
L R R18
U 1 1 57CF8911
P 1800 4100
AR Path="/57C3D9FF/57CF7F2E/57CF8911" Ref="R18"  Part="1" 
AR Path="/57C3D9FF/57CFE7C0/57CF8911" Ref="R22"  Part="1" 
F 0 "R22" V 1880 4100 50  0000 C CNN
F 1 "R" V 1800 4100 50  0000 C CNN
F 2 "Resistors_SMD:R_0805_HandSoldering" V 1730 4100 50  0000 C CNN
F 3 "" H 1800 4100 50  0000 C CNN
	1    1800 4100
	0    1    1    0   
$EndComp
Wire Wire Line
	2200 4100 1950 4100
Wire Wire Line
	1650 4100 1400 4100
Connection ~ 4650 4300
Text HLabel 5400 4300 2    60   Input ~ 0
HGND
Text HLabel 1400 4100 0    60   Input ~ 0
SIGNAL
$EndSCHEMATC
