EESchema Schematic File Version 2
LIBS:rur
LIBS:power
LIBS:device
LIBS:transistors
LIBS:conn
LIBS:linear
LIBS:regul
LIBS:74xx
LIBS:cmos4000
LIBS:adc-dac
LIBS:memory
LIBS:xilinx
LIBS:microcontrollers
LIBS:dsp
LIBS:microchip
LIBS:analog_switches
LIBS:motorola
LIBS:texas
LIBS:intel
LIBS:audio
LIBS:interface
LIBS:digital-audio
LIBS:philips
LIBS:display
LIBS:cypress
LIBS:siliconi
LIBS:opto
LIBS:atmel
LIBS:contrib
LIBS:valves
LIBS:smiley-component
LIBS:lamp_v2-cache
EELAYER 25 0
EELAYER END
$Descr A4 11693 8268
encoding utf-8
Sheet 11 19
Title ""
Date ""
Rev ""
Comp ""
Comment1 ""
Comment2 ""
Comment3 ""
Comment4 ""
$EndDescr
$Comp
L R R2
U 1 1 57CC3865
P 2550 2700
AR Path="/57C3D9FF/57CB8A0D/57CC3865" Ref="R2"  Part="1" 
AR Path="/57C3D9FF/57CC8003/57CC3865" Ref="R10"  Part="1" 
AR Path="/57C3D9FF/57CC72B0/57CC3865" Ref="R4"  Part="1" 
AR Path="/57C3D9FF/57CC76DC/57CC3865" Ref="R6"  Part="1" 
AR Path="/57C3D9FF/57CC7AFF/57CC3865" Ref="R8"  Part="1" 
AR Path="/57C3D9FF/57CC83DE/57CC3865" Ref="R12"  Part="1" 
AR Path="/57C3D9FF/57CC9D2E/57CC3865" Ref="R14"  Part="1" 
AR Path="/57C3D9FF/57CCA08B/57CC3865" Ref="R16"  Part="1" 
F 0 "R16" V 2630 2700 50  0000 C CNN
F 1 "R" V 2550 2700 50  0000 C CNN
F 2 "Resistors_SMD:R_0805_HandSoldering" V 2480 2700 50  0000 C CNN
F 3 "" H 2550 2700 50  0000 C CNN
	1    2550 2700
	1    0    0    -1  
$EndComp
$Comp
L Q_NPN_EBC Q1
U 1 1 57CC38B2
P 3250 3050
AR Path="/57C3D9FF/57CB8A0D/57CC38B2" Ref="Q1"  Part="1" 
AR Path="/57C3D9FF/57CC8003/57CC38B2" Ref="Q9"  Part="1" 
AR Path="/57C3D9FF/57CC72B0/57CC38B2" Ref="Q3"  Part="1" 
AR Path="/57C3D9FF/57CC76DC/57CC38B2" Ref="Q5"  Part="1" 
AR Path="/57C3D9FF/57CC7AFF/57CC38B2" Ref="Q7"  Part="1" 
AR Path="/57C3D9FF/57CC83DE/57CC38B2" Ref="Q11"  Part="1" 
AR Path="/57C3D9FF/57CC9D2E/57CC38B2" Ref="Q13"  Part="1" 
AR Path="/57C3D9FF/57CCA08B/57CC38B2" Ref="Q15"  Part="1" 
F 0 "Q15" H 3550 3100 50  0000 R CNN
F 1 "Q_NPN_EBC" H 3850 3000 50  0000 R CNN
F 2 "TO_SOT_Packages_THT:TO-92_Inline_Narrow_Oval" H 3450 3150 50  0000 C CNN
F 3 "" H 3250 3050 50  0000 C CNN
	1    3250 3050
	-1   0    0    -1  
$EndComp
$Comp
L IRF540N Q2
U 1 1 57CC3949
P 3750 2800
AR Path="/57C3D9FF/57CB8A0D/57CC3949" Ref="Q2"  Part="1" 
AR Path="/57C3D9FF/57CC8003/57CC3949" Ref="Q10"  Part="1" 
AR Path="/57C3D9FF/57CC72B0/57CC3949" Ref="Q4"  Part="1" 
AR Path="/57C3D9FF/57CC76DC/57CC3949" Ref="Q6"  Part="1" 
AR Path="/57C3D9FF/57CC7AFF/57CC3949" Ref="Q8"  Part="1" 
AR Path="/57C3D9FF/57CC83DE/57CC3949" Ref="Q12"  Part="1" 
AR Path="/57C3D9FF/57CC9D2E/57CC3949" Ref="Q14"  Part="1" 
AR Path="/57C3D9FF/57CCA08B/57CC3949" Ref="Q16"  Part="1" 
F 0 "Q16" H 4000 2875 50  0000 L CNN
F 1 "IRF540N" H 4000 2800 50  0000 L CNN
F 2 "TO_SOT_Packages_THT:TO-220_Neutral123_Vertical_LargePads" H 4000 2725 50  0000 L CIN
F 3 "" H 3750 2800 50  0000 L CNN
	1    3750 2800
	1    0    0    -1  
$EndComp
$Comp
L R R3
U 1 1 57CC39E6
P 3850 3500
AR Path="/57C3D9FF/57CB8A0D/57CC39E6" Ref="R3"  Part="1" 
AR Path="/57C3D9FF/57CC8003/57CC39E6" Ref="R11"  Part="1" 
AR Path="/57C3D9FF/57CC72B0/57CC39E6" Ref="R5"  Part="1" 
AR Path="/57C3D9FF/57CC76DC/57CC39E6" Ref="R7"  Part="1" 
AR Path="/57C3D9FF/57CC7AFF/57CC39E6" Ref="R9"  Part="1" 
AR Path="/57C3D9FF/57CC83DE/57CC39E6" Ref="R13"  Part="1" 
AR Path="/57C3D9FF/57CC9D2E/57CC39E6" Ref="R15"  Part="1" 
AR Path="/57C3D9FF/57CCA08B/57CC39E6" Ref="R17"  Part="1" 
F 0 "R17" V 3930 3500 50  0000 C CNN
F 1 "R" V 3850 3500 50  0000 C CNN
F 2 "Resistors_ThroughHole:Resistor_Vertical_RM5mm" V 3780 3500 50  0000 C CNN
F 3 "" H 3850 3500 50  0000 C CNN
	1    3850 3500
	1    0    0    -1  
$EndComp
Wire Wire Line
	2550 2550 2550 2200
Wire Wire Line
	2550 2850 3550 2850
Connection ~ 3150 2850
Wire Wire Line
	3850 3000 3850 3350
Wire Wire Line
	3450 3050 3850 3050
Connection ~ 3850 3050
Wire Wire Line
	2550 3650 3850 3650
Wire Wire Line
	3150 3650 3150 3250
Connection ~ 3150 3650
Wire Wire Line
	2550 2200 2200 2200
Text HLabel 2550 3650 0    60   Input ~ 0
HGND
Text HLabel 3500 2200 0    60   Input ~ 0
HVCC
Text HLabel 2200 2200 0    60   Input ~ 0
SIGNAL
$Comp
L CONN_01X01 P12
U 1 1 57CC3B19
P 4050 2450
AR Path="/57C3D9FF/57CB8A0D/57CC3B19" Ref="P12"  Part="1" 
AR Path="/57C3D9FF/57CC8003/57CC3B19" Ref="P20"  Part="1" 
AR Path="/57C3D9FF/57CC72B0/57CC3B19" Ref="P14"  Part="1" 
AR Path="/57C3D9FF/57CC76DC/57CC3B19" Ref="P16"  Part="1" 
AR Path="/57C3D9FF/57CC7AFF/57CC3B19" Ref="P18"  Part="1" 
AR Path="/57C3D9FF/57CC83DE/57CC3B19" Ref="P22"  Part="1" 
AR Path="/57C3D9FF/57CC9D2E/57CC3B19" Ref="P24"  Part="1" 
AR Path="/57C3D9FF/57CCA08B/57CC3B19" Ref="P26"  Part="1" 
F 0 "P26" H 4050 2550 50  0000 C CNN
F 1 "CONN_01X01" V 4150 2450 50  0000 C CNN
F 2 "Pin_Headers:Pin_Header_Straight_1x01" H 4050 2450 50  0000 C CNN
F 3 "" H 4050 2450 50  0000 C CNN
	1    4050 2450
	1    0    0    -1  
$EndComp
$Comp
L CONN_01X01 P11
U 1 1 57CC3B40
P 4050 2200
AR Path="/57C3D9FF/57CB8A0D/57CC3B40" Ref="P11"  Part="1" 
AR Path="/57C3D9FF/57CC8003/57CC3B40" Ref="P19"  Part="1" 
AR Path="/57C3D9FF/57CC72B0/57CC3B40" Ref="P13"  Part="1" 
AR Path="/57C3D9FF/57CC76DC/57CC3B40" Ref="P15"  Part="1" 
AR Path="/57C3D9FF/57CC7AFF/57CC3B40" Ref="P17"  Part="1" 
AR Path="/57C3D9FF/57CC83DE/57CC3B40" Ref="P21"  Part="1" 
AR Path="/57C3D9FF/57CC9D2E/57CC3B40" Ref="P23"  Part="1" 
AR Path="/57C3D9FF/57CCA08B/57CC3B40" Ref="P25"  Part="1" 
F 0 "P25" H 4050 2300 50  0000 C CNN
F 1 "CONN_01X01" V 4150 2200 50  0000 C CNN
F 2 "Pin_Headers:Pin_Header_Straight_1x01" H 4050 2200 50  0000 C CNN
F 3 "" H 4050 2200 50  0000 C CNN
	1    4050 2200
	1    0    0    -1  
$EndComp
Wire Wire Line
	3500 2200 3850 2200
Wire Wire Line
	3850 2450 3850 2600
$EndSCHEMATC
