EESchema Schematic File Version 2
LIBS:rur
LIBS:power
LIBS:device
LIBS:transistors
LIBS:conn
LIBS:linear
LIBS:regul
LIBS:74xx
LIBS:cmos4000
LIBS:adc-dac
LIBS:memory
LIBS:xilinx
LIBS:microcontrollers
LIBS:dsp
LIBS:microchip
LIBS:analog_switches
LIBS:motorola
LIBS:texas
LIBS:intel
LIBS:audio
LIBS:interface
LIBS:digital-audio
LIBS:philips
LIBS:display
LIBS:cypress
LIBS:siliconi
LIBS:opto
LIBS:atmel
LIBS:contrib
LIBS:valves
LIBS:smiley-component
LIBS:lamp_v2-cache
EELAYER 25 0
EELAYER END
$Descr A4 11693 8268
encoding utf-8
Sheet 2 19
Title ""
Date ""
Rev ""
Comp ""
Comment1 ""
Comment2 ""
Comment3 ""
Comment4 ""
$EndDescr
NoConn ~ 5200 4350
NoConn ~ 5200 4250
NoConn ~ 5200 4150
NoConn ~ 5200 4050
Wire Wire Line
	6150 2850 6850 2850
Wire Wire Line
	6400 3950 6850 3950
Wire Wire Line
	6150 3850 6850 3850
Wire Wire Line
	6400 3750 6850 3750
Wire Wire Line
	6150 3650 6850 3650
Wire Wire Line
	6400 3550 6850 3550
Wire Wire Line
	6150 3450 6850 3450
Wire Wire Line
	6400 3350 6850 3350
Wire Wire Line
	6150 3250 6850 3250
Wire Wire Line
	6400 3150 6850 3150
Wire Wire Line
	6150 3050 6850 3050
Wire Wire Line
	6400 2950 6850 2950
Wire Wire Line
	5200 3950 6100 3950
Wire Wire Line
	5200 3850 5850 3850
Wire Wire Line
	5200 3750 6100 3750
Wire Wire Line
	5200 3650 5850 3650
Wire Wire Line
	5200 3550 6100 3550
Wire Wire Line
	5200 3450 5850 3450
Wire Wire Line
	5200 3350 6100 3350
Wire Wire Line
	5200 3250 5850 3250
Wire Wire Line
	5200 3150 6100 3150
Wire Wire Line
	5200 3050 5850 3050
Wire Wire Line
	5200 2950 6100 2950
Wire Wire Line
	5200 2850 5850 2850
Wire Wire Line
	4200 3100 3550 3100
Wire Wire Line
	4200 3000 3550 3000
Wire Wire Line
	4200 2900 3550 2900
$Comp
L R RS8
U 1 1 57CBF149
P 6250 3950
F 0 "RS8" V 6330 3950 50  0000 C CNN
F 1 "R" V 6250 3950 50  0000 C CNN
F 2 "Resistors_SMD:R_0805_HandSoldering" V 6180 3950 50  0000 C CNN
F 3 "" H 6250 3950 50  0000 C CNN
	1    6250 3950
	0    1    1    0   
$EndComp
$Comp
L R RS3
U 1 1 57CBF150
P 6000 3850
F 0 "RS3" V 6080 3850 50  0000 C CNN
F 1 "R" V 6000 3850 50  0000 C CNN
F 2 "Resistors_SMD:R_0805_HandSoldering" V 5930 3850 50  0000 C CNN
F 3 "" H 6000 3850 50  0000 C CNN
	1    6000 3850
	0    1    1    0   
$EndComp
$Comp
L R RS7
U 1 1 57CBF157
P 6250 3750
F 0 "RS7" V 6330 3750 50  0000 C CNN
F 1 "R" V 6250 3750 50  0000 C CNN
F 2 "Resistors_SMD:R_0805_HandSoldering" V 6180 3750 50  0000 C CNN
F 3 "" H 6250 3750 50  0000 C CNN
	1    6250 3750
	0    1    1    0   
$EndComp
$Comp
L R RS2
U 1 1 57CBF15E
P 6000 3650
F 0 "RS2" V 6080 3650 50  0000 C CNN
F 1 "R" V 6000 3650 50  0000 C CNN
F 2 "Resistors_SMD:R_0805_HandSoldering" V 5930 3650 50  0000 C CNN
F 3 "" H 6000 3650 50  0000 C CNN
	1    6000 3650
	0    1    1    0   
$EndComp
$Comp
L R RS6
U 1 1 57CBF165
P 6250 3550
F 0 "RS6" V 6330 3550 50  0000 C CNN
F 1 "R" V 6250 3550 50  0000 C CNN
F 2 "Resistors_SMD:R_0805_HandSoldering" V 6180 3550 50  0000 C CNN
F 3 "" H 6250 3550 50  0000 C CNN
	1    6250 3550
	0    1    1    0   
$EndComp
$Comp
L R RD3
U 1 1 57CBF16C
P 6000 3450
F 0 "RD3" V 6080 3450 50  0000 C CNN
F 1 "R" V 6000 3450 50  0000 C CNN
F 2 "Resistors_SMD:R_0805_HandSoldering" V 5930 3450 50  0000 C CNN
F 3 "" H 6000 3450 50  0000 C CNN
	1    6000 3450
	0    1    1    0   
$EndComp
$Comp
L R RS5
U 1 1 57CBF173
P 6250 3350
F 0 "RS5" V 6330 3350 50  0000 C CNN
F 1 "R" V 6250 3350 50  0000 C CNN
F 2 "Resistors_SMD:R_0805_HandSoldering" V 6180 3350 50  0000 C CNN
F 3 "" H 6250 3350 50  0000 C CNN
	1    6250 3350
	0    1    1    0   
$EndComp
$Comp
L R RD2
U 1 1 57CBF17A
P 6000 3250
F 0 "RD2" V 6080 3250 50  0000 C CNN
F 1 "R" V 6000 3250 50  0000 C CNN
F 2 "Resistors_SMD:R_0805_HandSoldering" V 5930 3250 50  0000 C CNN
F 3 "" H 6000 3250 50  0000 C CNN
	1    6000 3250
	0    1    1    0   
$EndComp
$Comp
L R RD4
U 1 1 57CBF181
P 6250 3150
F 0 "RD4" V 6330 3150 50  0000 C CNN
F 1 "R" V 6250 3150 50  0000 C CNN
F 2 "Resistors_SMD:R_0805_HandSoldering" V 6180 3150 50  0000 C CNN
F 3 "" H 6250 3150 50  0000 C CNN
	1    6250 3150
	0    1    1    0   
$EndComp
$Comp
L R RS1
U 1 1 57CBF188
P 6000 3050
F 0 "RS1" V 6080 3050 50  0000 C CNN
F 1 "R" V 6000 3050 50  0000 C CNN
F 2 "Resistors_SMD:R_0805_HandSoldering" V 5930 3050 50  0000 C CNN
F 3 "" H 6000 3050 50  0000 C CNN
	1    6000 3050
	0    1    1    0   
$EndComp
$Comp
L R RS4
U 1 1 57CBF18F
P 6250 2950
F 0 "RS4" V 6330 2950 50  0000 C CNN
F 1 "R" V 6250 2950 50  0000 C CNN
F 2 "Resistors_SMD:R_0805_HandSoldering" V 6180 2950 50  0000 C CNN
F 3 "" H 6250 2950 50  0000 C CNN
	1    6250 2950
	0    1    1    0   
$EndComp
$Comp
L R RD1
U 1 1 57CBF196
P 6000 2850
F 0 "RD1" V 6080 2850 50  0000 C CNN
F 1 "R" V 6000 2850 50  0000 C CNN
F 2 "Resistors_SMD:R_0805_HandSoldering" V 5930 2850 50  0000 C CNN
F 3 "" H 6000 2850 50  0000 C CNN
	1    6000 2850
	0    1    1    0   
$EndComp
$Comp
L Display_7Seg_Cathode_YY2841AH-33 U1
U 1 1 57CBF19D
P 7150 3550
F 0 "U1" H 6325 3550 60  0000 C CNN
F 1 "Display_7Seg_Cathode_YY2841AH-33" H 7000 3700 60  0000 C CNN
F 2 "smiley-library:7Segment_12pin_1cm_high" H 7125 3550 60  0001 C CNN
F 3 "" H 7125 3550 60  0001 C CNN
	1    7150 3550
	0    1    1    0   
$EndComp
$Sheet
S 4200 2600 1000 2100
U 57CBF1B7
F0 "sheet57CBF124" 60
F1 "DoubleShift.sch" 60
F2 "SER_IN" I L 4200 2900 60 
F3 "LATCH" I L 4200 3000 60 
F4 "CLOCK" I L 4200 3100 60 
F5 "AA" O R 5200 2850 60 
F6 "AB" O R 5200 2950 60 
F7 "AC" O R 5200 3050 60 
F8 "AD" O R 5200 3150 60 
F9 "AE" O R 5200 3250 60 
F10 "AF" O R 5200 3350 60 
F11 "AG" O R 5200 3450 60 
F12 "AH" O R 5200 3550 60 
F13 "BA" O R 5200 3650 60 
F14 "BB" O R 5200 3750 60 
F15 "BC" O R 5200 3850 60 
F16 "BD" O R 5200 3950 60 
F17 "BE" O R 5200 4050 60 
F18 "BF" O R 5200 4150 60 
F19 "BG" O R 5200 4250 60 
F20 "BH" O R 5200 4350 60 
F21 "SER_OUT" O R 5200 4450 60 
$EndSheet
Wire Wire Line
	5200 4450 6250 4450
Text HLabel 6250 4450 2    60   Output ~ 0
SER_OUT
Text HLabel 3550 2900 0    60   Input ~ 0
SER_IN
Text HLabel 3550 3000 0    60   Input ~ 0
LATCH
Text HLabel 3550 3100 0    60   Input ~ 0
CLOCK
$EndSCHEMATC
