EESchema Schematic File Version 2
LIBS:rur
LIBS:power
LIBS:device
LIBS:transistors
LIBS:conn
LIBS:linear
LIBS:regul
LIBS:74xx
LIBS:cmos4000
LIBS:adc-dac
LIBS:memory
LIBS:xilinx
LIBS:microcontrollers
LIBS:dsp
LIBS:microchip
LIBS:analog_switches
LIBS:motorola
LIBS:texas
LIBS:intel
LIBS:audio
LIBS:interface
LIBS:digital-audio
LIBS:philips
LIBS:display
LIBS:cypress
LIBS:siliconi
LIBS:opto
LIBS:atmel
LIBS:contrib
LIBS:valves
LIBS:smiley-component
LIBS:lamp_v2-cache
EELAYER 25 0
EELAYER END
$Descr A4 11693 8268
encoding utf-8
Sheet 19 19
Title ""
Date ""
Rev ""
Comp ""
Comment1 ""
Comment2 ""
Comment3 ""
Comment4 ""
$EndDescr
Wire Wire Line
	4450 2250 3850 2250
Wire Wire Line
	4750 2250 4750 2050
Wire Wire Line
	4750 2050 5100 2050
$Comp
L IRF540N Q25
U 1 1 57D097E4
P 5300 3000
F 0 "Q25" H 5550 3075 50  0000 L CNN
F 1 "IRF540N" H 5550 3000 50  0000 L CNN
F 2 "TO_SOT_Packages_THT:TO-220_Neutral123_Vertical_LargePads" H 5550 2925 50  0000 L CIN
F 3 "" H 5300 3000 50  0000 L CNN
	1    5300 3000
	1    0    0    -1  
$EndComp
Wire Wire Line
	4850 2250 4850 2150
Wire Wire Line
	4550 2150 5400 2150
Wire Wire Line
	4550 2150 4550 2250
Connection ~ 4850 2150
Wire Wire Line
	5400 2150 5400 2800
Text HLabel 5100 2050 2    60   Output ~ 0
V_OUT
Text HLabel 3850 2250 0    60   Input ~ 0
V_IN
Wire Wire Line
	4050 3050 5100 3050
$Comp
L Q_PNP_CBE Q24
U 1 1 57D097F3
P 3950 2650
F 0 "Q24" H 4250 2700 50  0000 R CNN
F 1 "Q_PNP_CBE" H 4550 2600 50  0000 R CNN
F 2 "TO_SOT_Packages_THT:TO-92_Inline_Narrow_Oval" H 4150 2750 50  0000 C CNN
F 3 "" H 3950 2650 50  0000 C CNN
	1    3950 2650
	1    0    0    1   
$EndComp
$Comp
L Q_NPN_EBC Q23
U 1 1 57D097FA
P 3150 3450
F 0 "Q23" H 3450 3500 50  0000 R CNN
F 1 "Q_NPN_EBC" H 3750 3400 50  0000 R CNN
F 2 "TO_SOT_Packages_THT:TO-92_Inline_Narrow_Oval" H 3350 3550 50  0000 C CNN
F 3 "" H 3150 3450 50  0000 C CNN
	1    3150 3450
	1    0    0    -1  
$EndComp
$Comp
L R R27
U 1 1 57D09801
P 3250 2500
F 0 "R27" V 3330 2500 50  0000 C CNN
F 1 "R" V 3250 2500 50  0000 C CNN
F 2 "Resistors_SMD:R_0805_HandSoldering" V 3180 2500 50  0000 C CNN
F 3 "" H 3250 2500 50  0000 C CNN
	1    3250 2500
	-1   0    0    1   
$EndComp
$Comp
L R R29
U 1 1 57D09808
P 4050 3400
F 0 "R29" V 4130 3400 50  0000 C CNN
F 1 "R" V 4050 3400 50  0000 C CNN
F 2 "Resistors_SMD:R_0805_HandSoldering" V 3980 3400 50  0000 C CNN
F 3 "" H 4050 3400 50  0000 C CNN
	1    4050 3400
	1    0    0    -1  
$EndComp
$Comp
L R R28
U 1 1 57D0980F
P 3250 2950
F 0 "R28" V 3330 2950 50  0000 C CNN
F 1 "R" V 3250 2950 50  0000 C CNN
F 2 "Resistors_SMD:R_0805_HandSoldering" V 3180 2950 50  0000 C CNN
F 3 "" H 3250 2950 50  0000 C CNN
	1    3250 2950
	1    0    0    -1  
$EndComp
Wire Wire Line
	4050 2250 4050 2450
Connection ~ 4050 2250
Wire Wire Line
	4050 2350 3250 2350
Connection ~ 4050 2350
Wire Wire Line
	3250 2650 3750 2650
Wire Wire Line
	3250 2650 3250 2800
Wire Wire Line
	3250 3100 3250 3250
Wire Wire Line
	4050 2850 4050 3250
Connection ~ 4050 3050
Wire Wire Line
	4050 3550 4050 3650
Wire Wire Line
	3250 3650 6150 3650
Wire Wire Line
	5400 3650 5400 3200
Connection ~ 4050 3650
$Comp
L R R26
U 1 1 57D09823
P 2550 3450
F 0 "R26" V 2630 3450 50  0000 C CNN
F 1 "R" V 2550 3450 50  0000 C CNN
F 2 "Resistors_SMD:R_0805_HandSoldering" V 2480 3450 50  0000 C CNN
F 3 "" H 2550 3450 50  0000 C CNN
	1    2550 3450
	0    1    1    0   
$EndComp
Wire Wire Line
	2950 3450 2700 3450
Wire Wire Line
	2400 3450 2150 3450
Connection ~ 5400 3650
Text HLabel 6150 3650 2    60   Input ~ 0
HGND
Text HLabel 2150 3450 0    60   Input ~ 0
SIGNAL
$Comp
L CONN_01X01 P27
U 1 1 57D098ED
P 4450 2450
F 0 "P27" H 4450 2550 50  0000 C CNN
F 1 "CONN_01X01" V 4550 2450 50  0000 C CNN
F 2 "Pin_Headers:Pin_Header_Straight_1x01" H 4450 2450 50  0000 C CNN
F 3 "" H 4450 2450 50  0000 C CNN
	1    4450 2450
	0    1    1    0   
$EndComp
$Comp
L CONN_01X01 P28
U 1 1 57D09937
P 4600 2450
F 0 "P28" H 4600 2550 50  0000 C CNN
F 1 "CONN_01X01" V 4700 2450 50  0000 C CNN
F 2 "Pin_Headers:Pin_Header_Straight_1x01" H 4600 2450 50  0000 C CNN
F 3 "" H 4600 2450 50  0000 C CNN
	1    4600 2450
	0    1    1    0   
$EndComp
$Comp
L CONN_01X01 P29
U 1 1 57D0998A
P 4750 2450
F 0 "P29" H 4750 2550 50  0000 C CNN
F 1 "CONN_01X01" V 4850 2450 50  0000 C CNN
F 2 "Pin_Headers:Pin_Header_Straight_1x01" H 4750 2450 50  0000 C CNN
F 3 "" H 4750 2450 50  0000 C CNN
	1    4750 2450
	0    1    1    0   
$EndComp
$Comp
L CONN_01X01 P30
U 1 1 57D099D8
P 4900 2450
F 0 "P30" H 4900 2550 50  0000 C CNN
F 1 "CONN_01X01" V 5000 2450 50  0000 C CNN
F 2 "Pin_Headers:Pin_Header_Straight_1x01" H 4900 2450 50  0000 C CNN
F 3 "" H 4900 2450 50  0000 C CNN
	1    4900 2450
	0    1    1    0   
$EndComp
Wire Wire Line
	4550 2250 4600 2250
Wire Wire Line
	4850 2250 4900 2250
$EndSCHEMATC
