(export (version D)
  (design
    (source /home/smiley/ast/source/avr/lamp/eda/lamp_v3/lamp_v2.sch)
    (date "Sun 02 Oct 2016 21:47:12 AEDT")
    (tool "Eeschema 4.0.4-stable")
    (sheet (number 1) (name /) (tstamps /)
      (title_block
        (title)
        (company)
        (rev)
        (date)
        (source lamp_v2.sch)
        (comment (number 1) (value ""))
        (comment (number 2) (value ""))
        (comment (number 3) (value ""))
        (comment (number 4) (value ""))))
    (sheet (number 2) (name /Display/) (tstamps /57CBD35E/)
      (title_block
        (title)
        (company)
        (rev)
        (date)
        (source Display.sch)
        (comment (number 1) (value ""))
        (comment (number 2) (value ""))
        (comment (number 3) (value ""))
        (comment (number 4) (value ""))))
    (sheet (number 3) (name /Display/sheet57CBF124/) (tstamps /57CBD35E/57CBF1B7/)
      (title_block
        (title)
        (company)
        (rev)
        (date)
        (source DoubleShift.sch)
        (comment (number 1) (value ""))
        (comment (number 2) (value ""))
        (comment (number 3) (value ""))
        (comment (number 4) (value ""))))
    (sheet (number 4) (name /McuBoard/) (tstamps /57C3DA02/)
      (title_block
        (title)
        (company)
        (rev)
        (date)
        (source McuBoard.sch)
        (comment (number 1) (value ""))
        (comment (number 2) (value ""))
        (comment (number 3) (value ""))
        (comment (number 4) (value ""))))
    (sheet (number 5) (name /SwitchBoard/) (tstamps /57C3DA1C/)
      (title_block
        (title)
        (company)
        (rev)
        (date)
        (source SwitchBoard.sch)
        (comment (number 1) (value ""))
        (comment (number 2) (value ""))
        (comment (number 3) (value ""))
        (comment (number 4) (value ""))))
    (sheet (number 6) (name /SwitchBoard/sheet57C83F44/) (tstamps /57C3DA1C/57C83F5A/)
      (title_block
        (title)
        (company)
        (rev)
        (date)
        (source DoubleShift.sch)
        (comment (number 1) (value ""))
        (comment (number 2) (value ""))
        (comment (number 3) (value ""))
        (comment (number 4) (value ""))))
    (sheet (number 7) (name /LedBoard/) (tstamps /57C3D9FF/)
      (title_block
        (title)
        (company)
        (rev)
        (date)
        (source LedBoard.sch)
        (comment (number 1) (value ""))
        (comment (number 2) (value ""))
        (comment (number 3) (value ""))
        (comment (number 4) (value ""))))
    (sheet (number 8) (name /LedBoard/sheet57CB6EEA/) (tstamps /57C3D9FF/57CB6F00/)
      (title_block
        (title)
        (company)
        (rev)
        (date)
        (source DoubleShift.sch)
        (comment (number 1) (value ""))
        (comment (number 2) (value ""))
        (comment (number 3) (value ""))
        (comment (number 4) (value ""))))
    (sheet (number 9) (name /LedBoard/CC_Driver1/) (tstamps /57C3D9FF/57CB8A0D/)
      (title_block
        (title)
        (company)
        (rev)
        (date)
        (source CC_Driver.sch)
        (comment (number 1) (value ""))
        (comment (number 2) (value ""))
        (comment (number 3) (value ""))
        (comment (number 4) (value ""))))
    (sheet (number 10) (name /LedBoard/sheet57CC72AB/) (tstamps /57C3D9FF/57CC72B0/)
      (title_block
        (title)
        (company)
        (rev)
        (date)
        (source CC_Driver.sch)
        (comment (number 1) (value ""))
        (comment (number 2) (value ""))
        (comment (number 3) (value ""))
        (comment (number 4) (value ""))))
    (sheet (number 11) (name /LedBoard/sheet57CC76D7/) (tstamps /57C3D9FF/57CC76DC/)
      (title_block
        (title)
        (company)
        (rev)
        (date)
        (source CC_Driver.sch)
        (comment (number 1) (value ""))
        (comment (number 2) (value ""))
        (comment (number 3) (value ""))
        (comment (number 4) (value ""))))
    (sheet (number 12) (name /LedBoard/sheet57CC7AFA/) (tstamps /57C3D9FF/57CC7AFF/)
      (title_block
        (title)
        (company)
        (rev)
        (date)
        (source CC_Driver.sch)
        (comment (number 1) (value ""))
        (comment (number 2) (value ""))
        (comment (number 3) (value ""))
        (comment (number 4) (value ""))))
    (sheet (number 13) (name /LedBoard/sheet57CC7FFE/) (tstamps /57C3D9FF/57CC8003/)
      (title_block
        (title)
        (company)
        (rev)
        (date)
        (source CC_Driver.sch)
        (comment (number 1) (value ""))
        (comment (number 2) (value ""))
        (comment (number 3) (value ""))
        (comment (number 4) (value ""))))
    (sheet (number 14) (name /LedBoard/sheet57CC83D9/) (tstamps /57C3D9FF/57CC83DE/)
      (title_block
        (title)
        (company)
        (rev)
        (date)
        (source CC_Driver.sch)
        (comment (number 1) (value ""))
        (comment (number 2) (value ""))
        (comment (number 3) (value ""))
        (comment (number 4) (value ""))))
    (sheet (number 15) (name /LedBoard/sheet57CC9D29/) (tstamps /57C3D9FF/57CC9D2E/)
      (title_block
        (title)
        (company)
        (rev)
        (date)
        (source CC_Driver.sch)
        (comment (number 1) (value ""))
        (comment (number 2) (value ""))
        (comment (number 3) (value ""))
        (comment (number 4) (value ""))))
    (sheet (number 16) (name /LedBoard/sheet57CCA086/) (tstamps /57C3D9FF/57CCA08B/)
      (title_block
        (title)
        (company)
        (rev)
        (date)
        (source CC_Driver.sch)
        (comment (number 1) (value ""))
        (comment (number 2) (value ""))
        (comment (number 3) (value ""))
        (comment (number 4) (value ""))))
    (sheet (number 17) (name /LedBoard/BuckSwitch2/) (tstamps /57C3D9FF/57CF7F2E/)
      (title_block
        (title)
        (company)
        (rev)
        (date)
        (source BuckSwitch.sch)
        (comment (number 1) (value ""))
        (comment (number 2) (value ""))
        (comment (number 3) (value ""))
        (comment (number 4) (value ""))))
    (sheet (number 18) (name /LedBoard/BuckSwitch1/) (tstamps /57C3D9FF/57CFE7C0/)
      (title_block
        (title)
        (company)
        (rev)
        (date)
        (source BuckSwitch.sch)
        (comment (number 1) (value ""))
        (comment (number 2) (value ""))
        (comment (number 3) (value ""))
        (comment (number 4) (value ""))))
    (sheet (number 19) (name /LedBoard/HV_Switch/) (tstamps /57C3D9FF/57D09182/)
      (title_block
        (title)
        (company)
        (rev)
        (date)
        (source HV_Switch.sch)
        (comment (number 1) (value ""))
        (comment (number 2) (value ""))
        (comment (number 3) (value ""))
        (comment (number 4) (value "")))))
  (components
    (comp (ref RS8)
      (value R)
      (footprint Resistors_SMD:R_0805_HandSoldering)
      (libsource (lib device) (part R))
      (sheetpath (names /Display/) (tstamps /57CBD35E/))
      (tstamp 57CBF149))
    (comp (ref RS3)
      (value R)
      (footprint Resistors_SMD:R_0805_HandSoldering)
      (libsource (lib device) (part R))
      (sheetpath (names /Display/) (tstamps /57CBD35E/))
      (tstamp 57CBF150))
    (comp (ref RS7)
      (value R)
      (footprint Resistors_SMD:R_0805_HandSoldering)
      (libsource (lib device) (part R))
      (sheetpath (names /Display/) (tstamps /57CBD35E/))
      (tstamp 57CBF157))
    (comp (ref RS2)
      (value R)
      (footprint Resistors_SMD:R_0805_HandSoldering)
      (libsource (lib device) (part R))
      (sheetpath (names /Display/) (tstamps /57CBD35E/))
      (tstamp 57CBF15E))
    (comp (ref RS6)
      (value R)
      (footprint Resistors_SMD:R_0805_HandSoldering)
      (libsource (lib device) (part R))
      (sheetpath (names /Display/) (tstamps /57CBD35E/))
      (tstamp 57CBF165))
    (comp (ref RD3)
      (value R)
      (footprint Resistors_SMD:R_0805_HandSoldering)
      (libsource (lib device) (part R))
      (sheetpath (names /Display/) (tstamps /57CBD35E/))
      (tstamp 57CBF16C))
    (comp (ref RS5)
      (value R)
      (footprint Resistors_SMD:R_0805_HandSoldering)
      (libsource (lib device) (part R))
      (sheetpath (names /Display/) (tstamps /57CBD35E/))
      (tstamp 57CBF173))
    (comp (ref RD2)
      (value R)
      (footprint Resistors_SMD:R_0805_HandSoldering)
      (libsource (lib device) (part R))
      (sheetpath (names /Display/) (tstamps /57CBD35E/))
      (tstamp 57CBF17A))
    (comp (ref RD4)
      (value R)
      (footprint Resistors_SMD:R_0805_HandSoldering)
      (libsource (lib device) (part R))
      (sheetpath (names /Display/) (tstamps /57CBD35E/))
      (tstamp 57CBF181))
    (comp (ref RS1)
      (value R)
      (footprint Resistors_SMD:R_0805_HandSoldering)
      (libsource (lib device) (part R))
      (sheetpath (names /Display/) (tstamps /57CBD35E/))
      (tstamp 57CBF188))
    (comp (ref RS4)
      (value R)
      (footprint Resistors_SMD:R_0805_HandSoldering)
      (libsource (lib device) (part R))
      (sheetpath (names /Display/) (tstamps /57CBD35E/))
      (tstamp 57CBF18F))
    (comp (ref RD1)
      (value R)
      (footprint Resistors_SMD:R_0805_HandSoldering)
      (libsource (lib device) (part R))
      (sheetpath (names /Display/) (tstamps /57CBD35E/))
      (tstamp 57CBF196))
    (comp (ref U1)
      (value Display_7Seg_Cathode_YY2841AH-33)
      (footprint smiley-library:7Segment_12pin_1cm_high)
      (libsource (lib smiley-component) (part Display_7Seg_Cathode_YY2841AH-33))
      (sheetpath (names /Display/) (tstamps /57CBD35E/))
      (tstamp 57CBF19D))
    (comp (ref U2)
      (value 74HC595)
      (footprint Housings_SOIC:SOIC-16_3.9x9.9mm_Pitch1.27mm)
      (libsource (lib 74xx) (part 74HC595))
      (sheetpath (names /Display/sheet57CBF124/) (tstamps /57CBD35E/57CBF1B7/))
      (tstamp 57C43C1D))
    (comp (ref U3)
      (value 74HC595)
      (footprint Housings_SOIC:SOIC-16_3.9x9.9mm_Pitch1.27mm)
      (libsource (lib 74xx) (part 74HC595))
      (sheetpath (names /Display/sheet57CBF124/) (tstamps /57CBD35E/57CBF1B7/))
      (tstamp 57C43C24))
    (comp (ref IC1)
      (value ATMEGA8A-A)
      (footprint Housings_QFP:LQFP-32_7x7mm_Pitch0.8mm)
      (libsource (lib atmel) (part ATMEGA8A-A))
      (sheetpath (names /McuBoard/) (tstamps /57C3DA02/))
      (tstamp 57C3DB0B))
    (comp (ref R10K_1)
      (value R)
      (footprint Resistors_SMD:R_0805_HandSoldering)
      (libsource (lib device) (part R))
      (sheetpath (names /McuBoard/) (tstamps /57C3DA02/))
      (tstamp 57C3DDDD))
    (comp (ref Y1)
      (value Crystal_Small)
      (footprint Crystals:Q_49U3HMS)
      (libsource (lib device) (part Crystal_Small))
      (sheetpath (names /McuBoard/) (tstamps /57C3DA02/))
      (tstamp 57C3E096))
    (comp (ref C1)
      (value C_Small)
      (footprint Capacitors_SMD:C_0603_HandSoldering)
      (libsource (lib device) (part C_Small))
      (sheetpath (names /McuBoard/) (tstamps /57C3DA02/))
      (tstamp 57C3E249))
    (comp (ref C2)
      (value C_Small)
      (footprint Capacitors_SMD:C_0603_HandSoldering)
      (libsource (lib device) (part C_Small))
      (sheetpath (names /McuBoard/) (tstamps /57C3DA02/))
      (tstamp 57C3E280))
    (comp (ref P2)
      (value CONN_02X05)
      (footprint Pin_Headers:Pin_Header_Straight_2x05)
      (libsource (lib conn) (part CONN_02X05))
      (sheetpath (names /McuBoard/) (tstamps /57C3DA02/))
      (tstamp 57C63715))
    (comp (ref D1)
      (value D_Schottky_Small)
      (footprint Diodes_ThroughHole:Diode_DO-41_SOD81_Vertical_KathodeUp)
      (libsource (lib device) (part D_Schottky_Small))
      (sheetpath (names /McuBoard/) (tstamps /57C3DA02/))
      (tstamp 57C64620))
    (comp (ref R1)
      (value R)
      (footprint smiley-library:Resistor_Vertical_2.4)
      (libsource (lib device) (part R))
      (sheetpath (names /McuBoard/) (tstamps /57C3DA02/))
      (tstamp 57C647B7))
    (comp (ref D5.1)
      (value ZENER)
      (footprint Diodes_ThroughHole:Diode_DO-41_SOD81_Vertical_KathodeUp)
      (libsource (lib device) (part ZENER))
      (sheetpath (names /McuBoard/) (tstamps /57C3DA02/))
      (tstamp 57C64EA2))
    (comp (ref D2)
      (value D_Schottky_Small)
      (footprint Diodes_ThroughHole:Diode_DO-41_SOD81_Vertical_KathodeUp)
      (libsource (lib device) (part D_Schottky_Small))
      (sheetpath (names /McuBoard/) (tstamps /57C3DA02/))
      (tstamp 57CB0DC3))
    (comp (ref P3)
      (value CONN_01X02)
      (footprint Pin_Headers:Pin_Header_Straight_1x02)
      (libsource (lib conn) (part CONN_01X02))
      (sheetpath (names /McuBoard/) (tstamps /57C3DA02/))
      (tstamp 57CB0F14))
    (comp (ref C3)
      (value C_Small)
      (footprint Capacitors_SMD:C_1206_HandSoldering)
      (libsource (lib device) (part C_Small))
      (sheetpath (names /McuBoard/) (tstamps /57C3DA02/))
      (tstamp 57C93341))
    (comp (ref C4)
      (value C_Small)
      (footprint Capacitors_SMD:C_1206_HandSoldering)
      (libsource (lib device) (part C_Small))
      (sheetpath (names /McuBoard/) (tstamps /57C3DA02/))
      (tstamp 57C935AE))
    (comp (ref P1)
      (value CONN_01X08)
      (footprint Pin_Headers:Pin_Header_Straight_1x08)
      (libsource (lib conn) (part CONN_01X08))
      (sheetpath (names /McuBoard/) (tstamps /57C3DA02/))
      (tstamp 57F0E7BF))
    (comp (ref P5)
      (value CONN_01X08)
      (footprint Pin_Headers:Pin_Header_Straight_1x08)
      (libsource (lib conn) (part CONN_01X08))
      (sheetpath (names /McuBoard/) (tstamps /57C3DA02/))
      (tstamp 57F0F422))
    (comp (ref P9)
      (value CONN_01X08)
      (footprint Pin_Headers:Pin_Header_Straight_1x08)
      (libsource (lib conn) (part CONN_01X08))
      (sheetpath (names /McuBoard/) (tstamps /57C3DA02/))
      (tstamp 57F0F999))
    (comp (ref P10)
      (value CONN_01X08)
      (footprint Pin_Headers:Pin_Header_Straight_1x08)
      (libsource (lib conn) (part CONN_01X08))
      (sheetpath (names /McuBoard/) (tstamps /57C3DA02/))
      (tstamp 57F104A7))
    (comp (ref SW9)
      (value SW_PUSH_SMALL_H)
      (footprint Buttons_Switches_ThroughHole:SW_TH_Tactile_Omron_B3F-10xx)
      (libsource (lib device) (part SW_PUSH_SMALL_H))
      (sheetpath (names /SwitchBoard/) (tstamps /57C3DA1C/))
      (tstamp 57C9064E))
    (comp (ref SW5)
      (value SW_PUSH_SMALL_H)
      (footprint Buttons_Switches_ThroughHole:SW_TH_Tactile_Omron_B3F-10xx)
      (libsource (lib device) (part SW_PUSH_SMALL_H))
      (sheetpath (names /SwitchBoard/) (tstamps /57C3DA1C/))
      (tstamp 57C90729))
    (comp (ref SW1)
      (value SW_PUSH_SMALL_H)
      (footprint Buttons_Switches_ThroughHole:SW_TH_Tactile_Omron_B3F-10xx)
      (libsource (lib device) (part SW_PUSH_SMALL_H))
      (sheetpath (names /SwitchBoard/) (tstamps /57C3DA1C/))
      (tstamp 57C907CA))
    (comp (ref SW13)
      (value SW_PUSH_SMALL_H)
      (footprint Buttons_Switches_ThroughHole:SW_TH_Tactile_Omron_B3F-10xx)
      (libsource (lib device) (part SW_PUSH_SMALL_H))
      (sheetpath (names /SwitchBoard/) (tstamps /57C3DA1C/))
      (tstamp 57C90891))
    (comp (ref SW10)
      (value SW_PUSH_SMALL_H)
      (footprint Buttons_Switches_ThroughHole:SW_TH_Tactile_Omron_B3F-10xx)
      (libsource (lib device) (part SW_PUSH_SMALL_H))
      (sheetpath (names /SwitchBoard/) (tstamps /57C3DA1C/))
      (tstamp 57C90940))
    (comp (ref SW6)
      (value SW_PUSH_SMALL_H)
      (footprint Buttons_Switches_ThroughHole:SW_TH_Tactile_Omron_B3F-10xx)
      (libsource (lib device) (part SW_PUSH_SMALL_H))
      (sheetpath (names /SwitchBoard/) (tstamps /57C3DA1C/))
      (tstamp 57C909DB))
    (comp (ref SW2)
      (value SW_PUSH_SMALL_H)
      (footprint Buttons_Switches_ThroughHole:SW_TH_Tactile_Omron_B3F-10xx)
      (libsource (lib device) (part SW_PUSH_SMALL_H))
      (sheetpath (names /SwitchBoard/) (tstamps /57C3DA1C/))
      (tstamp 57C90A82))
    (comp (ref SW14)
      (value SW_PUSH_SMALL_H)
      (footprint Buttons_Switches_ThroughHole:SW_TH_Tactile_Omron_B3F-10xx)
      (libsource (lib device) (part SW_PUSH_SMALL_H))
      (sheetpath (names /SwitchBoard/) (tstamps /57C3DA1C/))
      (tstamp 57C90B25))
    (comp (ref SW11)
      (value SW_PUSH_SMALL_H)
      (footprint Buttons_Switches_ThroughHole:SW_TH_Tactile_Omron_B3F-10xx)
      (libsource (lib device) (part SW_PUSH_SMALL_H))
      (sheetpath (names /SwitchBoard/) (tstamps /57C3DA1C/))
      (tstamp 57C90BD8))
    (comp (ref SW7)
      (value SW_PUSH_SMALL_H)
      (footprint Buttons_Switches_ThroughHole:SW_TH_Tactile_Omron_B3F-10xx)
      (libsource (lib device) (part SW_PUSH_SMALL_H))
      (sheetpath (names /SwitchBoard/) (tstamps /57C3DA1C/))
      (tstamp 57C90C79))
    (comp (ref SW3)
      (value SW_PUSH_SMALL_H)
      (footprint Buttons_Switches_ThroughHole:SW_TH_Tactile_Omron_B3F-10xx)
      (libsource (lib device) (part SW_PUSH_SMALL_H))
      (sheetpath (names /SwitchBoard/) (tstamps /57C3DA1C/))
      (tstamp 57C90D1E))
    (comp (ref SW15)
      (value SW_PUSH_SMALL_H)
      (footprint Buttons_Switches_ThroughHole:SW_TH_Tactile_Omron_B3F-10xx)
      (libsource (lib device) (part SW_PUSH_SMALL_H))
      (sheetpath (names /SwitchBoard/) (tstamps /57C3DA1C/))
      (tstamp 57C90FD1))
    (comp (ref SW12)
      (value SW_PUSH_SMALL_H)
      (footprint Buttons_Switches_ThroughHole:SW_TH_Tactile_Omron_B3F-10xx)
      (libsource (lib device) (part SW_PUSH_SMALL_H))
      (sheetpath (names /SwitchBoard/) (tstamps /57C3DA1C/))
      (tstamp 57C911C2))
    (comp (ref SW8)
      (value SW_PUSH_SMALL_H)
      (footprint Buttons_Switches_ThroughHole:SW_TH_Tactile_Omron_B3F-10xx)
      (libsource (lib device) (part SW_PUSH_SMALL_H))
      (sheetpath (names /SwitchBoard/) (tstamps /57C3DA1C/))
      (tstamp 57C9126D))
    (comp (ref SW4)
      (value SW_PUSH_SMALL_H)
      (footprint Buttons_Switches_ThroughHole:SW_TH_Tactile_Omron_B3F-10xx)
      (libsource (lib device) (part SW_PUSH_SMALL_H))
      (sheetpath (names /SwitchBoard/) (tstamps /57C3DA1C/))
      (tstamp 57C91318))
    (comp (ref SW16)
      (value SW_PUSH_SMALL_H)
      (footprint Buttons_Switches_ThroughHole:SW_TH_Tactile_Omron_B3F-10xx)
      (libsource (lib device) (part SW_PUSH_SMALL_H))
      (sheetpath (names /SwitchBoard/) (tstamps /57C3DA1C/))
      (tstamp 57C913CF))
    (comp (ref D3)
      (value D_Schottky_Small)
      (footprint Diodes_SMD:SMA_Standard)
      (libsource (lib device) (part D_Schottky_Small))
      (sheetpath (names /SwitchBoard/) (tstamps /57C3DA1C/))
      (tstamp 57C94B94))
    (comp (ref D4)
      (value D_Schottky_Small)
      (footprint Diodes_SMD:SMA_Standard)
      (libsource (lib device) (part D_Schottky_Small))
      (sheetpath (names /SwitchBoard/) (tstamps /57C3DA1C/))
      (tstamp 57C94C67))
    (comp (ref D5)
      (value D_Schottky_Small)
      (footprint Diodes_SMD:SMA_Standard)
      (libsource (lib device) (part D_Schottky_Small))
      (sheetpath (names /SwitchBoard/) (tstamps /57C3DA1C/))
      (tstamp 57C94D20))
    (comp (ref D6)
      (value D_Schottky_Small)
      (footprint Diodes_SMD:SMA_Standard)
      (libsource (lib device) (part D_Schottky_Small))
      (sheetpath (names /SwitchBoard/) (tstamps /57C3DA1C/))
      (tstamp 57C94DD3))
    (comp (ref D7)
      (value D_Schottky_Small)
      (footprint Diodes_SMD:SMA_Standard)
      (libsource (lib device) (part D_Schottky_Small))
      (sheetpath (names /SwitchBoard/) (tstamps /57C3DA1C/))
      (tstamp 57C94E88))
    (comp (ref D8)
      (value D_Schottky_Small)
      (footprint Diodes_SMD:SMA_Standard)
      (libsource (lib device) (part D_Schottky_Small))
      (sheetpath (names /SwitchBoard/) (tstamps /57C3DA1C/))
      (tstamp 57C94F3F))
    (comp (ref D9)
      (value D_Schottky_Small)
      (footprint Diodes_SMD:SMA_Standard)
      (libsource (lib device) (part D_Schottky_Small))
      (sheetpath (names /SwitchBoard/) (tstamps /57C3DA1C/))
      (tstamp 57C94FFC))
    (comp (ref D10)
      (value D_Schottky_Small)
      (footprint Diodes_SMD:SMA_Standard)
      (libsource (lib device) (part D_Schottky_Small))
      (sheetpath (names /SwitchBoard/) (tstamps /57C3DA1C/))
      (tstamp 57C950BB))
    (comp (ref D11)
      (value D_Schottky_Small)
      (footprint Diodes_SMD:SMA_Standard)
      (libsource (lib device) (part D_Schottky_Small))
      (sheetpath (names /SwitchBoard/) (tstamps /57C3DA1C/))
      (tstamp 57C95178))
    (comp (ref D12)
      (value D_Schottky_Small)
      (footprint Diodes_SMD:SMA_Standard)
      (libsource (lib device) (part D_Schottky_Small))
      (sheetpath (names /SwitchBoard/) (tstamps /57C3DA1C/))
      (tstamp 57C9523B))
    (comp (ref D13)
      (value D_Schottky_Small)
      (footprint Diodes_SMD:SMA_Standard)
      (libsource (lib device) (part D_Schottky_Small))
      (sheetpath (names /SwitchBoard/) (tstamps /57C3DA1C/))
      (tstamp 57C952FC))
    (comp (ref D14)
      (value D_Schottky_Small)
      (footprint Diodes_SMD:SMA_Standard)
      (libsource (lib device) (part D_Schottky_Small))
      (sheetpath (names /SwitchBoard/) (tstamps /57C3DA1C/))
      (tstamp 57C953BF))
    (comp (ref D15)
      (value D_Schottky_Small)
      (footprint Diodes_SMD:SMA_Standard)
      (libsource (lib device) (part D_Schottky_Small))
      (sheetpath (names /SwitchBoard/) (tstamps /57C3DA1C/))
      (tstamp 57C95488))
    (comp (ref D16)
      (value D_Schottky_Small)
      (footprint Diodes_SMD:SMA_Standard)
      (libsource (lib device) (part D_Schottky_Small))
      (sheetpath (names /SwitchBoard/) (tstamps /57C3DA1C/))
      (tstamp 57C9554F))
    (comp (ref D17)
      (value D_Schottky_Small)
      (footprint Diodes_SMD:SMA_Standard)
      (libsource (lib device) (part D_Schottky_Small))
      (sheetpath (names /SwitchBoard/) (tstamps /57C3DA1C/))
      (tstamp 57C95618))
    (comp (ref D18)
      (value D_Schottky_Small)
      (footprint Diodes_SMD:SMA_Standard)
      (libsource (lib device) (part D_Schottky_Small))
      (sheetpath (names /SwitchBoard/) (tstamps /57C3DA1C/))
      (tstamp 57C956E3))
    (comp (ref P4)
      (value CONN_02X03)
      (footprint Pin_Headers:Pin_Header_Straight_2x03)
      (libsource (lib conn) (part CONN_02X03))
      (sheetpath (names /SwitchBoard/) (tstamps /57C3DA1C/))
      (tstamp 57C7EE15))
    (comp (ref R4k7_1)
      (value R_Small)
      (footprint Resistors_SMD:R_0805_HandSoldering)
      (libsource (lib device) (part R_Small))
      (sheetpath (names /SwitchBoard/) (tstamps /57C3DA1C/))
      (tstamp 57D06FCC))
    (comp (ref DISPLAY2)
      (value CONN_02X03)
      (footprint Pin_Headers:Pin_Header_Straight_2x03)
      (libsource (lib conn) (part CONN_02X03))
      (sheetpath (names /SwitchBoard/) (tstamps /57C3DA1C/))
      (tstamp 57F0B20A))
    (comp (ref U4)
      (value 74HC595)
      (footprint Housings_SOIC:SOIC-16_3.9x9.9mm_Pitch1.27mm)
      (libsource (lib 74xx) (part 74HC595))
      (sheetpath (names /SwitchBoard/sheet57C83F44/) (tstamps /57C3DA1C/57C83F5A/))
      (tstamp 57C43C1D))
    (comp (ref U5)
      (value 74HC595)
      (footprint Housings_SOIC:SOIC-16_3.9x9.9mm_Pitch1.27mm)
      (libsource (lib 74xx) (part 74HC595))
      (sheetpath (names /SwitchBoard/sheet57C83F44/) (tstamps /57C3DA1C/57C83F5A/))
      (tstamp 57C43C24))
    (comp (ref P6)
      (value CONN_02X03)
      (footprint Pin_Headers:Pin_Header_Straight_2x03)
      (libsource (lib conn) (part CONN_02X03))
      (sheetpath (names /LedBoard/) (tstamps /57C3D9FF/))
      (tstamp 57CB3185))
    (comp (ref P7)
      (value CONN_01X01)
      (footprint Pin_Headers:Pin_Header_Straight_1x01)
      (libsource (lib conn) (part CONN_01X01))
      (sheetpath (names /LedBoard/) (tstamps /57C3D9FF/))
      (tstamp 57D0BE26))
    (comp (ref P8)
      (value CONN_01X01)
      (footprint Pin_Headers:Pin_Header_Straight_1x01)
      (libsource (lib conn) (part CONN_01X01))
      (sheetpath (names /LedBoard/) (tstamps /57C3D9FF/))
      (tstamp 57D0BE2C))
    (comp (ref CON1)
      (value BARREL_JACK)
      (footprint smiley-library:BARREL_JACK_nosilk)
      (libsource (lib conn) (part BARREL_JACK))
      (sheetpath (names /LedBoard/) (tstamps /57C3D9FF/))
      (tstamp 57D0F309))
    (comp (ref U6)
      (value BUCK_1A)
      (footprint smiley-library:BUCK_1A)
      (libsource (lib smiley-component) (part BUCK_3A))
      (sheetpath (names /LedBoard/) (tstamps /57C3D9FF/))
      (tstamp 57D10392))
    (comp (ref U7)
      (value 74HC595)
      (footprint Housings_SOIC:SOIC-16_3.9x9.9mm_Pitch1.27mm)
      (libsource (lib 74xx) (part 74HC595))
      (sheetpath (names /LedBoard/sheet57CB6EEA/) (tstamps /57C3D9FF/57CB6F00/))
      (tstamp 57C43C1D))
    (comp (ref U8)
      (value 74HC595)
      (footprint Housings_SOIC:SOIC-16_3.9x9.9mm_Pitch1.27mm)
      (libsource (lib 74xx) (part 74HC595))
      (sheetpath (names /LedBoard/sheet57CB6EEA/) (tstamps /57C3D9FF/57CB6F00/))
      (tstamp 57C43C24))
    (comp (ref R2)
      (value R)
      (footprint Resistors_SMD:R_0805_HandSoldering)
      (libsource (lib device) (part R))
      (sheetpath (names /LedBoard/CC_Driver1/) (tstamps /57C3D9FF/57CB8A0D/))
      (tstamp 57CC3865))
    (comp (ref Q1)
      (value Q_NPN_EBC)
      (footprint TO_SOT_Packages_THT:TO-92_Inline_Narrow_Oval)
      (libsource (lib device) (part Q_NPN_EBC))
      (sheetpath (names /LedBoard/CC_Driver1/) (tstamps /57C3D9FF/57CB8A0D/))
      (tstamp 57CC38B2))
    (comp (ref Q2)
      (value IRF540N)
      (footprint TO_SOT_Packages_THT:TO-220_Neutral123_Vertical_LargePads)
      (libsource (lib transistors) (part IRF540N))
      (sheetpath (names /LedBoard/CC_Driver1/) (tstamps /57C3D9FF/57CB8A0D/))
      (tstamp 57CC3949))
    (comp (ref R3)
      (value R)
      (footprint Resistors_ThroughHole:Resistor_Vertical_RM5mm)
      (libsource (lib device) (part R))
      (sheetpath (names /LedBoard/CC_Driver1/) (tstamps /57C3D9FF/57CB8A0D/))
      (tstamp 57CC39E6))
    (comp (ref P12)
      (value CONN_01X01)
      (footprint Pin_Headers:Pin_Header_Straight_1x01)
      (libsource (lib conn) (part CONN_01X01))
      (sheetpath (names /LedBoard/CC_Driver1/) (tstamps /57C3D9FF/57CB8A0D/))
      (tstamp 57CC3B19))
    (comp (ref P11)
      (value CONN_01X01)
      (footprint Pin_Headers:Pin_Header_Straight_1x01)
      (libsource (lib conn) (part CONN_01X01))
      (sheetpath (names /LedBoard/CC_Driver1/) (tstamps /57C3D9FF/57CB8A0D/))
      (tstamp 57CC3B40))
    (comp (ref R4)
      (value R)
      (footprint Resistors_SMD:R_0805_HandSoldering)
      (libsource (lib device) (part R))
      (sheetpath (names /LedBoard/sheet57CC72AB/) (tstamps /57C3D9FF/57CC72B0/))
      (tstamp 57CC3865))
    (comp (ref Q3)
      (value Q_NPN_EBC)
      (footprint TO_SOT_Packages_THT:TO-92_Inline_Narrow_Oval)
      (libsource (lib device) (part Q_NPN_EBC))
      (sheetpath (names /LedBoard/sheet57CC72AB/) (tstamps /57C3D9FF/57CC72B0/))
      (tstamp 57CC38B2))
    (comp (ref Q4)
      (value IRF540N)
      (footprint TO_SOT_Packages_THT:TO-220_Neutral123_Vertical_LargePads)
      (libsource (lib transistors) (part IRF540N))
      (sheetpath (names /LedBoard/sheet57CC72AB/) (tstamps /57C3D9FF/57CC72B0/))
      (tstamp 57CC3949))
    (comp (ref R5)
      (value R)
      (footprint Resistors_ThroughHole:Resistor_Vertical_RM5mm)
      (libsource (lib device) (part R))
      (sheetpath (names /LedBoard/sheet57CC72AB/) (tstamps /57C3D9FF/57CC72B0/))
      (tstamp 57CC39E6))
    (comp (ref P14)
      (value CONN_01X01)
      (footprint Pin_Headers:Pin_Header_Straight_1x01)
      (libsource (lib conn) (part CONN_01X01))
      (sheetpath (names /LedBoard/sheet57CC72AB/) (tstamps /57C3D9FF/57CC72B0/))
      (tstamp 57CC3B19))
    (comp (ref P13)
      (value CONN_01X01)
      (footprint Pin_Headers:Pin_Header_Straight_1x01)
      (libsource (lib conn) (part CONN_01X01))
      (sheetpath (names /LedBoard/sheet57CC72AB/) (tstamps /57C3D9FF/57CC72B0/))
      (tstamp 57CC3B40))
    (comp (ref R6)
      (value R)
      (footprint Resistors_SMD:R_0805_HandSoldering)
      (libsource (lib device) (part R))
      (sheetpath (names /LedBoard/sheet57CC76D7/) (tstamps /57C3D9FF/57CC76DC/))
      (tstamp 57CC3865))
    (comp (ref Q5)
      (value Q_NPN_EBC)
      (footprint TO_SOT_Packages_THT:TO-92_Inline_Narrow_Oval)
      (libsource (lib device) (part Q_NPN_EBC))
      (sheetpath (names /LedBoard/sheet57CC76D7/) (tstamps /57C3D9FF/57CC76DC/))
      (tstamp 57CC38B2))
    (comp (ref Q6)
      (value IRF540N)
      (footprint TO_SOT_Packages_THT:TO-220_Neutral123_Vertical_LargePads)
      (libsource (lib transistors) (part IRF540N))
      (sheetpath (names /LedBoard/sheet57CC76D7/) (tstamps /57C3D9FF/57CC76DC/))
      (tstamp 57CC3949))
    (comp (ref R7)
      (value R)
      (footprint Resistors_ThroughHole:Resistor_Vertical_RM5mm)
      (libsource (lib device) (part R))
      (sheetpath (names /LedBoard/sheet57CC76D7/) (tstamps /57C3D9FF/57CC76DC/))
      (tstamp 57CC39E6))
    (comp (ref P16)
      (value CONN_01X01)
      (footprint Pin_Headers:Pin_Header_Straight_1x01)
      (libsource (lib conn) (part CONN_01X01))
      (sheetpath (names /LedBoard/sheet57CC76D7/) (tstamps /57C3D9FF/57CC76DC/))
      (tstamp 57CC3B19))
    (comp (ref P15)
      (value CONN_01X01)
      (footprint Pin_Headers:Pin_Header_Straight_1x01)
      (libsource (lib conn) (part CONN_01X01))
      (sheetpath (names /LedBoard/sheet57CC76D7/) (tstamps /57C3D9FF/57CC76DC/))
      (tstamp 57CC3B40))
    (comp (ref R8)
      (value R)
      (footprint Resistors_SMD:R_0805_HandSoldering)
      (libsource (lib device) (part R))
      (sheetpath (names /LedBoard/sheet57CC7AFA/) (tstamps /57C3D9FF/57CC7AFF/))
      (tstamp 57CC3865))
    (comp (ref Q7)
      (value Q_NPN_EBC)
      (footprint TO_SOT_Packages_THT:TO-92_Inline_Narrow_Oval)
      (libsource (lib device) (part Q_NPN_EBC))
      (sheetpath (names /LedBoard/sheet57CC7AFA/) (tstamps /57C3D9FF/57CC7AFF/))
      (tstamp 57CC38B2))
    (comp (ref Q8)
      (value IRF540N)
      (footprint TO_SOT_Packages_THT:TO-220_Neutral123_Vertical_LargePads)
      (libsource (lib transistors) (part IRF540N))
      (sheetpath (names /LedBoard/sheet57CC7AFA/) (tstamps /57C3D9FF/57CC7AFF/))
      (tstamp 57CC3949))
    (comp (ref R9)
      (value R)
      (footprint Resistors_ThroughHole:Resistor_Vertical_RM5mm)
      (libsource (lib device) (part R))
      (sheetpath (names /LedBoard/sheet57CC7AFA/) (tstamps /57C3D9FF/57CC7AFF/))
      (tstamp 57CC39E6))
    (comp (ref P18)
      (value CONN_01X01)
      (footprint Pin_Headers:Pin_Header_Straight_1x01)
      (libsource (lib conn) (part CONN_01X01))
      (sheetpath (names /LedBoard/sheet57CC7AFA/) (tstamps /57C3D9FF/57CC7AFF/))
      (tstamp 57CC3B19))
    (comp (ref P17)
      (value CONN_01X01)
      (footprint Pin_Headers:Pin_Header_Straight_1x01)
      (libsource (lib conn) (part CONN_01X01))
      (sheetpath (names /LedBoard/sheet57CC7AFA/) (tstamps /57C3D9FF/57CC7AFF/))
      (tstamp 57CC3B40))
    (comp (ref R10)
      (value R)
      (footprint Resistors_SMD:R_0805_HandSoldering)
      (libsource (lib device) (part R))
      (sheetpath (names /LedBoard/sheet57CC7FFE/) (tstamps /57C3D9FF/57CC8003/))
      (tstamp 57CC3865))
    (comp (ref Q9)
      (value Q_NPN_EBC)
      (footprint TO_SOT_Packages_THT:TO-92_Inline_Narrow_Oval)
      (libsource (lib device) (part Q_NPN_EBC))
      (sheetpath (names /LedBoard/sheet57CC7FFE/) (tstamps /57C3D9FF/57CC8003/))
      (tstamp 57CC38B2))
    (comp (ref Q10)
      (value IRF540N)
      (footprint TO_SOT_Packages_THT:TO-220_Neutral123_Vertical_LargePads)
      (libsource (lib transistors) (part IRF540N))
      (sheetpath (names /LedBoard/sheet57CC7FFE/) (tstamps /57C3D9FF/57CC8003/))
      (tstamp 57CC3949))
    (comp (ref R11)
      (value R)
      (footprint Resistors_ThroughHole:Resistor_Vertical_RM5mm)
      (libsource (lib device) (part R))
      (sheetpath (names /LedBoard/sheet57CC7FFE/) (tstamps /57C3D9FF/57CC8003/))
      (tstamp 57CC39E6))
    (comp (ref P20)
      (value CONN_01X01)
      (footprint Pin_Headers:Pin_Header_Straight_1x01)
      (libsource (lib conn) (part CONN_01X01))
      (sheetpath (names /LedBoard/sheet57CC7FFE/) (tstamps /57C3D9FF/57CC8003/))
      (tstamp 57CC3B19))
    (comp (ref P19)
      (value CONN_01X01)
      (footprint Pin_Headers:Pin_Header_Straight_1x01)
      (libsource (lib conn) (part CONN_01X01))
      (sheetpath (names /LedBoard/sheet57CC7FFE/) (tstamps /57C3D9FF/57CC8003/))
      (tstamp 57CC3B40))
    (comp (ref R12)
      (value R)
      (footprint Resistors_SMD:R_0805_HandSoldering)
      (libsource (lib device) (part R))
      (sheetpath (names /LedBoard/sheet57CC83D9/) (tstamps /57C3D9FF/57CC83DE/))
      (tstamp 57CC3865))
    (comp (ref Q11)
      (value Q_NPN_EBC)
      (footprint TO_SOT_Packages_THT:TO-92_Inline_Narrow_Oval)
      (libsource (lib device) (part Q_NPN_EBC))
      (sheetpath (names /LedBoard/sheet57CC83D9/) (tstamps /57C3D9FF/57CC83DE/))
      (tstamp 57CC38B2))
    (comp (ref Q12)
      (value IRF540N)
      (footprint TO_SOT_Packages_THT:TO-220_Neutral123_Vertical_LargePads)
      (libsource (lib transistors) (part IRF540N))
      (sheetpath (names /LedBoard/sheet57CC83D9/) (tstamps /57C3D9FF/57CC83DE/))
      (tstamp 57CC3949))
    (comp (ref R13)
      (value R)
      (footprint Resistors_ThroughHole:Resistor_Vertical_RM5mm)
      (libsource (lib device) (part R))
      (sheetpath (names /LedBoard/sheet57CC83D9/) (tstamps /57C3D9FF/57CC83DE/))
      (tstamp 57CC39E6))
    (comp (ref P22)
      (value CONN_01X01)
      (footprint Pin_Headers:Pin_Header_Straight_1x01)
      (libsource (lib conn) (part CONN_01X01))
      (sheetpath (names /LedBoard/sheet57CC83D9/) (tstamps /57C3D9FF/57CC83DE/))
      (tstamp 57CC3B19))
    (comp (ref P21)
      (value CONN_01X01)
      (footprint Pin_Headers:Pin_Header_Straight_1x01)
      (libsource (lib conn) (part CONN_01X01))
      (sheetpath (names /LedBoard/sheet57CC83D9/) (tstamps /57C3D9FF/57CC83DE/))
      (tstamp 57CC3B40))
    (comp (ref R14)
      (value R)
      (footprint Resistors_SMD:R_0805_HandSoldering)
      (libsource (lib device) (part R))
      (sheetpath (names /LedBoard/sheet57CC9D29/) (tstamps /57C3D9FF/57CC9D2E/))
      (tstamp 57CC3865))
    (comp (ref Q13)
      (value Q_NPN_EBC)
      (footprint TO_SOT_Packages_THT:TO-92_Inline_Narrow_Oval)
      (libsource (lib device) (part Q_NPN_EBC))
      (sheetpath (names /LedBoard/sheet57CC9D29/) (tstamps /57C3D9FF/57CC9D2E/))
      (tstamp 57CC38B2))
    (comp (ref Q14)
      (value IRF540N)
      (footprint TO_SOT_Packages_THT:TO-220_Neutral123_Vertical_LargePads)
      (libsource (lib transistors) (part IRF540N))
      (sheetpath (names /LedBoard/sheet57CC9D29/) (tstamps /57C3D9FF/57CC9D2E/))
      (tstamp 57CC3949))
    (comp (ref R15)
      (value R)
      (footprint Resistors_ThroughHole:Resistor_Vertical_RM5mm)
      (libsource (lib device) (part R))
      (sheetpath (names /LedBoard/sheet57CC9D29/) (tstamps /57C3D9FF/57CC9D2E/))
      (tstamp 57CC39E6))
    (comp (ref P24)
      (value CONN_01X01)
      (footprint Pin_Headers:Pin_Header_Straight_1x01)
      (libsource (lib conn) (part CONN_01X01))
      (sheetpath (names /LedBoard/sheet57CC9D29/) (tstamps /57C3D9FF/57CC9D2E/))
      (tstamp 57CC3B19))
    (comp (ref P23)
      (value CONN_01X01)
      (footprint Pin_Headers:Pin_Header_Straight_1x01)
      (libsource (lib conn) (part CONN_01X01))
      (sheetpath (names /LedBoard/sheet57CC9D29/) (tstamps /57C3D9FF/57CC9D2E/))
      (tstamp 57CC3B40))
    (comp (ref R16)
      (value R)
      (footprint Resistors_SMD:R_0805_HandSoldering)
      (libsource (lib device) (part R))
      (sheetpath (names /LedBoard/sheet57CCA086/) (tstamps /57C3D9FF/57CCA08B/))
      (tstamp 57CC3865))
    (comp (ref Q15)
      (value Q_NPN_EBC)
      (footprint TO_SOT_Packages_THT:TO-92_Inline_Narrow_Oval)
      (libsource (lib device) (part Q_NPN_EBC))
      (sheetpath (names /LedBoard/sheet57CCA086/) (tstamps /57C3D9FF/57CCA08B/))
      (tstamp 57CC38B2))
    (comp (ref Q16)
      (value IRF540N)
      (footprint TO_SOT_Packages_THT:TO-220_Neutral123_Vertical_LargePads)
      (libsource (lib transistors) (part IRF540N))
      (sheetpath (names /LedBoard/sheet57CCA086/) (tstamps /57C3D9FF/57CCA08B/))
      (tstamp 57CC3949))
    (comp (ref R17)
      (value R)
      (footprint Resistors_ThroughHole:Resistor_Vertical_RM5mm)
      (libsource (lib device) (part R))
      (sheetpath (names /LedBoard/sheet57CCA086/) (tstamps /57C3D9FF/57CCA08B/))
      (tstamp 57CC39E6))
    (comp (ref P26)
      (value CONN_01X01)
      (footprint Pin_Headers:Pin_Header_Straight_1x01)
      (libsource (lib conn) (part CONN_01X01))
      (sheetpath (names /LedBoard/sheet57CCA086/) (tstamps /57C3D9FF/57CCA08B/))
      (tstamp 57CC3B19))
    (comp (ref P25)
      (value CONN_01X01)
      (footprint Pin_Headers:Pin_Header_Straight_1x01)
      (libsource (lib conn) (part CONN_01X01))
      (sheetpath (names /LedBoard/sheet57CCA086/) (tstamps /57C3D9FF/57CCA08B/))
      (tstamp 57CC3B40))
    (comp (ref U9)
      (value BUCK_3A)
      (footprint smiley-library:BUCK_3A)
      (libsource (lib smiley-component) (part BUCK_3A))
      (sheetpath (names /LedBoard/BuckSwitch2/) (tstamps /57C3D9FF/57CF7F2E/))
      (tstamp 57CF8133))
    (comp (ref Q19)
      (value IRF540N)
      (footprint TO_SOT_Packages_THT:TO-220_Neutral123_Vertical_LargePads)
      (libsource (lib transistors) (part IRF540N))
      (sheetpath (names /LedBoard/BuckSwitch2/) (tstamps /57C3D9FF/57CF7F2E/))
      (tstamp 57CF813F))
    (comp (ref Q18)
      (value Q_PNP_CBE)
      (footprint TO_SOT_Packages_THT:TO-92_Inline_Narrow_Oval)
      (libsource (lib device) (part Q_PNP_CBE))
      (sheetpath (names /LedBoard/BuckSwitch2/) (tstamps /57C3D9FF/57CF7F2E/))
      (tstamp 57CF846B))
    (comp (ref Q17)
      (value Q_NPN_EBC)
      (footprint TO_SOT_Packages_THT:TO-92_Inline_Narrow_Oval)
      (libsource (lib device) (part Q_NPN_EBC))
      (sheetpath (names /LedBoard/BuckSwitch2/) (tstamps /57C3D9FF/57CF7F2E/))
      (tstamp 57CF8518))
    (comp (ref R19)
      (value R)
      (footprint Resistors_SMD:R_0805_HandSoldering)
      (libsource (lib device) (part R))
      (sheetpath (names /LedBoard/BuckSwitch2/) (tstamps /57C3D9FF/57CF7F2E/))
      (tstamp 57CF855F))
    (comp (ref R21)
      (value R)
      (footprint Resistors_SMD:R_0805_HandSoldering)
      (libsource (lib device) (part R))
      (sheetpath (names /LedBoard/BuckSwitch2/) (tstamps /57C3D9FF/57CF7F2E/))
      (tstamp 57CF862C))
    (comp (ref R20)
      (value R)
      (footprint Resistors_SMD:R_0805_HandSoldering)
      (libsource (lib device) (part R))
      (sheetpath (names /LedBoard/BuckSwitch2/) (tstamps /57C3D9FF/57CF7F2E/))
      (tstamp 57CF86B1))
    (comp (ref R18)
      (value R)
      (footprint Resistors_SMD:R_0805_HandSoldering)
      (libsource (lib device) (part R))
      (sheetpath (names /LedBoard/BuckSwitch2/) (tstamps /57C3D9FF/57CF7F2E/))
      (tstamp 57CF8911))
    (comp (ref U10)
      (value BUCK_3A)
      (footprint smiley-library:BUCK_3A)
      (libsource (lib smiley-component) (part BUCK_3A))
      (sheetpath (names /LedBoard/BuckSwitch1/) (tstamps /57C3D9FF/57CFE7C0/))
      (tstamp 57CF8133))
    (comp (ref Q22)
      (value IRF540N)
      (footprint TO_SOT_Packages_THT:TO-220_Neutral123_Vertical_LargePads)
      (libsource (lib transistors) (part IRF540N))
      (sheetpath (names /LedBoard/BuckSwitch1/) (tstamps /57C3D9FF/57CFE7C0/))
      (tstamp 57CF813F))
    (comp (ref Q21)
      (value Q_PNP_CBE)
      (footprint TO_SOT_Packages_THT:TO-92_Inline_Narrow_Oval)
      (libsource (lib device) (part Q_PNP_CBE))
      (sheetpath (names /LedBoard/BuckSwitch1/) (tstamps /57C3D9FF/57CFE7C0/))
      (tstamp 57CF846B))
    (comp (ref Q20)
      (value Q_NPN_EBC)
      (footprint TO_SOT_Packages_THT:TO-92_Inline_Narrow_Oval)
      (libsource (lib device) (part Q_NPN_EBC))
      (sheetpath (names /LedBoard/BuckSwitch1/) (tstamps /57C3D9FF/57CFE7C0/))
      (tstamp 57CF8518))
    (comp (ref R23)
      (value R)
      (footprint Resistors_SMD:R_0805_HandSoldering)
      (libsource (lib device) (part R))
      (sheetpath (names /LedBoard/BuckSwitch1/) (tstamps /57C3D9FF/57CFE7C0/))
      (tstamp 57CF855F))
    (comp (ref R25)
      (value R)
      (footprint Resistors_SMD:R_0805_HandSoldering)
      (libsource (lib device) (part R))
      (sheetpath (names /LedBoard/BuckSwitch1/) (tstamps /57C3D9FF/57CFE7C0/))
      (tstamp 57CF862C))
    (comp (ref R24)
      (value R)
      (footprint Resistors_SMD:R_0805_HandSoldering)
      (libsource (lib device) (part R))
      (sheetpath (names /LedBoard/BuckSwitch1/) (tstamps /57C3D9FF/57CFE7C0/))
      (tstamp 57CF86B1))
    (comp (ref R22)
      (value R)
      (footprint Resistors_SMD:R_0805_HandSoldering)
      (libsource (lib device) (part R))
      (sheetpath (names /LedBoard/BuckSwitch1/) (tstamps /57C3D9FF/57CFE7C0/))
      (tstamp 57CF8911))
    (comp (ref Q25)
      (value IRF540N)
      (footprint TO_SOT_Packages_THT:TO-220_Neutral123_Vertical_LargePads)
      (libsource (lib transistors) (part IRF540N))
      (sheetpath (names /LedBoard/HV_Switch/) (tstamps /57C3D9FF/57D09182/))
      (tstamp 57D097E4))
    (comp (ref Q24)
      (value Q_PNP_CBE)
      (footprint TO_SOT_Packages_THT:TO-92_Inline_Narrow_Oval)
      (libsource (lib device) (part Q_PNP_CBE))
      (sheetpath (names /LedBoard/HV_Switch/) (tstamps /57C3D9FF/57D09182/))
      (tstamp 57D097F3))
    (comp (ref Q23)
      (value Q_NPN_EBC)
      (footprint TO_SOT_Packages_THT:TO-92_Inline_Narrow_Oval)
      (libsource (lib device) (part Q_NPN_EBC))
      (sheetpath (names /LedBoard/HV_Switch/) (tstamps /57C3D9FF/57D09182/))
      (tstamp 57D097FA))
    (comp (ref R27)
      (value R)
      (footprint Resistors_SMD:R_0805_HandSoldering)
      (libsource (lib device) (part R))
      (sheetpath (names /LedBoard/HV_Switch/) (tstamps /57C3D9FF/57D09182/))
      (tstamp 57D09801))
    (comp (ref R29)
      (value R)
      (footprint Resistors_SMD:R_0805_HandSoldering)
      (libsource (lib device) (part R))
      (sheetpath (names /LedBoard/HV_Switch/) (tstamps /57C3D9FF/57D09182/))
      (tstamp 57D09808))
    (comp (ref R28)
      (value R)
      (footprint Resistors_SMD:R_0805_HandSoldering)
      (libsource (lib device) (part R))
      (sheetpath (names /LedBoard/HV_Switch/) (tstamps /57C3D9FF/57D09182/))
      (tstamp 57D0980F))
    (comp (ref R26)
      (value R)
      (footprint Resistors_SMD:R_0805_HandSoldering)
      (libsource (lib device) (part R))
      (sheetpath (names /LedBoard/HV_Switch/) (tstamps /57C3D9FF/57D09182/))
      (tstamp 57D09823))
    (comp (ref P27)
      (value CONN_01X01)
      (footprint Pin_Headers:Pin_Header_Straight_1x01)
      (libsource (lib conn) (part CONN_01X01))
      (sheetpath (names /LedBoard/HV_Switch/) (tstamps /57C3D9FF/57D09182/))
      (tstamp 57D098ED))
    (comp (ref P28)
      (value CONN_01X01)
      (footprint Pin_Headers:Pin_Header_Straight_1x01)
      (libsource (lib conn) (part CONN_01X01))
      (sheetpath (names /LedBoard/HV_Switch/) (tstamps /57C3D9FF/57D09182/))
      (tstamp 57D09937))
    (comp (ref P29)
      (value CONN_01X01)
      (footprint Pin_Headers:Pin_Header_Straight_1x01)
      (libsource (lib conn) (part CONN_01X01))
      (sheetpath (names /LedBoard/HV_Switch/) (tstamps /57C3D9FF/57D09182/))
      (tstamp 57D0998A))
    (comp (ref P30)
      (value CONN_01X01)
      (footprint Pin_Headers:Pin_Header_Straight_1x01)
      (libsource (lib conn) (part CONN_01X01))
      (sheetpath (names /LedBoard/HV_Switch/) (tstamps /57C3D9FF/57D09182/))
      (tstamp 57D099D8)))
  (libparts
    (libpart (lib 74xx) (part 74HC595)
      (aliases
        (alias 74LS596)
        (alias 74LS595))
      (description "8 bits serial in // out Shift Register 3 State Out")
      (docs 74xx/74HC595.pdf)
      (fields
        (field (name Reference) U)
        (field (name Value) 74HC595))
      (pins
        (pin (num 1) (name QB) (type 3state))
        (pin (num 2) (name QC) (type 3state))
        (pin (num 3) (name QD) (type 3state))
        (pin (num 4) (name QE) (type 3state))
        (pin (num 5) (name QF) (type 3state))
        (pin (num 6) (name QG) (type 3state))
        (pin (num 7) (name QH) (type 3state))
        (pin (num 8) (name GND) (type power_in))
        (pin (num 9) (name ~QH) (type output))
        (pin (num 10) (name SRCLR) (type input))
        (pin (num 11) (name SRCLK) (type input))
        (pin (num 12) (name RCLK) (type input))
        (pin (num 13) (name G) (type input))
        (pin (num 14) (name SER) (type input))
        (pin (num 15) (name QA) (type 3state))
        (pin (num 16) (name VCC) (type power_in))))
    (libpart (lib atmel) (part ATMEGA8-AI)
      (aliases
        (alias ATMEGA8A-A))
      (description "TQFP32, 8k Flash, 1k SRAM, 512B EEPROM")
      (docs http://www.atmel.com/images/atmel-2486-8-bit-avr-microcontroller-atmega8_l_datasheet.pdf)
      (footprints
        (fp TQFP32))
      (fields
        (field (name Reference) IC)
        (field (name Value) ATMEGA8-AI)
        (field (name Footprint) TQFP32))
      (pins
        (pin (num 1) (name "(INT1)PD3") (type BiDi))
        (pin (num 2) (name "(XCK/T0)PD4") (type BiDi))
        (pin (num 3) (name GND) (type power_in))
        (pin (num 4) (name VCC) (type power_in))
        (pin (num 5) (name GND) (type power_in))
        (pin (num 6) (name VCC) (type power_in))
        (pin (num 7) (name "PB6(XTAL1/TOSC1)") (type BiDi))
        (pin (num 8) (name "PB7(XTAL2/TOSC2)") (type BiDi))
        (pin (num 9) (name "(T1)PD5") (type BiDi))
        (pin (num 10) (name "(AIN0)PD6") (type BiDi))
        (pin (num 11) (name "(AIN1)PD7") (type BiDi))
        (pin (num 12) (name "(ICP)PB0") (type BiDi))
        (pin (num 13) (name "(OC1A)PB1") (type BiDi))
        (pin (num 14) (name "(~SS~/OC1B)PB2") (type BiDi))
        (pin (num 15) (name "(MOSI/OC2)PB3") (type BiDi))
        (pin (num 16) (name "(MISO)PB4") (type BiDi))
        (pin (num 17) (name "(SCK)PB5") (type BiDi))
        (pin (num 18) (name AVCC) (type power_in))
        (pin (num 19) (name ADC6) (type BiDi))
        (pin (num 20) (name AREF) (type BiDi))
        (pin (num 21) (name AGND) (type power_in))
        (pin (num 22) (name ADC7) (type BiDi))
        (pin (num 23) (name "(ADC0)PC0") (type BiDi))
        (pin (num 24) (name "(ADC1)PC1") (type BiDi))
        (pin (num 25) (name "(ADC2)PC2") (type BiDi))
        (pin (num 26) (name "(ADC3)PC3") (type BiDi))
        (pin (num 27) (name "(ADC4/SDA)PC4") (type BiDi))
        (pin (num 28) (name "(ADC5/SCL)PC5") (type BiDi))
        (pin (num 29) (name "PC6(~RESET~)") (type BiDi))
        (pin (num 30) (name "(RXD)PD0") (type BiDi))
        (pin (num 31) (name "(TXD)PD1") (type BiDi))
        (pin (num 32) (name "(INT0)PD2") (type BiDi))))
    (libpart (lib conn) (part BARREL_JACK)
      (description "DC Barrel Jack")
      (fields
        (field (name Reference) CON)
        (field (name Value) BARREL_JACK))
      (pins
        (pin (num 1) (name ~) (type passive))
        (pin (num 2) (name ~) (type passive))
        (pin (num 3) (name ~) (type passive))))
    (libpart (lib smiley-component) (part BUCK_3A)
      (fields
        (field (name Reference) U)
        (field (name Value) BUCK_3A))
      (pins
        (pin (num 1) (name IN+) (type input))
        (pin (num 2) (name IN-) (type input))
        (pin (num 3) (name OUT+) (type input))
        (pin (num 4) (name OUT-) (type input))))
    (libpart (lib conn) (part CONN_01X01)
      (description "Connector, single row, 01x01")
      (footprints
        (fp Pin_Header_Straight_1X01)
        (fp Pin_Header_Angled_1X01)
        (fp Socket_Strip_Straight_1X01)
        (fp Socket_Strip_Angled_1X01))
      (fields
        (field (name Reference) P)
        (field (name Value) CONN_01X01))
      (pins
        (pin (num 1) (name P1) (type passive))))
    (libpart (lib conn) (part CONN_01X02)
      (description "Connector, single row, 01x02")
      (footprints
        (fp Pin_Header_Straight_1X02)
        (fp Pin_Header_Angled_1X02)
        (fp Socket_Strip_Straight_1X02)
        (fp Socket_Strip_Angled_1X02))
      (fields
        (field (name Reference) P)
        (field (name Value) CONN_01X02))
      (pins
        (pin (num 1) (name P1) (type passive))
        (pin (num 2) (name P2) (type passive))))
    (libpart (lib conn) (part CONN_01X08)
      (description "Connector, single row, 01x08")
      (footprints
        (fp Pin_Header_Straight_1X08)
        (fp Pin_Header_Angled_1X08)
        (fp Socket_Strip_Straight_1X08)
        (fp Socket_Strip_Angled_1X08))
      (fields
        (field (name Reference) P)
        (field (name Value) CONN_01X08))
      (pins
        (pin (num 1) (name P1) (type passive))
        (pin (num 2) (name P2) (type passive))
        (pin (num 3) (name P3) (type passive))
        (pin (num 4) (name P4) (type passive))
        (pin (num 5) (name P5) (type passive))
        (pin (num 6) (name P6) (type passive))
        (pin (num 7) (name P7) (type passive))
        (pin (num 8) (name P8) (type passive))))
    (libpart (lib conn) (part CONN_02X03)
      (description "Connector, double row, 02x03")
      (footprints
        (fp Pin_Header_Straight_2X03)
        (fp Pin_Header_Angled_2X03)
        (fp Socket_Strip_Straight_2X03)
        (fp Socket_Strip_Angled_2X03))
      (fields
        (field (name Reference) P)
        (field (name Value) CONN_02X03))
      (pins
        (pin (num 1) (name P1) (type passive))
        (pin (num 2) (name P2) (type passive))
        (pin (num 3) (name P3) (type passive))
        (pin (num 4) (name P4) (type passive))
        (pin (num 5) (name P5) (type passive))
        (pin (num 6) (name P6) (type passive))))
    (libpart (lib conn) (part CONN_02X05)
      (description "Connector, double row, 02x05")
      (footprints
        (fp Pin_Header_Straight_2X05)
        (fp Pin_Header_Angled_2X05)
        (fp Socket_Strip_Straight_2X05)
        (fp Socket_Strip_Angled_2X05))
      (fields
        (field (name Reference) P)
        (field (name Value) CONN_02X05))
      (pins
        (pin (num 1) (name P1) (type passive))
        (pin (num 2) (name P2) (type passive))
        (pin (num 3) (name P3) (type passive))
        (pin (num 4) (name P4) (type passive))
        (pin (num 5) (name P5) (type passive))
        (pin (num 6) (name P6) (type passive))
        (pin (num 7) (name P7) (type passive))
        (pin (num 8) (name P8) (type passive))
        (pin (num 9) (name P9) (type passive))
        (pin (num 10) (name P10) (type passive))))
    (libpart (lib device) (part C_Small)
      (description "Unpolarized capacitor")
      (footprints
        (fp C?)
        (fp C_????_*)
        (fp C_????)
        (fp SMD*_c)
        (fp Capacitor*))
      (fields
        (field (name Reference) C)
        (field (name Value) C_Small))
      (pins
        (pin (num 1) (name ~) (type passive))
        (pin (num 2) (name ~) (type passive))))
    (libpart (lib device) (part Crystal_Small)
      (description "Two pin crystal")
      (footprints
        (fp Crystal_))
      (fields
        (field (name Reference) Y)
        (field (name Value) Crystal_Small))
      (pins
        (pin (num 1) (name 1) (type passive))
        (pin (num 2) (name 2) (type passive))))
    (libpart (lib device) (part D_Schottky_Small)
      (description "Diode Schottky")
      (footprints
        (fp Diode_*)
        (fp D-Pak_TO252AA)
        (fp *SingleDiode)
        (fp *SingleDiode*)
        (fp *_Diode_*))
      (fields
        (field (name Reference) D)
        (field (name Value) D_Schottky_Small))
      (pins
        (pin (num 1) (name K) (type passive))
        (pin (num 2) (name A) (type passive))))
    (libpart (lib smiley-component) (part Display_7Seg_Cathode_YY2841AH-33)
      (fields
        (field (name Reference) U)
        (field (name Value) Display_7Seg_Cathode_YY2841AH-33))
      (pins
        (pin (num 1) (name BL) (type input))
        (pin (num 2) (name BC) (type input))
        (pin (num 3) (name DP) (type input))
        (pin (num 4) (name BR) (type input))
        (pin (num 5) (name MC) (type input))
        (pin (num 6) (name D4) (type input))
        (pin (num 7) (name TR) (type input))
        (pin (num 8) (name D3) (type input))
        (pin (num 9) (name D2) (type input))
        (pin (num 10) (name TL) (type input))
        (pin (num 11) (name TC) (type input))
        (pin (num 12) (name D1) (type input))))
    (libpart (lib transistors) (part IRF540N)
      (description "100V Vds, 33A Id, HEXFET N-Channel MOSFET, TO-220")
      (docs http://www.irf.com/product-info/datasheets/data/irf540n.pdf)
      (footprints
        (fp TO-220*))
      (fields
        (field (name Reference) Q)
        (field (name Value) IRF540N)
        (field (name Footprint) TO-220))
      (pins
        (pin (num 1) (name G) (type input))
        (pin (num 2) (name D) (type passive))
        (pin (num 3) (name S) (type passive))))
    (libpart (lib device) (part Q_NPN_EBC)
      (description "Transistor NPN (general)")
      (fields
        (field (name Reference) Q)
        (field (name Value) Q_NPN_EBC))
      (pins
        (pin (num 1) (name E) (type passive))
        (pin (num 2) (name B) (type passive))
        (pin (num 3) (name C) (type passive))))
    (libpart (lib device) (part Q_PNP_CBE)
      (description "Transistor PNP (general)")
      (fields
        (field (name Reference) Q)
        (field (name Value) Q_PNP_CBE))
      (pins
        (pin (num 1) (name C) (type passive))
        (pin (num 2) (name B) (type input))
        (pin (num 3) (name E) (type passive))))
    (libpart (lib device) (part R)
      (description Resistor)
      (footprints
        (fp R_*)
        (fp Resistor_*))
      (fields
        (field (name Reference) R)
        (field (name Value) R))
      (pins
        (pin (num 1) (name ~) (type passive))
        (pin (num 2) (name ~) (type passive))))
    (libpart (lib device) (part R_Small)
      (description Resistor)
      (footprints
        (fp Resistor_*)
        (fp R_*))
      (fields
        (field (name Reference) R)
        (field (name Value) R_Small))
      (pins
        (pin (num 1) (name ~) (type passive))
        (pin (num 2) (name ~) (type passive))))
    (libpart (lib device) (part SW_PUSH_SMALL_H)
      (description Button)
      (fields
        (field (name Reference) SW)
        (field (name Value) SW_PUSH_SMALL_H))
      (pins
        (pin (num 1) (name 1) (type passive))
        (pin (num 2) (name 2) (type passive))))
    (libpart (lib device) (part ZENER)
      (description "Diode zener")
      (footprints
        (fp D?)
        (fp SO*)
        (fp SM*))
      (fields
        (field (name Reference) D)
        (field (name Value) ZENER))
      (pins
        (pin (num 1) (name K) (type passive))
        (pin (num 2) (name A) (type passive)))))
  (libraries
    (library (logical smiley-component)
      (uri /home/smiley/ast/source/avr/lamp/eda/smiley-component.lib))
    (library (logical transistors)
      (uri /usr/share/kicad/library/transistors.lib))
    (library (logical conn)
      (uri /usr/share/kicad/library/conn.lib))
    (library (logical 74xx)
      (uri /usr/share/kicad/library/74xx.lib))
    (library (logical device)
      (uri /usr/share/kicad/library/device.lib))
    (library (logical atmel)
      (uri /usr/share/kicad/library/atmel.lib)))
  (nets
    (net (code 1) (name /McuBoard/5V_IN)
      (node (ref D2) (pin 2))
      (node (ref P3) (pin 1))
      (node (ref U6) (pin 3)))
    (net (code 2) (name /SwitchBoard/SER_IN)
      (node (ref U8) (pin 9))
      (node (ref U4) (pin 14))
      (node (ref DISPLAY2) (pin 2))
      (node (ref P4) (pin 2))
      (node (ref P6) (pin 2)))
    (net (code 3) (name /LedBoard/BTN)
      (node (ref P6) (pin 5))
      (node (ref P9) (pin 7))
      (node (ref IC1) (pin 23))
      (node (ref SW4) (pin 2))
      (node (ref SW8) (pin 2))
      (node (ref SW9) (pin 2))
      (node (ref SW5) (pin 2))
      (node (ref SW6) (pin 2))
      (node (ref SW2) (pin 2))
      (node (ref SW10) (pin 2))
      (node (ref SW13) (pin 2))
      (node (ref SW1) (pin 2))
      (node (ref SW16) (pin 2))
      (node (ref DISPLAY2) (pin 5))
      (node (ref P4) (pin 5))
      (node (ref R4k7_1) (pin 1))
      (node (ref SW15) (pin 2))
      (node (ref SW3) (pin 2))
      (node (ref SW7) (pin 2))
      (node (ref SW11) (pin 2))
      (node (ref SW12) (pin 2))
      (node (ref SW14) (pin 2)))
    (net (code 4) (name /LedBoard/SER_IN)
      (node (ref IC1) (pin 15))
      (node (ref U7) (pin 14))
      (node (ref P5) (pin 7))
      (node (ref P2) (pin 1)))
    (net (code 5) (name /Display/SER_IN)
      (node (ref U2) (pin 14))
      (node (ref U5) (pin 9)))
    (net (code 6) (name /Display/LATCH)
      (node (ref U3) (pin 12))
      (node (ref P5) (pin 6))
      (node (ref P4) (pin 3))
      (node (ref U2) (pin 12))
      (node (ref U5) (pin 12))
      (node (ref P6) (pin 3))
      (node (ref U8) (pin 12))
      (node (ref U4) (pin 12))
      (node (ref IC1) (pin 14))
      (node (ref DISPLAY2) (pin 3))
      (node (ref U7) (pin 12)))
    (net (code 7) (name /Display/CLOCK)
      (node (ref IC1) (pin 17))
      (node (ref P2) (pin 7))
      (node (ref P9) (pin 1))
      (node (ref DISPLAY2) (pin 4))
      (node (ref P4) (pin 4))
      (node (ref U4) (pin 11))
      (node (ref U5) (pin 11))
      (node (ref U2) (pin 11))
      (node (ref U8) (pin 11))
      (node (ref P6) (pin 4))
      (node (ref U7) (pin 11))
      (node (ref U3) (pin 11)))
    (net (code 8) (name /Display/SER_OUT)
      (node (ref U3) (pin 9)))
    (net (code 9) (name GND)
      (node (ref C4) (pin 1))
      (node (ref C3) (pin 1))
      (node (ref U7) (pin 8))
      (node (ref C2) (pin 2))
      (node (ref P2) (pin 10))
      (node (ref U5) (pin 8))
      (node (ref U5) (pin 13))
      (node (ref U4) (pin 8))
      (node (ref D5.1) (pin 2))
      (node (ref U4) (pin 13))
      (node (ref IC1) (pin 21))
      (node (ref IC1) (pin 5))
      (node (ref IC1) (pin 3))
      (node (ref C1) (pin 2))
      (node (ref U3) (pin 13))
      (node (ref P4) (pin 6))
      (node (ref R4k7_1) (pin 2))
      (node (ref U2) (pin 8))
      (node (ref U3) (pin 8))
      (node (ref U2) (pin 13))
      (node (ref U8) (pin 13))
      (node (ref P3) (pin 2))
      (node (ref U8) (pin 8))
      (node (ref U7) (pin 13))
      (node (ref DISPLAY2) (pin 6))
      (node (ref P9) (pin 5))
      (node (ref P1) (pin 5))
      (node (ref P6) (pin 6))
      (node (ref U6) (pin 4))
      (node (ref P1) (pin 3)))
    (net (code 10) (name VCC)
      (node (ref P1) (pin 6))
      (node (ref U2) (pin 10))
      (node (ref P4) (pin 1))
      (node (ref U8) (pin 16))
      (node (ref P9) (pin 2))
      (node (ref IC1) (pin 18))
      (node (ref U3) (pin 10))
      (node (ref C3) (pin 2))
      (node (ref U3) (pin 16))
      (node (ref C4) (pin 2))
      (node (ref U8) (pin 10))
      (node (ref R1) (pin 1))
      (node (ref D5.1) (pin 1))
      (node (ref U4) (pin 16))
      (node (ref U5) (pin 16))
      (node (ref P1) (pin 4))
      (node (ref DISPLAY2) (pin 1))
      (node (ref U5) (pin 10))
      (node (ref P6) (pin 1))
      (node (ref R10K_1) (pin 1))
      (node (ref U2) (pin 16))
      (node (ref IC1) (pin 4))
      (node (ref IC1) (pin 6))
      (node (ref U7) (pin 10))
      (node (ref U4) (pin 10))
      (node (ref U7) (pin 16)))
    (net (code 11) (name /LedBoard/LED7)
      (node (ref R14) (pin 1))
      (node (ref U7) (pin 6)))
    (net (code 12) (name /LedBoard/LED8)
      (node (ref R16) (pin 1))
      (node (ref U7) (pin 7)))
    (net (code 13) (name /LedBoard/LED6)
      (node (ref U7) (pin 5))
      (node (ref R12) (pin 1)))
    (net (code 14) (name /LedBoard/LED5)
      (node (ref U7) (pin 4))
      (node (ref R10) (pin 1)))
    (net (code 15) (name /LedBoard/LED4)
      (node (ref R8) (pin 1))
      (node (ref U7) (pin 3)))
    (net (code 16) (name /LedBoard/LED3)
      (node (ref U7) (pin 2))
      (node (ref R6) (pin 1)))
    (net (code 17) (name /LedBoard/sheet57CB6EEA/BH)
      (node (ref U8) (pin 7)))
    (net (code 18) (name /LedBoard/sheet57CB6EEA/BG)
      (node (ref U8) (pin 6)))
    (net (code 19) (name /LedBoard/sheet57CB6EEA/BF)
      (node (ref U8) (pin 5)))
    (net (code 20) (name /LedBoard/sheet57CB6EEA/BE)
      (node (ref U8) (pin 4)))
    (net (code 21) (name /LedBoard/sheet57CB6EEA/BD)
      (node (ref U8) (pin 3)))
    (net (code 22) (name /LedBoard/LED2)
      (node (ref R4) (pin 1))
      (node (ref U7) (pin 1)))
    (net (code 23) (name /LedBoard/HGND)
      (node (ref R13) (pin 2))
      (node (ref R5) (pin 2))
      (node (ref Q3) (pin 1))
      (node (ref Q1) (pin 1))
      (node (ref Q11) (pin 1))
      (node (ref R3) (pin 2))
      (node (ref R9) (pin 2))
      (node (ref R7) (pin 2))
      (node (ref Q7) (pin 1))
      (node (ref R11) (pin 2))
      (node (ref CON1) (pin 3))
      (node (ref CON1) (pin 2))
      (node (ref Q9) (pin 1))
      (node (ref U6) (pin 2))
      (node (ref P8) (pin 1))
      (node (ref Q5) (pin 1))
      (node (ref R21) (pin 2))
      (node (ref R25) (pin 2))
      (node (ref R17) (pin 2))
      (node (ref Q20) (pin 1))
      (node (ref Q19) (pin 3))
      (node (ref Q15) (pin 1))
      (node (ref Q17) (pin 1))
      (node (ref R15) (pin 2))
      (node (ref Q25) (pin 3))
      (node (ref Q22) (pin 3))
      (node (ref Q23) (pin 1))
      (node (ref Q13) (pin 1))
      (node (ref R29) (pin 2)))
    (net (code 24) (name /LedBoard/LED1)
      (node (ref U7) (pin 15))
      (node (ref R2) (pin 1)))
    (net (code 25) (name /LedBoard/HV_SWITCH)
      (node (ref U8) (pin 2))
      (node (ref R26) (pin 2)))
    (net (code 26) (name /LedBoard/BUCK2)
      (node (ref R18) (pin 2))
      (node (ref U8) (pin 1)))
    (net (code 27) (name /LedBoard/BUCK1)
      (node (ref U8) (pin 15))
      (node (ref R22) (pin 2)))
    (net (code 28) (name /LedBoard/12V)
      (node (ref P27) (pin 1))
      (node (ref P7) (pin 1))
      (node (ref R27) (pin 2))
      (node (ref Q24) (pin 3))
      (node (ref U6) (pin 1))
      (node (ref CON1) (pin 1)))
    (net (code 29) (name /LedBoard/16V)
      (node (ref U10) (pin 1))
      (node (ref Q21) (pin 3))
      (node (ref R19) (pin 2))
      (node (ref U9) (pin 1))
      (node (ref R23) (pin 2))
      (node (ref P25) (pin 1))
      (node (ref P29) (pin 1))
      (node (ref P23) (pin 1))
      (node (ref Q18) (pin 3)))
    (net (code 30) (name /LedBoard/14V)
      (node (ref U9) (pin 3))
      (node (ref P13) (pin 1))
      (node (ref P15) (pin 1))
      (node (ref P11) (pin 1)))
    (net (code 31) (name /LedBoard/15V)
      (node (ref U10) (pin 3))
      (node (ref P17) (pin 1))
      (node (ref P21) (pin 1))
      (node (ref P19) (pin 1)))
    (net (code 32) (name /McuBoard/MISO)
      (node (ref P2) (pin 9))
      (node (ref IC1) (pin 16))
      (node (ref P5) (pin 8)))
    (net (code 33) (name /McuBoard/PB1)
      (node (ref IC1) (pin 13))
      (node (ref P5) (pin 5)))
    (net (code 34) (name /McuBoard/PB0)
      (node (ref IC1) (pin 12))
      (node (ref P5) (pin 4)))
    (net (code 35) (name /McuBoard/PD4)
      (node (ref IC1) (pin 2))
      (node (ref P1) (pin 2)))
    (net (code 36) (name /McuBoard/PD3)
      (node (ref IC1) (pin 1))
      (node (ref P1) (pin 1)))
    (net (code 37) (name /McuBoard/PD5)
      (node (ref P5) (pin 1))
      (node (ref IC1) (pin 9)))
    (net (code 38) (name /McuBoard/PD6)
      (node (ref P5) (pin 2))
      (node (ref IC1) (pin 10)))
    (net (code 39) (name /McuBoard/PD7)
      (node (ref P5) (pin 3))
      (node (ref IC1) (pin 11)))
    (net (code 40) (name /McuBoard/PC2)
      (node (ref IC1) (pin 25))
      (node (ref P10) (pin 1)))
    (net (code 41) (name "Net-(P10-Pad5)")
      (node (ref P10) (pin 5)))
    (net (code 42) (name /McuBoard/PC5)
      (node (ref P10) (pin 4))
      (node (ref IC1) (pin 28)))
    (net (code 43) (name /McuBoard/PC4)
      (node (ref P10) (pin 3))
      (node (ref IC1) (pin 27)))
    (net (code 44) (name /McuBoard/PD0)
      (node (ref P10) (pin 6))
      (node (ref IC1) (pin 30)))
    (net (code 45) (name /McuBoard/PD1)
      (node (ref P10) (pin 7))
      (node (ref IC1) (pin 31)))
    (net (code 46) (name /McuBoard/PD2)
      (node (ref IC1) (pin 32))
      (node (ref P10) (pin 8)))
    (net (code 47) (name /McuBoard/ADC6)
      (node (ref IC1) (pin 19))
      (node (ref P9) (pin 3)))
    (net (code 48) (name /McuBoard/ADC7)
      (node (ref P9) (pin 6))
      (node (ref IC1) (pin 22)))
    (net (code 49) (name /McuBoard/PC1)
      (node (ref IC1) (pin 24))
      (node (ref P9) (pin 8)))
    (net (code 50) (name /McuBoard/RST)
      (node (ref P2) (pin 5))
      (node (ref IC1) (pin 29))
      (node (ref R10K_1) (pin 2)))
    (net (code 51) (name "Net-(P2-Pad8)")
      (node (ref P2) (pin 8)))
    (net (code 52) (name "Net-(P2-Pad6)")
      (node (ref P2) (pin 6)))
    (net (code 53) (name "Net-(P2-Pad3)")
      (node (ref P2) (pin 3)))
    (net (code 54) (name "Net-(P2-Pad4)")
      (node (ref P2) (pin 4)))
    (net (code 55) (name "Net-(D1-Pad2)")
      (node (ref P2) (pin 2))
      (node (ref D1) (pin 2)))
    (net (code 56) (name /McuBoard/AREF)
      (node (ref IC1) (pin 20))
      (node (ref P9) (pin 4)))
    (net (code 57) (name /McuBoard/PB7)
      (node (ref P1) (pin 8))
      (node (ref Y1) (pin 2))
      (node (ref C2) (pin 1))
      (node (ref IC1) (pin 8)))
    (net (code 58) (name /McuBoard/PB6)
      (node (ref P1) (pin 7))
      (node (ref Y1) (pin 1))
      (node (ref C1) (pin 1))
      (node (ref IC1) (pin 7)))
    (net (code 59) (name /McuBoard/PC3)
      (node (ref P10) (pin 2))
      (node (ref IC1) (pin 26)))
    (net (code 60) (name "Net-(D1-Pad1)")
      (node (ref D2) (pin 1))
      (node (ref D1) (pin 1))
      (node (ref R1) (pin 2)))
    (net (code 61) (name /SwitchBoard/sheet57C83F44/BD)
      (node (ref D14) (pin 2))
      (node (ref U5) (pin 3)))
    (net (code 62) (name /SwitchBoard/sheet57C83F44/BE)
      (node (ref U5) (pin 4))
      (node (ref D15) (pin 2)))
    (net (code 63) (name /SwitchBoard/sheet57C83F44/BF)
      (node (ref D16) (pin 2))
      (node (ref U5) (pin 5)))
    (net (code 64) (name /SwitchBoard/sheet57C83F44/BG)
      (node (ref U5) (pin 6))
      (node (ref D17) (pin 2)))
    (net (code 65) (name /SwitchBoard/sheet57C83F44/BH)
      (node (ref U5) (pin 7))
      (node (ref D18) (pin 2)))
    (net (code 66) (name /SwitchBoard/sheet57C83F44/BC)
      (node (ref D13) (pin 2))
      (node (ref U5) (pin 2)))
    (net (code 67) (name "Net-(D7-Pad1)")
      (node (ref SW10) (pin 1))
      (node (ref D7) (pin 1)))
    (net (code 68) (name "Net-(D6-Pad1)")
      (node (ref SW13) (pin 1))
      (node (ref D6) (pin 1)))
    (net (code 69) (name "Net-(D5-Pad1)")
      (node (ref SW1) (pin 1))
      (node (ref D5) (pin 1)))
    (net (code 70) (name "Net-(D4-Pad1)")
      (node (ref SW5) (pin 1))
      (node (ref D4) (pin 1)))
    (net (code 71) (name "Net-(D3-Pad1)")
      (node (ref D3) (pin 1))
      (node (ref SW9) (pin 1)))
    (net (code 72) (name /SwitchBoard/sheet57C83F44/BB)
      (node (ref D12) (pin 2))
      (node (ref U5) (pin 1)))
    (net (code 73) (name /SwitchBoard/sheet57C83F44/AC)
      (node (ref D5) (pin 2))
      (node (ref U4) (pin 2)))
    (net (code 74) (name /SwitchBoard/sheet57C83F44/AA)
      (node (ref U4) (pin 15))
      (node (ref D3) (pin 2)))
    (net (code 75) (name /SwitchBoard/sheet57C83F44/AB)
      (node (ref U4) (pin 1))
      (node (ref D4) (pin 2)))
    (net (code 76) (name "Net-(D9-Pad1)")
      (node (ref D9) (pin 1))
      (node (ref SW2) (pin 1)))
    (net (code 77) (name "Net-(D16-Pad1)")
      (node (ref SW8) (pin 1))
      (node (ref D16) (pin 1)))
    (net (code 78) (name "Net-(D12-Pad1)")
      (node (ref D12) (pin 1))
      (node (ref SW7) (pin 1)))
    (net (code 79) (name "Net-(D13-Pad1)")
      (node (ref D13) (pin 1))
      (node (ref SW3) (pin 1)))
    (net (code 80) (name "Net-(D14-Pad1)")
      (node (ref SW15) (pin 1))
      (node (ref D14) (pin 1)))
    (net (code 81) (name "Net-(D15-Pad1)")
      (node (ref D15) (pin 1))
      (node (ref SW12) (pin 1)))
    (net (code 82) (name /SwitchBoard/sheet57C83F44/BA)
      (node (ref U5) (pin 15))
      (node (ref D11) (pin 2)))
    (net (code 83) (name "Net-(D17-Pad1)")
      (node (ref SW4) (pin 1))
      (node (ref D17) (pin 1)))
    (net (code 84) (name "Net-(D18-Pad1)")
      (node (ref D18) (pin 1))
      (node (ref SW16) (pin 1)))
    (net (code 85) (name /SwitchBoard/sheet57C83F44/AE)
      (node (ref D7) (pin 2))
      (node (ref U4) (pin 4)))
    (net (code 86) (name /SwitchBoard/sheet57C83F44/AD)
      (node (ref D6) (pin 2))
      (node (ref U4) (pin 3)))
    (net (code 87) (name "Net-(D8-Pad1)")
      (node (ref SW6) (pin 1))
      (node (ref D8) (pin 1)))
    (net (code 88) (name /SwitchBoard/sheet57C83F44/AF)
      (node (ref D8) (pin 2))
      (node (ref U4) (pin 5)))
    (net (code 89) (name /SwitchBoard/sheet57C83F44/AG)
      (node (ref D9) (pin 2))
      (node (ref U4) (pin 6)))
    (net (code 90) (name "Net-(D10-Pad1)")
      (node (ref SW14) (pin 1))
      (node (ref D10) (pin 1)))
    (net (code 91) (name /SwitchBoard/sheet57C83F44/AH)
      (node (ref U4) (pin 7))
      (node (ref D10) (pin 2)))
    (net (code 92) (name "Net-(D11-Pad1)")
      (node (ref SW11) (pin 1))
      (node (ref D11) (pin 1)))
    (net (code 93) (name /Display/sheet57CBF124/BB)
      (node (ref RS7) (pin 2))
      (node (ref U3) (pin 1)))
    (net (code 94) (name /Display/sheet57CBF124/BA)
      (node (ref U3) (pin 15))
      (node (ref RS2) (pin 2)))
    (net (code 95) (name /Display/sheet57CBF124/AH)
      (node (ref U2) (pin 7))
      (node (ref RS6) (pin 2)))
    (net (code 96) (name /Display/sheet57CBF124/AG)
      (node (ref U2) (pin 6))
      (node (ref RD3) (pin 2)))
    (net (code 97) (name /Display/sheet57CBF124/AF)
      (node (ref U2) (pin 5))
      (node (ref RS5) (pin 2)))
    (net (code 98) (name /Display/sheet57CBF124/AE)
      (node (ref RD2) (pin 2))
      (node (ref U2) (pin 4)))
    (net (code 99) (name /Display/sheet57CBF124/AD)
      (node (ref U2) (pin 3))
      (node (ref RD4) (pin 2)))
    (net (code 100) (name /Display/sheet57CBF124/AC)
      (node (ref RS1) (pin 2))
      (node (ref U2) (pin 2)))
    (net (code 101) (name /Display/sheet57CBF124/AB)
      (node (ref U2) (pin 1))
      (node (ref RS4) (pin 2)))
    (net (code 102) (name /Display/sheet57CBF124/AA)
      (node (ref RD1) (pin 2))
      (node (ref U2) (pin 15)))
    (net (code 103) (name /Display/sheet57CBF124/BC)
      (node (ref RS3) (pin 2))
      (node (ref U3) (pin 2)))
    (net (code 104) (name /Display/sheet57CBF124/BD)
      (node (ref U3) (pin 3))
      (node (ref RS8) (pin 2)))
    (net (code 105) (name /Display/sheet57CBF124/BE)
      (node (ref U3) (pin 4)))
    (net (code 106) (name /Display/sheet57CBF124/BF)
      (node (ref U3) (pin 5)))
    (net (code 107) (name /Display/sheet57CBF124/BG)
      (node (ref U3) (pin 6)))
    (net (code 108) (name /Display/sheet57CBF124/BH)
      (node (ref U3) (pin 7)))
    (net (code 109) (name "Net-(RS8-Pad1)")
      (node (ref U1) (pin 12))
      (node (ref RS8) (pin 1)))
    (net (code 110) (name "Net-(RS3-Pad1)")
      (node (ref RS3) (pin 1))
      (node (ref U1) (pin 11)))
    (net (code 111) (name "Net-(RS4-Pad1)")
      (node (ref RS4) (pin 1))
      (node (ref U1) (pin 2)))
    (net (code 112) (name "Net-(RS1-Pad1)")
      (node (ref U1) (pin 3))
      (node (ref RS1) (pin 1)))
    (net (code 113) (name "Net-(RD4-Pad1)")
      (node (ref U1) (pin 4))
      (node (ref RD4) (pin 1)))
    (net (code 114) (name "Net-(RD2-Pad1)")
      (node (ref RD2) (pin 1))
      (node (ref U1) (pin 5)))
    (net (code 115) (name "Net-(RS5-Pad1)")
      (node (ref U1) (pin 6))
      (node (ref RS5) (pin 1)))
    (net (code 116) (name "Net-(RD3-Pad1)")
      (node (ref RD3) (pin 1))
      (node (ref U1) (pin 7)))
    (net (code 117) (name "Net-(RS6-Pad1)")
      (node (ref U1) (pin 8))
      (node (ref RS6) (pin 1)))
    (net (code 118) (name "Net-(RS2-Pad1)")
      (node (ref U1) (pin 9))
      (node (ref RS2) (pin 1)))
    (net (code 119) (name "Net-(RS7-Pad1)")
      (node (ref U1) (pin 10))
      (node (ref RS7) (pin 1)))
    (net (code 120) (name "Net-(RD1-Pad1)")
      (node (ref RD1) (pin 1))
      (node (ref U1) (pin 1)))
    (net (code 121) (name "Net-(U7-Pad9)")
      (node (ref U8) (pin 14))
      (node (ref U7) (pin 9)))
    (net (code 122) (name "Net-(Q1-Pad2)")
      (node (ref R3) (pin 1))
      (node (ref Q1) (pin 2))
      (node (ref Q2) (pin 3)))
    (net (code 123) (name "Net-(P12-Pad1)")
      (node (ref P12) (pin 1))
      (node (ref Q2) (pin 2)))
    (net (code 124) (name "Net-(Q1-Pad3)")
      (node (ref Q2) (pin 1))
      (node (ref Q1) (pin 3))
      (node (ref R2) (pin 2)))
    (net (code 125) (name "Net-(P14-Pad1)")
      (node (ref Q4) (pin 2))
      (node (ref P14) (pin 1)))
    (net (code 126) (name "Net-(Q3-Pad2)")
      (node (ref Q4) (pin 3))
      (node (ref R5) (pin 1))
      (node (ref Q3) (pin 2)))
    (net (code 127) (name "Net-(Q3-Pad3)")
      (node (ref Q4) (pin 1))
      (node (ref Q3) (pin 3))
      (node (ref R4) (pin 2)))
    (net (code 128) (name "Net-(P16-Pad1)")
      (node (ref P16) (pin 1))
      (node (ref Q6) (pin 2)))
    (net (code 129) (name "Net-(Q5-Pad3)")
      (node (ref R6) (pin 2))
      (node (ref Q5) (pin 3))
      (node (ref Q6) (pin 1)))
    (net (code 130) (name "Net-(Q5-Pad2)")
      (node (ref R7) (pin 1))
      (node (ref Q6) (pin 3))
      (node (ref Q5) (pin 2)))
    (net (code 131) (name "Net-(P18-Pad1)")
      (node (ref P18) (pin 1))
      (node (ref Q8) (pin 2)))
    (net (code 132) (name "Net-(Q7-Pad2)")
      (node (ref R9) (pin 1))
      (node (ref Q8) (pin 3))
      (node (ref Q7) (pin 2)))
    (net (code 133) (name "Net-(Q7-Pad3)")
      (node (ref Q7) (pin 3))
      (node (ref Q8) (pin 1))
      (node (ref R8) (pin 2)))
    (net (code 134) (name "Net-(Q10-Pad3)")
      (node (ref R11) (pin 1))
      (node (ref Q10) (pin 3))
      (node (ref Q9) (pin 2)))
    (net (code 135) (name "Net-(P20-Pad1)")
      (node (ref Q10) (pin 2))
      (node (ref P20) (pin 1)))
    (net (code 136) (name "Net-(Q10-Pad1)")
      (node (ref R10) (pin 2))
      (node (ref Q9) (pin 3))
      (node (ref Q10) (pin 1)))
    (net (code 137) (name "Net-(Q11-Pad2)")
      (node (ref Q12) (pin 3))
      (node (ref Q11) (pin 2))
      (node (ref R13) (pin 1)))
    (net (code 138) (name "Net-(P22-Pad1)")
      (node (ref P22) (pin 1))
      (node (ref Q12) (pin 2)))
    (net (code 139) (name "Net-(Q11-Pad3)")
      (node (ref Q11) (pin 3))
      (node (ref R12) (pin 2))
      (node (ref Q12) (pin 1)))
    (net (code 140) (name "Net-(P24-Pad1)")
      (node (ref Q14) (pin 2))
      (node (ref P24) (pin 1)))
    (net (code 141) (name "Net-(Q13-Pad2)")
      (node (ref Q13) (pin 2))
      (node (ref R15) (pin 1))
      (node (ref Q14) (pin 3)))
    (net (code 142) (name "Net-(Q13-Pad3)")
      (node (ref Q14) (pin 1))
      (node (ref R14) (pin 2))
      (node (ref Q13) (pin 3)))
    (net (code 143) (name "Net-(Q15-Pad2)")
      (node (ref Q15) (pin 2))
      (node (ref Q16) (pin 3))
      (node (ref R17) (pin 1)))
    (net (code 144) (name "Net-(P26-Pad1)")
      (node (ref Q16) (pin 2))
      (node (ref P26) (pin 1)))
    (net (code 145) (name "Net-(Q15-Pad3)")
      (node (ref R16) (pin 2))
      (node (ref Q15) (pin 3))
      (node (ref Q16) (pin 1)))
    (net (code 146) (name "Net-(Q17-Pad3)")
      (node (ref R20) (pin 2))
      (node (ref Q17) (pin 3)))
    (net (code 147) (name "Net-(Q18-Pad2)")
      (node (ref Q18) (pin 2))
      (node (ref R20) (pin 1))
      (node (ref R19) (pin 1)))
    (net (code 148) (name "Net-(Q17-Pad2)")
      (node (ref R18) (pin 1))
      (node (ref Q17) (pin 2)))
    (net (code 149) (name "Net-(Q19-Pad2)")
      (node (ref U9) (pin 4))
      (node (ref Q19) (pin 2))
      (node (ref U9) (pin 2)))
    (net (code 150) (name "Net-(Q18-Pad1)")
      (node (ref R21) (pin 1))
      (node (ref Q18) (pin 1))
      (node (ref Q19) (pin 1)))
    (net (code 151) (name "Net-(Q20-Pad3)")
      (node (ref R24) (pin 2))
      (node (ref Q20) (pin 3)))
    (net (code 152) (name "Net-(Q21-Pad2)")
      (node (ref Q21) (pin 2))
      (node (ref R24) (pin 1))
      (node (ref R23) (pin 1)))
    (net (code 153) (name "Net-(Q20-Pad2)")
      (node (ref R22) (pin 1))
      (node (ref Q20) (pin 2)))
    (net (code 154) (name "Net-(Q22-Pad2)")
      (node (ref U10) (pin 2))
      (node (ref U10) (pin 4))
      (node (ref Q22) (pin 2)))
    (net (code 155) (name "Net-(Q21-Pad1)")
      (node (ref Q22) (pin 1))
      (node (ref Q21) (pin 1))
      (node (ref R25) (pin 1)))
    (net (code 156) (name "Net-(P28-Pad1)")
      (node (ref Q25) (pin 2))
      (node (ref P30) (pin 1))
      (node (ref P28) (pin 1)))
    (net (code 157) (name "Net-(Q24-Pad2)")
      (node (ref R28) (pin 1))
      (node (ref Q24) (pin 2))
      (node (ref R27) (pin 1)))
    (net (code 158) (name "Net-(Q23-Pad3)")
      (node (ref Q23) (pin 3))
      (node (ref R28) (pin 2)))
    (net (code 159) (name "Net-(Q24-Pad1)")
      (node (ref Q25) (pin 1))
      (node (ref Q24) (pin 1))
      (node (ref R29) (pin 1)))
    (net (code 160) (name "Net-(Q23-Pad2)")
      (node (ref Q23) (pin 2))
      (node (ref R26) (pin 1)))
    (net (code 161) (name "Net-(U4-Pad9)")
      (node (ref U4) (pin 9))
      (node (ref U5) (pin 14)))
    (net (code 162) (name "Net-(U2-Pad9)")
      (node (ref U2) (pin 9))
      (node (ref U3) (pin 14)))))