EESchema Schematic File Version 2
LIBS:rur
LIBS:power
LIBS:device
LIBS:transistors
LIBS:conn
LIBS:linear
LIBS:regul
LIBS:74xx
LIBS:cmos4000
LIBS:adc-dac
LIBS:memory
LIBS:xilinx
LIBS:microcontrollers
LIBS:dsp
LIBS:microchip
LIBS:analog_switches
LIBS:motorola
LIBS:texas
LIBS:intel
LIBS:audio
LIBS:interface
LIBS:digital-audio
LIBS:philips
LIBS:display
LIBS:cypress
LIBS:siliconi
LIBS:opto
LIBS:atmel
LIBS:contrib
LIBS:valves
LIBS:smiley-component
LIBS:lamp_v2-cache
EELAYER 25 0
EELAYER END
$Descr A4 11693 8268
encoding utf-8
Sheet 1 19
Title ""
Date ""
Rev ""
Comp ""
Comment1 ""
Comment2 ""
Comment3 ""
Comment4 ""
$EndDescr
$Sheet
S 8900 2450 1800 2050
U 57CBD35E
F0 "Display" 60
F1 "Display.sch" 60
F2 "SER_OUT" O R 10700 4000 60 
F3 "SER_IN" I L 8900 3200 60 
F4 "LATCH" I L 8900 2900 60 
F5 "CLOCK" I L 8900 3100 60 
$EndSheet
$Sheet
S 1300 2500 2000 1950
U 57C3DA02
F0 "McuBoard" 60
F1 "McuBoard.sch" 60
F2 "SCK" O R 3300 3100 60 
F3 "LATCH" O R 3300 2900 60 
F4 "SER_OUT" O R 3300 3200 60 
F5 "VCC" O R 3300 3000 60 
F6 "BTN" O R 3300 2800 60 
F7 "GND" O R 3300 3300 60 
F8 "5V_IN" I R 3300 3900 60 
F9 "GND_IN" I R 3300 4000 60 
$EndSheet
$Sheet
S 6450 2450 1950 2050
U 57C3DA1C
F0 "SwitchBoard" 60
F1 "SwitchBoard.sch" 60
F2 "SCK" I L 6450 3100 60 
F3 "LATCH" I L 6450 2900 60 
F4 "SER_IN" I L 6450 3200 60 
F5 "VCC" I L 6450 3000 60 
F6 "BTN" I L 6450 2800 60 
F7 "GND" I L 6450 3300 60 
F8 "O_SCK" O R 8400 3100 60 
F9 "O_LATCH" O R 8400 2900 60 
F10 "SER_OUT" O R 8400 3200 60 
F11 "O_VCC" O R 8400 3000 60 
F12 "O_BTN" O R 8400 2800 60 
F13 "O_GND" O R 8400 3300 60 
$EndSheet
$Sheet
S 3950 2500 2000 2050
U 57C3D9FF
F0 "LedBoard" 60
F1 "LedBoard.sch" 60
F2 "SCK" I L 3950 3100 60 
F3 "LATCH" I L 3950 2900 60 
F4 "SER_IN" I L 3950 3200 60 
F5 "VCC" I L 3950 3000 60 
F6 "BTN" I L 3950 2800 60 
F7 "5V_OUT" O L 3950 3900 60 
F8 "GND_OUT" O L 3950 4000 60 
F9 "GND" I L 3950 3300 60 
F10 "GND_OUT2" O R 5950 3300 60 
F11 "SER_OUT" O R 5950 3200 60 
F12 "VCC_OUT" O R 5950 3000 60 
F13 "BTN_OUT" O R 5950 2800 60 
F14 "LATCH_OUT" O R 5950 2900 60 
F15 "SCK_OUT" O R 5950 3100 60 
$EndSheet
Wire Wire Line
	3300 2800 3950 2800
Wire Wire Line
	3300 2900 3950 2900
Wire Wire Line
	3300 3000 3950 3000
Wire Wire Line
	3300 3100 3950 3100
Wire Wire Line
	3300 3200 3950 3200
Wire Wire Line
	3300 3300 3950 3300
Wire Wire Line
	3300 3900 3950 3900
Wire Wire Line
	3300 4000 3950 4000
Wire Wire Line
	5950 2800 6450 2800
Wire Wire Line
	5950 2900 6450 2900
Wire Wire Line
	5950 3000 6450 3000
Wire Wire Line
	5950 3100 6450 3100
Wire Wire Line
	5950 3200 6450 3200
Wire Wire Line
	5950 3300 6450 3300
Wire Wire Line
	8400 2900 8900 2900
Wire Wire Line
	8400 3100 8900 3100
Wire Wire Line
	8400 3200 8900 3200
NoConn ~ 10700 4000
$EndSCHEMATC
