EESchema Schematic File Version 2
LIBS:rur
LIBS:power
LIBS:device
LIBS:transistors
LIBS:conn
LIBS:linear
LIBS:regul
LIBS:74xx
LIBS:cmos4000
LIBS:adc-dac
LIBS:memory
LIBS:xilinx
LIBS:microcontrollers
LIBS:dsp
LIBS:microchip
LIBS:analog_switches
LIBS:motorola
LIBS:texas
LIBS:intel
LIBS:audio
LIBS:interface
LIBS:digital-audio
LIBS:philips
LIBS:display
LIBS:cypress
LIBS:siliconi
LIBS:opto
LIBS:atmel
LIBS:contrib
LIBS:valves
LIBS:smiley-component
LIBS:lamp_v2-cache
EELAYER 25 0
EELAYER END
$Descr A4 11693 8268
encoding utf-8
Sheet 5 19
Title ""
Date ""
Rev ""
Comp ""
Comment1 ""
Comment2 ""
Comment3 ""
Comment4 ""
$EndDescr
Text HLabel 3500 1450 2    60   Input ~ 0
SCK
Text HLabel 3500 1150 2    60   Input ~ 0
LATCH
Text HLabel 3500 1350 2    60   Input ~ 0
SER_IN
Text HLabel 3500 1250 2    60   Input ~ 0
VCC
Text HLabel 3500 1050 2    60   Input ~ 0
BTN
Text HLabel 3500 1550 2    60   Input ~ 0
GND
$Sheet
S 5700 1100 1000 2100
U 57C83F5A
F0 "sheet57C83F44" 60
F1 "DoubleShift.sch" 60
F2 "SER_IN" I L 5700 1400 60 
F3 "LATCH" I L 5700 1500 60 
F4 "CLOCK" I L 5700 1600 60 
F5 "SER_OUT" O R 6700 2950 60 
F6 "AA" O R 6700 1350 60 
F7 "AB" O R 6700 1450 60 
F8 "AC" O R 6700 1550 60 
F9 "AD" O R 6700 1650 60 
F10 "AE" O R 6700 1750 60 
F11 "AF" O R 6700 1850 60 
F12 "AG" O R 6700 1950 60 
F13 "AH" O R 6700 2050 60 
F14 "BA" O R 6700 2150 60 
F15 "BB" O R 6700 2250 60 
F16 "BC" O R 6700 2350 60 
F17 "BD" O R 6700 2450 60 
F18 "BE" O R 6700 2550 60 
F19 "BF" O R 6700 2650 60 
F20 "BG" O R 6700 2750 60 
F21 "BH" O R 6700 2850 60 
$EndSheet
$Comp
L SW_PUSH_SMALL_H SW9
U 1 1 57C9064E
P 8250 1350
F 0 "SW9" H 8330 1460 50  0000 C CNN
F 1 "SW_PUSH_SMALL_H" H 8610 1290 50  0000 C CNN
F 2 "Buttons_Switches_ThroughHole:SW_TH_Tactile_Omron_B3F-10xx" H 8250 1550 50  0000 C CNN
F 3 "" H 8250 1550 50  0000 C CNN
	1    8250 1350
	1    0    0    -1  
$EndComp
$Comp
L SW_PUSH_SMALL_H SW5
U 1 1 57C90729
P 7900 1450
F 0 "SW5" H 7980 1560 50  0000 C CNN
F 1 "SW_PUSH_SMALL_H" H 8260 1390 50  0000 C CNN
F 2 "Buttons_Switches_ThroughHole:SW_TH_Tactile_Omron_B3F-10xx" H 7900 1650 50  0000 C CNN
F 3 "" H 7900 1650 50  0000 C CNN
	1    7900 1450
	1    0    0    -1  
$EndComp
$Comp
L SW_PUSH_SMALL_H SW1
U 1 1 57C907CA
P 7550 1550
F 0 "SW1" H 7630 1660 50  0000 C CNN
F 1 "SW_PUSH_SMALL_H" H 7910 1490 50  0000 C CNN
F 2 "Buttons_Switches_ThroughHole:SW_TH_Tactile_Omron_B3F-10xx" H 7550 1750 50  0000 C CNN
F 3 "" H 7550 1750 50  0000 C CNN
	1    7550 1550
	1    0    0    -1  
$EndComp
$Comp
L SW_PUSH_SMALL_H SW13
U 1 1 57C90891
P 8600 1650
F 0 "SW13" H 8680 1760 50  0000 C CNN
F 1 "SW_PUSH_SMALL_H" H 8960 1590 50  0000 C CNN
F 2 "Buttons_Switches_ThroughHole:SW_TH_Tactile_Omron_B3F-10xx" H 8600 1850 50  0000 C CNN
F 3 "" H 8600 1850 50  0000 C CNN
	1    8600 1650
	1    0    0    -1  
$EndComp
$Comp
L SW_PUSH_SMALL_H SW10
U 1 1 57C90940
P 8250 1750
F 0 "SW10" H 8330 1860 50  0000 C CNN
F 1 "SW_PUSH_SMALL_H" H 8610 1690 50  0000 C CNN
F 2 "Buttons_Switches_ThroughHole:SW_TH_Tactile_Omron_B3F-10xx" H 8250 1950 50  0000 C CNN
F 3 "" H 8250 1950 50  0000 C CNN
	1    8250 1750
	1    0    0    -1  
$EndComp
$Comp
L SW_PUSH_SMALL_H SW6
U 1 1 57C909DB
P 7900 1850
F 0 "SW6" H 7980 1960 50  0000 C CNN
F 1 "SW_PUSH_SMALL_H" H 8260 1790 50  0000 C CNN
F 2 "Buttons_Switches_ThroughHole:SW_TH_Tactile_Omron_B3F-10xx" H 7900 2050 50  0000 C CNN
F 3 "" H 7900 2050 50  0000 C CNN
	1    7900 1850
	1    0    0    -1  
$EndComp
$Comp
L SW_PUSH_SMALL_H SW2
U 1 1 57C90A82
P 7550 1950
F 0 "SW2" H 7630 2060 50  0000 C CNN
F 1 "SW_PUSH_SMALL_H" H 7910 1890 50  0000 C CNN
F 2 "Buttons_Switches_ThroughHole:SW_TH_Tactile_Omron_B3F-10xx" H 7550 2150 50  0000 C CNN
F 3 "" H 7550 2150 50  0000 C CNN
	1    7550 1950
	1    0    0    -1  
$EndComp
$Comp
L SW_PUSH_SMALL_H SW14
U 1 1 57C90B25
P 8600 2050
F 0 "SW14" H 8680 2160 50  0000 C CNN
F 1 "SW_PUSH_SMALL_H" H 8960 1990 50  0000 C CNN
F 2 "Buttons_Switches_ThroughHole:SW_TH_Tactile_Omron_B3F-10xx" H 8600 2250 50  0000 C CNN
F 3 "" H 8600 2250 50  0000 C CNN
	1    8600 2050
	1    0    0    -1  
$EndComp
$Comp
L SW_PUSH_SMALL_H SW11
U 1 1 57C90BD8
P 8250 2150
F 0 "SW11" H 8330 2260 50  0000 C CNN
F 1 "SW_PUSH_SMALL_H" H 8610 2090 50  0000 C CNN
F 2 "Buttons_Switches_ThroughHole:SW_TH_Tactile_Omron_B3F-10xx" H 8250 2350 50  0000 C CNN
F 3 "" H 8250 2350 50  0000 C CNN
	1    8250 2150
	1    0    0    -1  
$EndComp
$Comp
L SW_PUSH_SMALL_H SW7
U 1 1 57C90C79
P 7900 2250
F 0 "SW7" H 7980 2360 50  0000 C CNN
F 1 "SW_PUSH_SMALL_H" H 8260 2190 50  0000 C CNN
F 2 "Buttons_Switches_ThroughHole:SW_TH_Tactile_Omron_B3F-10xx" H 7900 2450 50  0000 C CNN
F 3 "" H 7900 2450 50  0000 C CNN
	1    7900 2250
	1    0    0    -1  
$EndComp
$Comp
L SW_PUSH_SMALL_H SW3
U 1 1 57C90D1E
P 7550 2350
F 0 "SW3" H 7630 2460 50  0000 C CNN
F 1 "SW_PUSH_SMALL_H" H 7910 2290 50  0000 C CNN
F 2 "Buttons_Switches_ThroughHole:SW_TH_Tactile_Omron_B3F-10xx" H 7550 2550 50  0000 C CNN
F 3 "" H 7550 2550 50  0000 C CNN
	1    7550 2350
	1    0    0    -1  
$EndComp
$Comp
L SW_PUSH_SMALL_H SW15
U 1 1 57C90FD1
P 8600 2450
F 0 "SW15" H 8680 2560 50  0000 C CNN
F 1 "SW_PUSH_SMALL_H" H 8960 2390 50  0000 C CNN
F 2 "Buttons_Switches_ThroughHole:SW_TH_Tactile_Omron_B3F-10xx" H 8600 2650 50  0000 C CNN
F 3 "" H 8600 2650 50  0000 C CNN
	1    8600 2450
	1    0    0    -1  
$EndComp
$Comp
L SW_PUSH_SMALL_H SW12
U 1 1 57C911C2
P 8250 2550
F 0 "SW12" H 8330 2660 50  0000 C CNN
F 1 "SW_PUSH_SMALL_H" H 8610 2490 50  0000 C CNN
F 2 "Buttons_Switches_ThroughHole:SW_TH_Tactile_Omron_B3F-10xx" H 8250 2750 50  0000 C CNN
F 3 "" H 8250 2750 50  0000 C CNN
	1    8250 2550
	1    0    0    -1  
$EndComp
$Comp
L SW_PUSH_SMALL_H SW8
U 1 1 57C9126D
P 7900 2650
F 0 "SW8" H 7980 2760 50  0000 C CNN
F 1 "SW_PUSH_SMALL_H" H 8260 2590 50  0000 C CNN
F 2 "Buttons_Switches_ThroughHole:SW_TH_Tactile_Omron_B3F-10xx" H 7900 2850 50  0000 C CNN
F 3 "" H 7900 2850 50  0000 C CNN
	1    7900 2650
	1    0    0    -1  
$EndComp
$Comp
L SW_PUSH_SMALL_H SW4
U 1 1 57C91318
P 7550 2750
F 0 "SW4" H 7630 2860 50  0000 C CNN
F 1 "SW_PUSH_SMALL_H" H 7910 2690 50  0000 C CNN
F 2 "Buttons_Switches_ThroughHole:SW_TH_Tactile_Omron_B3F-10xx" H 7550 2950 50  0000 C CNN
F 3 "" H 7550 2950 50  0000 C CNN
	1    7550 2750
	1    0    0    -1  
$EndComp
$Comp
L SW_PUSH_SMALL_H SW16
U 1 1 57C913CF
P 8600 2850
F 0 "SW16" H 8680 2960 50  0000 C CNN
F 1 "SW_PUSH_SMALL_H" H 8960 2790 50  0000 C CNN
F 2 "Buttons_Switches_ThroughHole:SW_TH_Tactile_Omron_B3F-10xx" H 8600 3050 50  0000 C CNN
F 3 "" H 8600 3050 50  0000 C CNN
	1    8600 2850
	1    0    0    -1  
$EndComp
Wire Wire Line
	5100 1150 5100 1500
Wire Wire Line
	5100 1500 5700 1500
Wire Wire Line
	3400 1400 5700 1400
Wire Wire Line
	5000 1450 5000 1600
Wire Wire Line
	5000 1600 5700 1600
Wire Wire Line
	7100 1350 8100 1350
Wire Wire Line
	7100 1450 7750 1450
Wire Wire Line
	7100 1550 7400 1550
Wire Wire Line
	7100 1650 8450 1650
Wire Wire Line
	7100 1750 8100 1750
Wire Wire Line
	7100 1850 7750 1850
Wire Wire Line
	7100 1950 7400 1950
Wire Wire Line
	7100 2050 8450 2050
Wire Wire Line
	7100 2150 8100 2150
Wire Wire Line
	7100 2250 7750 2250
Wire Wire Line
	7100 2350 7400 2350
Wire Wire Line
	7100 2450 8450 2450
Wire Wire Line
	7100 2550 8100 2550
Wire Wire Line
	7100 2650 7750 2650
Wire Wire Line
	7100 2750 7400 2750
Wire Wire Line
	7100 2850 8450 2850
Wire Wire Line
	8400 1350 10450 1350
Wire Wire Line
	8050 1450 9600 1450
Wire Wire Line
	7700 1550 9600 1550
Wire Wire Line
	8750 1650 9600 1650
Wire Wire Line
	8400 1750 9600 1750
Wire Wire Line
	8050 1850 9600 1850
Wire Wire Line
	7700 1950 9600 1950
Wire Wire Line
	8750 2050 9600 2050
Wire Wire Line
	8400 2150 9600 2150
Wire Wire Line
	8050 2250 9600 2250
Wire Wire Line
	7700 2350 9600 2350
Wire Wire Line
	8750 2450 9600 2450
Wire Wire Line
	8400 2550 9600 2550
Wire Wire Line
	8050 2650 9600 2650
Wire Wire Line
	7700 2750 9600 2750
Wire Wire Line
	8750 2850 9600 2850
$Comp
L D_Schottky_Small D3
U 1 1 57C94B94
P 7000 1350
F 0 "D3" H 6950 1430 50  0000 L CNN
F 1 "D_Schottky_Small" H 6720 1270 50  0000 L CNN
F 2 "Diodes_SMD:SMA_Standard" V 7000 1350 50  0000 C CNN
F 3 "" V 7000 1350 50  0000 C CNN
	1    7000 1350
	-1   0    0    1   
$EndComp
$Comp
L D_Schottky_Small D4
U 1 1 57C94C67
P 7000 1450
F 0 "D4" H 6950 1530 50  0000 L CNN
F 1 "D_Schottky_Small" H 6720 1370 50  0000 L CNN
F 2 "Diodes_SMD:SMA_Standard" V 7000 1450 50  0000 C CNN
F 3 "" V 7000 1450 50  0000 C CNN
	1    7000 1450
	-1   0    0    1   
$EndComp
$Comp
L D_Schottky_Small D5
U 1 1 57C94D20
P 7000 1550
F 0 "D5" H 6950 1630 50  0000 L CNN
F 1 "D_Schottky_Small" H 6720 1470 50  0000 L CNN
F 2 "Diodes_SMD:SMA_Standard" V 7000 1550 50  0000 C CNN
F 3 "" V 7000 1550 50  0000 C CNN
	1    7000 1550
	-1   0    0    1   
$EndComp
$Comp
L D_Schottky_Small D6
U 1 1 57C94DD3
P 7000 1650
F 0 "D6" H 6950 1730 50  0000 L CNN
F 1 "D_Schottky_Small" H 6720 1570 50  0000 L CNN
F 2 "Diodes_SMD:SMA_Standard" V 7000 1650 50  0000 C CNN
F 3 "" V 7000 1650 50  0000 C CNN
	1    7000 1650
	-1   0    0    1   
$EndComp
$Comp
L D_Schottky_Small D7
U 1 1 57C94E88
P 7000 1750
F 0 "D7" H 6950 1830 50  0000 L CNN
F 1 "D_Schottky_Small" H 6720 1670 50  0000 L CNN
F 2 "Diodes_SMD:SMA_Standard" V 7000 1750 50  0000 C CNN
F 3 "" V 7000 1750 50  0000 C CNN
	1    7000 1750
	-1   0    0    1   
$EndComp
$Comp
L D_Schottky_Small D8
U 1 1 57C94F3F
P 7000 1850
F 0 "D8" H 6950 1930 50  0000 L CNN
F 1 "D_Schottky_Small" H 6720 1770 50  0000 L CNN
F 2 "Diodes_SMD:SMA_Standard" V 7000 1850 50  0000 C CNN
F 3 "" V 7000 1850 50  0000 C CNN
	1    7000 1850
	-1   0    0    1   
$EndComp
$Comp
L D_Schottky_Small D9
U 1 1 57C94FFC
P 7000 1950
F 0 "D9" H 6950 2030 50  0000 L CNN
F 1 "D_Schottky_Small" H 6720 1870 50  0000 L CNN
F 2 "Diodes_SMD:SMA_Standard" V 7000 1950 50  0000 C CNN
F 3 "" V 7000 1950 50  0000 C CNN
	1    7000 1950
	-1   0    0    1   
$EndComp
$Comp
L D_Schottky_Small D10
U 1 1 57C950BB
P 7000 2050
F 0 "D10" H 6950 2130 50  0000 L CNN
F 1 "D_Schottky_Small" H 6720 1970 50  0000 L CNN
F 2 "Diodes_SMD:SMA_Standard" V 7000 2050 50  0000 C CNN
F 3 "" V 7000 2050 50  0000 C CNN
	1    7000 2050
	-1   0    0    1   
$EndComp
$Comp
L D_Schottky_Small D11
U 1 1 57C95178
P 7000 2150
F 0 "D11" H 6950 2230 50  0000 L CNN
F 1 "D_Schottky_Small" H 6720 2070 50  0000 L CNN
F 2 "Diodes_SMD:SMA_Standard" V 7000 2150 50  0000 C CNN
F 3 "" V 7000 2150 50  0000 C CNN
	1    7000 2150
	-1   0    0    1   
$EndComp
$Comp
L D_Schottky_Small D12
U 1 1 57C9523B
P 7000 2250
F 0 "D12" H 6950 2330 50  0000 L CNN
F 1 "D_Schottky_Small" H 6720 2170 50  0000 L CNN
F 2 "Diodes_SMD:SMA_Standard" V 7000 2250 50  0000 C CNN
F 3 "" V 7000 2250 50  0000 C CNN
	1    7000 2250
	-1   0    0    1   
$EndComp
$Comp
L D_Schottky_Small D13
U 1 1 57C952FC
P 7000 2350
F 0 "D13" H 6950 2430 50  0000 L CNN
F 1 "D_Schottky_Small" H 6720 2270 50  0000 L CNN
F 2 "Diodes_SMD:SMA_Standard" V 7000 2350 50  0000 C CNN
F 3 "" V 7000 2350 50  0000 C CNN
	1    7000 2350
	-1   0    0    1   
$EndComp
$Comp
L D_Schottky_Small D14
U 1 1 57C953BF
P 7000 2450
F 0 "D14" H 6950 2530 50  0000 L CNN
F 1 "D_Schottky_Small" H 6720 2370 50  0000 L CNN
F 2 "Diodes_SMD:SMA_Standard" V 7000 2450 50  0000 C CNN
F 3 "" V 7000 2450 50  0000 C CNN
	1    7000 2450
	-1   0    0    1   
$EndComp
$Comp
L D_Schottky_Small D15
U 1 1 57C95488
P 7000 2550
F 0 "D15" H 6950 2630 50  0000 L CNN
F 1 "D_Schottky_Small" H 6720 2470 50  0000 L CNN
F 2 "Diodes_SMD:SMA_Standard" V 7000 2550 50  0000 C CNN
F 3 "" V 7000 2550 50  0000 C CNN
	1    7000 2550
	-1   0    0    1   
$EndComp
$Comp
L D_Schottky_Small D16
U 1 1 57C9554F
P 7000 2650
F 0 "D16" H 6950 2730 50  0000 L CNN
F 1 "D_Schottky_Small" H 6720 2570 50  0000 L CNN
F 2 "Diodes_SMD:SMA_Standard" V 7000 2650 50  0000 C CNN
F 3 "" V 7000 2650 50  0000 C CNN
	1    7000 2650
	-1   0    0    1   
$EndComp
$Comp
L D_Schottky_Small D17
U 1 1 57C95618
P 7000 2750
F 0 "D17" H 6950 2830 50  0000 L CNN
F 1 "D_Schottky_Small" H 6720 2670 50  0000 L CNN
F 2 "Diodes_SMD:SMA_Standard" V 7000 2750 50  0000 C CNN
F 3 "" V 7000 2750 50  0000 C CNN
	1    7000 2750
	-1   0    0    1   
$EndComp
$Comp
L D_Schottky_Small D18
U 1 1 57C956E3
P 7000 2850
F 0 "D18" H 6950 2930 50  0000 L CNN
F 1 "D_Schottky_Small" H 6720 2770 50  0000 L CNN
F 2 "Diodes_SMD:SMA_Standard" V 7000 2850 50  0000 C CNN
F 3 "" V 7000 2850 50  0000 C CNN
	1    7000 2850
	-1   0    0    1   
$EndComp
Wire Wire Line
	6700 1350 6900 1350
Wire Wire Line
	6700 1450 6900 1450
Wire Wire Line
	6700 1550 6900 1550
Wire Wire Line
	6700 1650 6900 1650
Wire Wire Line
	6700 1750 6900 1750
Wire Wire Line
	6700 1850 6900 1850
Wire Wire Line
	6700 1950 6900 1950
Wire Wire Line
	6700 2050 6900 2050
Wire Wire Line
	6700 2150 6900 2150
Wire Wire Line
	6700 2250 6900 2250
Wire Wire Line
	6700 2350 6900 2350
Wire Wire Line
	6700 2450 6900 2450
Wire Wire Line
	6700 2550 6900 2550
Wire Wire Line
	6700 2650 6900 2650
Wire Wire Line
	6700 2750 6900 2750
Wire Wire Line
	6700 2850 6900 2850
Connection ~ 9600 2850
Connection ~ 9600 2750
Connection ~ 9600 2650
Connection ~ 9600 2550
Connection ~ 9600 2450
Connection ~ 9600 2350
Connection ~ 9600 2250
Connection ~ 9600 2150
Connection ~ 9600 2050
Connection ~ 9600 1950
Connection ~ 9600 1850
Connection ~ 9600 1750
Connection ~ 9600 1650
Connection ~ 9600 1550
Connection ~ 9600 1450
Connection ~ 9600 1350
Text Label 10100 1350 2    60   ~ 0
BTN
Wire Wire Line
	9600 2850 9600 1350
Wire Wire Line
	6700 2950 7600 2950
Wire Wire Line
	2600 2900 3500 2900
Wire Wire Line
	2600 3000 3500 3000
Wire Wire Line
	2600 3100 3500 3100
Text Label 2850 2900 0    60   ~ 0
SER_OUT
Text Label 2850 2700 0    60   ~ 0
LATCH
Text Label 2850 3000 0    60   ~ 0
SCK
Text Label 2850 2800 0    60   ~ 0
VCC
Text Label 2850 2600 0    60   ~ 0
BTN
Text Label 2850 3100 0    60   ~ 0
GND
Wire Wire Line
	1200 2800 3500 2800
Wire Wire Line
	1150 2700 3500 2700
Wire Wire Line
	1100 2600 3500 2600
Text HLabel 3500 3000 2    60   Output ~ 0
O_SCK
Text HLabel 3500 2700 2    60   Output ~ 0
O_LATCH
Text HLabel 3500 2900 2    60   Output ~ 0
SER_OUT
Text HLabel 3500 2800 2    60   Output ~ 0
O_VCC
Text HLabel 3500 2600 2    60   Output ~ 0
O_BTN
Text HLabel 3500 3100 2    60   Output ~ 0
O_GND
Text Label 7500 2950 2    60   ~ 0
SER_OUT
Wire Wire Line
	3400 1400 3400 1350
Connection ~ 3400 1350
Wire Wire Line
	2600 1350 3500 1350
Wire Wire Line
	1100 1050 3500 1050
Wire Wire Line
	1100 1550 1100 1050
Wire Wire Line
	1150 1150 5100 1150
Wire Wire Line
	1150 1450 1150 1150
Wire Wire Line
	1200 1250 3500 1250
Wire Wire Line
	1200 1350 1200 1250
Wire Wire Line
	2600 1550 3500 1550
Wire Wire Line
	2600 1450 5000 1450
Wire Wire Line
	1100 1550 2100 1550
Wire Wire Line
	1150 1450 2100 1450
Wire Wire Line
	2100 1350 1200 1350
Text Label 2850 1550 0    60   ~ 0
GND
Text Label 2850 1050 0    60   ~ 0
BTN
Text Label 2850 1250 0    60   ~ 0
VCC
Text Label 2850 1450 0    60   ~ 0
SCK
Text Label 2850 1150 0    60   ~ 0
LATCH
Text Label 2850 1350 0    60   ~ 0
SER_IN
$Comp
L CONN_02X03 P4
U 1 1 57C7EE15
P 2350 1450
F 0 "P4" H 2350 1650 50  0000 C CNN
F 1 "CONN_02X03" H 2350 1250 50  0000 C CNN
F 2 "Pin_Headers:Pin_Header_Straight_2x03" H 2350 1150 50  0000 C CNN
F 3 "" H 2350 250 50  0000 C CNN
	1    2350 1450
	1    0    0    -1  
$EndComp
$Comp
L R_Small R4k7_1
U 1 1 57D06FCC
P 10450 1450
F 0 "R4k7_1" H 10480 1470 50  0000 L CNN
F 1 "R_Small" H 10480 1410 50  0000 L CNN
F 2 "Resistors_SMD:R_0805_HandSoldering" H 10450 1450 50  0000 C CNN
F 3 "" H 10450 1450 50  0000 C CNN
	1    10450 1450
	1    0    0    -1  
$EndComp
Wire Wire Line
	10450 1550 10450 1900
Wire Wire Line
	10450 1900 10950 1900
Text Label 10750 1900 2    60   ~ 0
GND
Wire Wire Line
	2700 4650 3600 4650
Wire Wire Line
	1200 4350 3600 4350
Wire Wire Line
	1200 4850 1200 4350
Wire Wire Line
	1250 4450 5200 4450
Wire Wire Line
	1250 4750 1250 4450
Wire Wire Line
	1300 4550 3600 4550
Wire Wire Line
	1300 4650 1300 4550
Wire Wire Line
	2700 4850 3600 4850
Wire Wire Line
	2700 4750 5100 4750
Wire Wire Line
	1200 4850 2200 4850
Wire Wire Line
	1250 4750 2200 4750
Wire Wire Line
	2200 4650 1300 4650
Text Label 2950 4850 0    60   ~ 0
GND
Text Label 2950 4350 0    60   ~ 0
BTN
Text Label 2950 4550 0    60   ~ 0
VCC
Text Label 2950 4750 0    60   ~ 0
SCK
Text Label 2950 4450 0    60   ~ 0
LATCH
Text Label 2950 4650 0    60   ~ 0
SER_IN
$Comp
L CONN_02X03 DISPLAY2
U 1 1 57F0B20A
P 2450 4750
F 0 "DISPLAY2" H 2450 4950 50  0000 C CNN
F 1 "CONN_02X03" H 2450 4550 50  0000 C CNN
F 2 "Pin_Headers:Pin_Header_Straight_2x03" H 2450 4450 50  0000 C CNN
F 3 "" H 2450 3550 50  0000 C CNN
	1    2450 4750
	1    0    0    -1  
$EndComp
$EndSCHEMATC
